Division,WeightClassKg,Place,Name,Team,BodyweightKg,Best3SquatKg,Best3BenchKg,Best3DeadliftKg,TotalKg,Equipment,Event,Sex
Boys,51.71,1,Luke Duvall,North Mesquite,51.71,117.93,72.57,142.88,333.39,Single-ply,SBD,M
Boys,51.71,2,Je'Tory Roberts,Mesquite Horn,50.12,120.2,63.5,136.08,319.78,Single-ply,SBD,M
Boys,55.79,3,Matt Castillo,North Mesquite,51.94,113.4,54.43,122.47,290.3,Single-ply,SBD,M
Boys,51.71,4,Simon Lafond,Garland Rowlett,50.58,83.91,38.56,102.06,224.53,Single-ply,SBD,M
Boys,55.79,1,Corey Chappell,Garland Rowlett,54.2,120.2,70.31,142.88,333.39,Single-ply,SBD,M
Boys,59.87,2,Michael Dvorak,Garland Rowlett,56.02,92.99,47.63,136.08,276.69,Single-ply,SBD,M
Boys,55.79,3,Michael Hodges,Mesquite Horn,55.57,92.99,61.23,102.06,256.28,Single-ply,SBD,M
Boys,59.87,1,Cody McSwain,Garland Sachse,59.87,174.63,90.72,165.56,430.91,Single-ply,SBD,M
Boys,59.87,2,Gerardo Romo,North Mesquite,59.87,133.81,88.45,145.15,367.41,Single-ply,SBD,M
Boys,59.87,3,M Stenline,South Garland,59.87,111.13,58.97,127.01,297.1,Single-ply,SBD,M
Boys,59.87,4,Armani Johnson,Mesquite Horn,59.19,111.13,47.63,127.01,285.76,Single-ply,SBD,M
Boys,74.84,1,T. Davis,South Garland,67.36,174.63,127.01,188.24,489.88,Single-ply,SBD,M
Boys,67.13,2,Ashton Hunter,Garland Sachse,65.09,172.37,97.52,195.04,464.93,Single-ply,SBD,M
Boys,67.13,3,Rhicki Wood,Garland Sachse,64.86,174.63,99.79,179.17,453.59,Single-ply,SBD,M
Boys,67.13,4,Jakeem Grant,Mesquite Horn,65.09,156.49,99.79,188.24,444.52,Single-ply,SBD,M
Boys,67.13,5,Richard Crockett,Mesquite Horn,65.54,151.95,88.45,181.44,421.84,Single-ply,SBD,M
Boys,67.13,6,Hayward Johnson,Mesquite Horn,64.18,154.22,95.25,154.22,403.7,Single-ply,SBD,M
Boys,67.13,7,A Daniels,South Garland,62.37,140.61,79.38,147.42,367.41,Single-ply,SBD,M
Boys,67.13,8,Patrick Levels,West Mesquite,66.9,145.15,83.91,138.35,367.41,Single-ply,SBD,M
Boys,74.84,1,Ottis Nevels,Mesquite Horn,68.27,204.12,120.2,213.19,537.51,Single-ply,SBD,M
Boys,74.84,2,Jamiah Ellis,Garland Rowlett,73.94,215.46,102.06,206.38,523.9,Single-ply,SBD,M
Boys,74.84,3,Brian Luna,West Mesquite,71.89,183.7,111.13,204.12,498.95,Single-ply,SBD,M
Boys,74.84,4,Garrett Kraus,Garland Sachse,74.39,190.51,108.86,183.7,483.08,Single-ply,SBD,M
Boys,82.1,5,Keegan McCarthy,Garland Sachse,75.07,188.24,111.13,183.7,483.08,Single-ply,SBD,M
Boys,74.84,6,Jason Thomas,Mesquite Horn,73.03,188.24,111.13,176.9,476.27,Single-ply,SBD,M
Boys,74.84,7,Austin Vanloon,Garland Rowlett,74.39,183.7,88.45,181.44,453.59,Single-ply,SBD,M
Boys,74.84,8,Brandon Myles,North Mesquite,69.63,172.37,104.33,172.37,449.06,Single-ply,SBD,M
Boys,74.84,9,Avery Wren,Garland Rowlett,73.94,161.03,102.06,170.1,433.18,Single-ply,SBD,M
Boys,82.1,1,Brandon Lowery,Garland Sachse,81.87,215.46,133.81,215.46,564.72,Single-ply,SBD,M
Boys,82.1,2,Zach Wilmany,Garland Rowlett,81.42,208.65,122.47,217.72,548.85,Single-ply,SBD,M
Boys,82.1,3,J. Davis,South Garland,79.83,199.58,136.08,183.7,519.36,Single-ply,SBD,M
Boys,82.1,4,Horace Borders,North Mesquite,80.29,204.12,108.86,185.97,498.95,Single-ply,SBD,M
Boys,82.1,5,Blake Glenn,Garland Rowlett,77.79,170.1,99.79,183.7,453.59,Single-ply,SBD,M
Boys,89.81,6,Fred Ngwu,West Mesquite,82.33,170.1,117.93,158.76,446.79,Single-ply,SBD,M
Boys,82.1,7,Calvin Estrada,Garland Rowlett,77.34,161.03,104.33,174.63,439.98,Single-ply,SBD,M
Boys,82.1,8,Blake Childress,West Mesquite,81.65,147.42,102.06,161.03,410.5,Single-ply,SBD,M
Boys,82.1,9,A. Sharp,South Garland,76.43,195.04,111.13,,306.17,Single-ply,SB,M
Boys,89.81,1,Shina Adejuyigbe,Mesquite Horn,85.73,215.46,117.93,222.26,555.65,Single-ply,SBD,M
Boys,89.81,2,Ishmiah Miles,Garland Sachse,88,199.58,115.67,213.19,528.44,Single-ply,SBD,M
Boys,89.81,3,P. Davis,South Garland,86.18,190.51,131.54,204.12,526.17,Single-ply,SBD,M
Boys,89.81,4,Tom Nguyen,Garland Rowlett,85.28,197.31,115.67,210.92,523.9,Single-ply,SBD,M
Boys,89.81,5,A. Johnson,South Garland,84.37,185.97,131.54,201.85,519.36,Single-ply,SBD,M
Boys,89.81,6,Chuck Oputa,North Mesquite,89.36,192.78,99.79,192.78,485.34,Single-ply,SBD,M
Boys,89.81,7,Nick Sandoval,North Mesquite,84.14,190.51,117.93,158.76,467.2,Single-ply,SBD,M
Boys,89.81,8,Eddie Alcantor,West Mesquite,88.22,181.44,120.2,,301.64,Single-ply,SB,M
Boys,99.79,1,E. White,South Garland,99.79,226.8,158.76,215.46,601.01,Single-ply,SBD,M
Boys,109.77,2,Markeith Thomas,West Mesquite,100.02,238.14,108.86,219.99,566.99,Single-ply,SBD,M
Boys,99.79,3,Isaac Puga,Mesquite Horn,90.72,192.78,133.81,199.58,526.17,Single-ply,SBD,M
Boys,99.79,4,Kyandrea Choice,Garland Sachse,93.21,176.9,122.47,215.46,514.83,Single-ply,SBD,M
Boys,99.79,5,Austin Ortiz,West Mesquite,93.67,204.12,108.86,197.31,510.29,Single-ply,SBD,M
Boys,99.79,6,Azeze Adawale,West Mesquite,95.25,190.51,113.4,206.38,510.29,Single-ply,SBD,M
Boys,109.77,1,Joe Bergeron,North Mesquite,102.74,254.01,149.69,249.48,653.17,Single-ply,SBD,M
Boys,109.77,2,Tyrone Melton,Garland Sachse,102.06,238.14,151.95,226.8,616.89,Single-ply,SBD,M
Boys,109.77,3,Stephon Sanders,Mesquite Horn,100.7,190.51,117.93,204.12,512.56,Single-ply,SBD,M
Boys,109.77,4,Kyle Miller #6,West Mesquite,105.01,170.1,122.47,183.7,476.27,Single-ply,SBD,M
Boys,124.74,1,O'Chea Thomas,Garland Rowlett,119.98,226.8,129.27,260.82,616.89,Single-ply,SBD,M
Boys,124.74,2,Andrew Eisaman,North Mesquite,119.98,226.8,127.01,226.8,580.6,Single-ply,SBD,M
Boys,124.74,3,Derrick Lockett,North Mesquite,116.57,215.46,138.35,204.12,557.92,Single-ply,SBD,M
Boys,124.74,4,Andrew Akens,North Mesquite,120.66,210.92,122.47,195.04,528.44,Single-ply,SBD,M
Boys,124.74,5,Abran Oaks,Garland Sachse,119.07,208.65,117.93,197.31,523.9,Single-ply,SBD,M
Boys,124.74,6,Michael King,West Mesquite,118.84,183.7,124.74,151.95,460.4,Single-ply,SBD,M
Boys,124.74+,1,B Foma,South Garland,139.48,260.82,147.42,242.67,650.91,Single-ply,SBD,M
Boys,124.74+,2,Cipriano Almaguer,Mesquite Horn,154.67,231.33,127.01,251.74,610.08,Single-ply,SBD,M
Boys,124.74+,3,C Cline,South Garland,140.16,204.12,136.08,215.46,555.65,Single-ply,SBD,M
Boys,124.74+,4,Kris Weeks,Garland Sachse,140.84,181.44,142.88,210.92,535.24,Single-ply,SBD,M
Boys,124.74+,5,Jesse Brown,West Mesquite,143.34,210.92,117.93,181.44,510.29,Single-ply,SBD,M
