Name,BodyweightKg,WeightClassKg,Best3SquatKg,Bench4Kg,Best3BenchKg,Best3DeadliftKg,TotalKg,Place,Division,Event,Equipment,Sex
Troy Frisby,67.5,67.5,140,,75,185,400,1,Juniors,SBD,Single-ply,M
Barbara Hamilton,55.65,56,60,,40.5,80,180.5,1,Masters 2,SBD,Single-ply,F
Brian Chapman,57.75,60,72.5,,60,125,257.5,1,Masters 1,SBD,Single-ply,M
Michael Venning,59.2,60,60,,92.5,100,252.5,2,Masters 1,SBD,Single-ply,M
Michael Bowden,66.55,67.5,158,,102.5,198,458,1,Masters 1,SBD,Single-ply,M
Ron Gay,70,75,152.5,105.5,90,190,432.5,1,Masters 1,SBD,Single-ply,M
Charlie McMahon,75.4,82.5,135,,92.5,171,398.5,1,Masters 3,SBD,Single-ply,M
James Harrap,87.9,90,185,,130,220,535,1,Masters 1,SBD,Single-ply,M
