Division,WeightClassKg,Place,Name,Team,BodyweightKg,Best3SquatKg,Best3BenchKg,Best3DeadliftKg,TotalKg,Equipment,Event,Sex
Boys,51.71,1,Seth Kerchville,Liberty Hill,50.35,111.13,58.97,104.33,274.42,Single-ply,SBD,M
Boys,51.71,2,Jacob Villerreal,Gonzales,50.8,92.99,40.82,92.99,226.8,Single-ply,SBD,M
Boys,51.71,3,Austin Hay,Dripping Springs,51.71,72.57,43.09,97.52,213.19,Single-ply,SBD,M
Boys,51.71,4,Hunter Kutach,Cuero,49.44,88.45,36.29,86.18,210.92,Single-ply,SBD,M
Boys,59.87,1,Fernando Maldonado,Smithville,56.02,99.79,70.31,124.74,294.84,Single-ply,SBD,M
Boys,55.79,2,Chris Martinez,Bastrop,55.79,108.86,72.57,111.13,292.57,Single-ply,SBD,M
Boys,55.79,DQ,Marsalis Carrington,Austin Bowie,55.79,,,,,Single-ply,SBD,M
Boys,55.79,DQ,Ryan Blakey,Dripping Springs,55.79,,,,,Single-ply,SBD,M
Boys,55.79,DQ,Trey Fuller,Jarrell,55.34,142.88,,,,Single-ply,SBD,M
Boys,59.87,1,Jarrett Burford,Dripping Springs,59.87,174.63,113.4,181.44,469.47,Single-ply,SBD,M
Boys,59.87,2,Steffan Brown,Columbus,59.42,158.76,102.06,183.7,444.52,Single-ply,SBD,M
Boys,59.87,3,Will Meng,Liberty Hill,59.42,158.76,86.18,145.15,390.09,Single-ply,SBD,M
Boys,59.87,4,Tyler Wells,Gonzales,59.42,149.69,72.57,163.29,385.55,Single-ply,SBD,M
Boys,59.87,5,Hunter Luscombe,Sealy,59.87,131.54,68.04,129.27,328.85,Single-ply,SBD,M
Boys,59.87,6,Brandon Batot,Bastrop,59.42,120.2,61.23,136.08,317.51,Single-ply,SBD,M
Boys,59.87,7,Josh Malaer,Gonzales,59.87,111.13,56.7,124.74,292.57,Single-ply,SBD,M
Boys,59.87,DQ,Ryan Rodriguez,Cuero,59.87,,,,,Single-ply,SBD,M
Boys,59.87,DQ,Cole Brown,Giddings,59.87,,,,,Single-ply,SBD,M
Boys,59.87,DQ,Noah Gibbs,Liberty Hill,59.87,149.69,,,,Single-ply,SBD,M
Boys,67.13,1,Michael Latapie,Palacios,64.86,185.97,140.61,188.24,514.83,Single-ply,SBD,M
Boys,67.13,2,Connor Cross,Dripping Springs,67.13,217.72,106.59,190.51,514.83,Single-ply,SBD,M
Boys,67.13,DQ,Fisher Sutterfield,Austin Bowie,67.13,,,,,Single-ply,SBD,M
Boys,67.13,4,Daniel Iselt,Giddings,66.68,179.17,115.67,174.63,469.47,Single-ply,SBD,M
Boys,67.13,5,Noah Seaman,Palacios,67.13,156.49,95.25,179.17,430.91,Single-ply,SBD,M
Boys,67.13,6,Tristan Barefield,Cuero,60.78,154.22,79.38,165.56,399.16,Single-ply,SBD,M
Boys,67.13,7,Colton Matus,Columbus,66.9,147.42,92.99,140.61,381.02,Single-ply,SBD,M
Boys,67.13,8,John Marek,Bellville,64.41,136.08,81.65,136.08,353.8,Single-ply,SBD,M
Boys,67.13,9,Chris Blaschke,Smithville,62.69,122.47,74.84,151.95,349.27,Single-ply,SBD,M
Boys,67.13,10,Nathan Medellin,Gonzales,66.68,129.27,74.84,133.81,337.93,Single-ply,SBD,M
Boys,74.84,11,Andrew Smalls,Brookshire Royal,67.36,129.27,88.45,115.67,333.39,Single-ply,SBD,M
Boys,67.13,12,Elex Martinez,Cuero,66.22,133.81,56.7,131.54,322.05,Single-ply,SBD,M
Boys,67.13,13,Cody Patterson,Bastrop Cedar Creek,65.09,113.4,72.57,131.54,317.51,Single-ply,SBD,M
Boys,67.13,14,Ryan Brzozowski,Wallis Brazos,61.23,113.4,70.31,124.74,308.44,Single-ply,SBD,M
Boys,67.13,15,Devin Heitz,Smithville,66.86,122.47,77.11,108.86,308.44,Single-ply,SBD,M
Boys,67.13,16,Mike Hanneman,Austin Westlake,67.13,113.4,58.97,122.47,294.84,Single-ply,SBD,M
Boys,67.13,17,Jay Martinez,Wallis Brazos,67.13,90.72,49.9,99.79,240.4,Single-ply,SBD,M
Boys,67.13,DQ,Jacob Rodriguez,Smithville,67.13,,,,,Single-ply,SBD,M
Boys,67.13,DQ,Jose Jimenez,Palacios,67.13,,,,,Single-ply,SBD,M
Boys,67.13,DQ,Brandon Cox,Austin Westlake,67.13,,,,,Single-ply,SBD,M
Boys,74.84,1,Dalton Manning,Schulenburg,73.94,208.65,140.61,204.12,553.38,Single-ply,SBD,M
Boys,74.84,2,Weston Murry,Dripping Springs,74.84,185.97,83.91,199.58,469.47,Single-ply,SBD,M
Boys,74.84,3,Collen Dungen,Columbus,73.03,172.37,111.13,181.44,464.93,Single-ply,SBD,M
Boys,74.84,4,Travis Schauer,Gonzales,70.31,142.88,83.91,158.76,385.55,Single-ply,SBD,M
Boys,82.1,5,Jesse Orozco,Hempstead,75.07,129.27,113.4,140.61,383.29,Single-ply,SBD,M
Boys,74.84,6,Dustin Adams,Bellville,74.84,142.88,92.99,142.88,378.75,Single-ply,SBD,M
Boys,74.84,7,Christian Busby,Brookshire Royal,71.89,147.42,70.31,151.95,369.68,Single-ply,SBD,M
Boys,74.84,8,Trent Schauer,Gonzales,74.39,140.61,83.91,142.88,367.41,Single-ply,SBD,M
Boys,74.84,9,Logan O'Connor,Columbus,72.8,140.61,88.45,131.54,360.61,Single-ply,SBD,M
Boys,74.84,10,Edward Haynes,Wallis Brazos,73.26,124.74,90.72,136.08,351.53,Single-ply,SBD,M
Boys,74.84,11,Cade Courtemanche,Smithville,72.26,140.61,77.11,127.01,344.73,Single-ply,SBD,M
Boys,74.84,12,Matthew Ziats,Smithville,74.39,111.13,77.11,147.42,335.66,Single-ply,SBD,M
Boys,74.84,13,Weston Seets,Hempstead,71.21,113.4,61.23,108.86,283.5,Single-ply,SBD,M
Boys,74.84,14,Ian Garner,Wallis Brazos,73.48,68.04,68.04,90.72,226.8,Single-ply,SBD,M
Boys,74.84,DQ,Josue Garcia,Jarrell,74.84,,,,,Single-ply,SBD,M
Boys,74.84,DQ,Victor Moya,Jarrell,74.84,,,,,Single-ply,SBD,M
Boys,74.84,DQ,Eugene Shorter,Columbus,74.84,,,,,Single-ply,SBD,M
Boys,74.84,DQ,Tyler Graves,Cuero,74.84,,,,,Single-ply,SBD,M
Boys,74.84,DQ,Jobe Falcon,Dripping Springs,74.84,,,,,Single-ply,SBD,M
Boys,74.84,DQ,Drew Williamson,Cuero,74.84,,,,,Single-ply,SBD,M
Boys,74.84,DQ,Jaric Crider,Bellville,68.04,113.4,,,,Single-ply,SBD,M
Boys,74.84,DQ,Clint Mician,Schulenburg,68.04,106.59,,,,Single-ply,SBD,M
Boys,82.1,1,Marcos Cardenas,Jarrell,82.1,238.14,140.61,235.87,614.62,Single-ply,SBD,M
Boys,82.1,2,Ernie Jaime,Jarrell,82.1,231.33,142.88,210.92,585.13,Single-ply,SBD,M
Boys,82.1,3,Oziel Rios,Palacios,81.65,213.19,161.03,204.12,578.33,Single-ply,SBD,M
Boys,82.1,4,Quentin Bradford,Bastrop,82.1,195.04,117.93,206.38,519.36,Single-ply,SBD,M
Boys,82.1,5,Ty Winkler,Schulenburg,81.42,197.31,111.13,197.31,505.76,Single-ply,SBD,M
Boys,82.1,6,Jaime Tellez,Gonzales,79.38,195.04,102.06,199.58,496.68,Single-ply,SBD,M
Boys,82.1,7,Duane Howard,Bastrop,79.38,170.1,108.86,165.56,444.52,Single-ply,SBD,M
Boys,82.1,8,Alex Avalos,Sealy,80.74,179.17,111.13,151.95,442.25,Single-ply,SBD,M
Boys,82.1,9,Bryce Luster,Austin Bowie,81.87,158.76,106.59,161.03,426.38,Single-ply,SBD,M
Boys,82.1,10,Wesley Roberts,Cuero,80.74,167.83,95.25,156.49,419.57,Single-ply,SBD,M
Boys,82.1,11,Joey Lilly,Hempstead,81.65,165.56,92.99,154.22,412.77,Single-ply,SBD,M
Boys,82.1,12,Omar Garcia,Bastrop,81.19,140.61,83.91,170.1,394.63,Single-ply,SBD,M
Boys,82.1,13,Henry Garcia,Brookshire Royal,77.11,147.42,77.11,154.22,378.75,Single-ply,SBD,M
Boys,82.1,14,Fabian Harvey,Hempstead,77.56,120.2,74.84,129.27,324.32,Single-ply,SBD,M
Boys,82.1,15,Colton George,Wallis Brazos,82.1,102.06,79.38,136.08,317.51,Single-ply,SBD,M
Boys,82.1,16,Omar Castro,Hempstead,81.19,92.99,83.91,120.2,297.1,Single-ply,SBD,M
Boys,82.1,17,Frank Trevino,Smithville,78.29,102.06,58.97,113.4,274.42,Single-ply,SBD,M
Boys,82.1,DQ,Ryan Buehler,Dripping Springs,82.1,,,,,Single-ply,SBD,M
Boys,82.1,DQ,David Cortes,Jarrell,82.1,,,,,Single-ply,SBD,M
Boys,82.1,DQ,Sotero Lara,Giddings,82.1,,,,,Single-ply,SBD,M
Boys,82.1,DQ,Thomas Ewing,Giddings,82.1,,,,,Single-ply,SBD,M
Boys,82.1,DQ,Simon Castillo,Bastrop Cedar Creek,82.1,,,,,Single-ply,SBD,M
Boys,82.1,DQ,Maurice Samuel,Bastrop,80.74,170.1,,,,Single-ply,SBD,M
Boys,89.81,1,Marlin O'Neal,Dripping Springs,89.81,242.67,142.88,226.8,612.35,Single-ply,SBD,M
Boys,89.81,2,DaAron Jackson,Smithville,89.4,242.67,124.74,233.6,601.01,Single-ply,SBD,M
Boys,89.81,3,Joseph Mendoza,Giddings,85.5,231.33,124.74,235.87,591.94,Single-ply,SBD,M
Boys,89.81,4,Deondre Acosta,Giddings,84.82,213.19,129.27,208.65,551.11,Single-ply,SBD,M
Boys,89.81,5,Jake Dawson,Smithville,88.18,215.46,117.93,190.51,523.9,Single-ply,SBD,M
Boys,89.81,6,Trey Taylor,Brookshire Royal,88,188.24,115.67,188.24,492.15,Single-ply,SBD,M
Boys,89.81,7,Reese Weishum,Bellville,85.96,167.83,122.47,192.78,483.08,Single-ply,SBD,M
Boys,89.81,8,Joseph Rodriguez,Bastrop Cedar Creek,88.45,172.37,111.13,190.51,474,Single-ply,SBD,M
Boys,89.81,9,Jacob Covington,Liberty Hill,84.82,176.9,111.13,165.56,453.59,Single-ply,SBD,M
Boys,89.81,10,Brandon Trevino,Cuero,86.64,188.24,102.06,158.76,449.06,Single-ply,SBD,M
Boys,89.81,11,Walter Hood,Gonzales,89.81,181.44,104.33,158.76,444.52,Single-ply,SBD,M
Boys,89.81,12,Jacob Garbs,Wallis Brazos,87.54,136.08,111.13,174.63,421.84,Single-ply,SBD,M
Boys,89.81,13,Glen Miles,Bellville,84.82,147.42,111.13,151.95,410.5,Single-ply,SBD,M
Boys,89.81,14,Kenny Alexander,Liberty Hill,86.64,140.61,81.65,170.1,392.36,Single-ply,SBD,M
Boys,89.81,15,Matt McLeod,Liberty Hill,87.54,142.88,92.99,147.42,383.29,Single-ply,SBD,M
Boys,89.81,DQ,Kyndall Stuart,Bellville,89.81,,,,,Single-ply,SBD,M
Boys,99.79,1,Kegan Bledsoe,Smithville,98.66,256.28,99.79,215.46,571.53,Single-ply,SBD,M
Boys,99.79,2,Avery McThompson,Dripping Springs,98.66,208.65,142.88,206.38,557.92,Single-ply,SBD,M
Boys,99.79,3,JT Miller,Gonzales,91.17,183.7,95.25,204.12,483.08,Single-ply,SBD,M
Boys,99.79,4,Cade Hurta,Smithville,92.76,192.78,106.59,172.37,471.74,Single-ply,SBD,M
Boys,99.79,5,Brandon Easley,Smithville,91.26,170.1,120.2,156.49,446.79,Single-ply,SBD,M
Boys,99.79,6,William Wang,Austin Westlake,93.44,172.37,90.72,172.37,435.45,Single-ply,SBD,M
Boys,109.77,7,John Tillmann,Schulenburg,100.02,156.49,104.33,154.22,415.04,Single-ply,SBD,M
Boys,99.79,8,Clayton Mays,Schulenburg,97.07,142.88,97.52,165.56,405.97,Single-ply,SBD,M
Boys,99.79,9,Travis Vornkahl,Bellville,91.17,158.76,92.99,151.95,403.7,Single-ply,SBD,M
Boys,99.79,10,Matthew Leos,Bastrop,92.53,142.88,79.38,142.88,365.14,Single-ply,SBD,M
Boys,99.79,11,Abel Ramirez,Bastrop Cedar Creek,93.44,149.69,77.11,127.01,353.8,Single-ply,SBD,M
Boys,99.79,12,Kohl Pickett,Columbus,90.72,142.88,81.65,124.74,349.27,Single-ply,SBD,M
Boys,99.79,DQ,Sam Sanchez,Columbus,99.79,,,,,Single-ply,SBD,M
Boys,99.79,DQ,Layne Balfanz,Cuero,92.53,,,,,Single-ply,SBD,M
Boys,99.79,DQ,Billy Rodriguez,Cuero,99.79,,,,,Single-ply,SBD,M
Boys,99.79,DQ,Rihl Dougherty,Dripping Springs,99.79,,,,,Single-ply,SBD,M
Boys,99.79,DQ,Dalton Blankemeyer,Bellville,99.79,,,,,Single-ply,SBD,M
Boys,99.79,DQ,Coleby Smith,Jarrell,99.79,,,,,Single-ply,SBD,M
Boys,99.79,DQ,Zach Jones,Bastrop Cedar Creek,99.79,,,,,Single-ply,SBD,M
Boys,99.79,DQ,Justen Williams,Bellville,91.63,124.74,,,,Single-ply,SBD,M
Boys,99.79,DQ,Kellen Carter,Giddings,91.17,183.7,,,,Single-ply,SBD,M
Boys,99.79,DQ,Shawn Goldstein,Giddings,91.4,188.24,131.54,,,Single-ply,SBD,M
Boys,109.77,DQ,Drew Peterson,Dripping Springs,103.19,,,,,Single-ply,SBD,M
Boys,109.77,2,Will Smith,Liberty Hill,105.23,219.99,149.69,195.04,564.72,Single-ply,SBD,M
Boys,109.77,3,Brian Branecky,Bastrop,102.06,217.72,122.47,188.24,528.44,Single-ply,SBD,M
Boys,109.77,4,Brian Dolezal,Gonzales,109.32,195.04,129.27,204.12,528.44,Single-ply,SBD,M
Boys,109.77,5,Mitchell Grimm,Liberty Hill,103.42,219.99,113.4,183.7,517.1,Single-ply,SBD,M
Boys,109.77,6,Riley Helmcamp,Smithville,105.51,197.31,120.2,197.31,514.83,Single-ply,SBD,M
Boys,109.77,7,CJ Sanchez,Austin Westlake,100.92,215.46,99.79,192.78,508.02,Single-ply,SBD,M
Boys,109.77,8,Johnathan Mondragon,Bastrop,108.86,204.12,120.2,183.7,508.02,Single-ply,SBD,M
Boys,109.77,9,Americo Cespedes,Bastrop,107.05,197.31,99.79,161.03,458.13,Single-ply,SBD,M
Boys,124.74,10,Robert Salvatierra,Liberty Hill,110,195.04,97.52,158.76,451.32,Single-ply,SBD,M
Boys,109.77,11,Kurt Bollinger,Sealy,109.54,174.63,106.59,156.49,437.72,Single-ply,SBD,M
Boys,109.77,12,Michael Trevino,Smithville,106.82,149.69,83.91,151.95,385.55,Single-ply,SBD,M
Boys,109.77,13,Tommy Harville,Jarrell,101.15,136.08,92.99,140.61,369.68,Single-ply,SBD,M
Boys,109.77,DQ,Kane Meartz,Columbus,109.77,,,,,Single-ply,SBD,M
Boys,124.74,1,Tristan Wendt,Schulenburg,123.38,272.16,183.7,242.67,698.53,Single-ply,SBD,M
Boys,124.74,2,Austin Pratt,Sealy,113.85,226.8,142.88,226.8,596.47,Single-ply,SBD,M
Boys,124.74,3,Ray Castillo,Bastrop Cedar Creek,115.21,204.12,122.47,199.58,526.17,Single-ply,SBD,M
Boys,124.74,4,Jeremy Rodriguez,Bastrop Cedar Creek,117.48,213.19,127.01,181.44,521.63,Single-ply,SBD,M
Boys,124.74,5,Levi Snider,Gonzales,118.84,192.78,117.93,199.58,510.29,Single-ply,SBD,M
Boys,124.74,6,Michel White,Austin Bowie,117.93,174.63,122.47,204.12,501.22,Single-ply,SBD,M
Boys,124.74,7,Donall Watson,Hempstead,122.02,204.12,108.86,158.76,471.74,Single-ply,SBD,M
Boys,124.74,8,Matt Fox,Liberty Hill,113.85,181.44,106.59,174.63,462.66,Single-ply,SBD,M
Boys,124.74,9,Isaac Baldwin,Austin Westlake,111.36,165.56,83.91,158.76,408.23,Single-ply,SBD,M
Boys,124.74,10,Alex Reinhart,Bastrop,112.04,142.88,79.38,142.88,365.14,Single-ply,SBD,M
Boys,124.74,11,Brett Bartels,Columbus,112.94,136.08,79.38,124.74,340.19,Single-ply,SBD,M
Boys,124.74,12,Phillip Thamm,Cuero,124.28,113.4,68.04,129.27,310.71,Single-ply,SBD,M
Boys,124.74,DQ,Zachery Hendrick,Giddings,124.74,,,,,Single-ply,SBD,M
Boys,124.74,DQ,Hunter Sutterfiled,Austin Bowie,124.74,,,,,Single-ply,SBD,M
Boys,124.74+,1,Jacob Sanders,Liberty Hill,130.63,231.33,102.06,192.78,526.17,Single-ply,SBD,M
Boys,124.74+,2,Alex Maturino,Columbus,134.26,190.51,104.33,158.76,453.59,Single-ply,SBD,M
Boys,124.74+,3,Dustin Blankemeyer,Bellville,136.98,201.85,95.25,151.95,449.06,Single-ply,SBD,M
