Division,Sex,WeightClassKg,Place,JapaneseName,Name,BirthYear,BodyweightKg,Squat1Kg,Squat2Kg,Squat3Kg,Bench1Kg,Bench2Kg,Bench3Kg,Deadlift1Kg,Deadlift2Kg,Deadlift3Kg,Best3SquatKg,Best3BenchKg,Best3DeadliftKg,TotalKg,Team,Event,Equipment
Open,M,59,1,久恒 歩,,1997,58.65,180,190,195,122.5,127.5,130,235,-248,-248,195,130,235,560,東京大学,SBD,Raw
Open,M,59,2,松崎 涼,,1999,58.05,170,182.5,192.5,90,97.5,102.5,200,210,-225,192.5,102.5,210,505,個人,SBD,Raw
Open,M,59,3,水野 貴章,Takaaki Mizuno,1967,58.75,165,-175,175,115,120,-125,200,-210,210,175,120,210,505,ゴールドジム成⽥千葉,SBD,Raw
Open,M,59,4,⼩林 一貴,,1982,57.95,150,160,165,110,120,-122.5,190,215,-220,165,120,215,500,TXP,SBD,Raw
Open,M,59,5,溝井 大斗,,1994,58.7,147.5,152.5,157.5,107.5,-112.5,-112.5,200,210,-220,157.5,107.5,210,475,個人,SBD,Raw
Open,M,59,6,向井 陽紀,,1987,58.8,150,157.5,160,112.5,117.5,-120,180,-187.5,-190,160,117.5,180,457.5,個人,SBD,Raw
Open,M,59,7,⼩野 雅史,,1978,58.25,130,140,-152.5,95,105,110,190,205,-215,140,110,205,455,個人,SBD,Raw
Open,M,59,8,溝尾 元洋,,1980,58.2,135,-145,150,-115,115,-125,150,165,-180,150,115,165,430,個人,SBD,Raw
Open,M,59,9,⼩巻 建太朗,,1988,58.45,142.5,147.5,152.5,-87.5,87.5,90,165,170,175,152.5,90,175,417.5,ゴールドジム成⽥千葉,SBD,Raw
Open,M,59,10,野坂 英治,,1980,58.35,140,-145,-145,80,85,-90,170,180,-190,140,85,180,405,チーム度肝,SBD,Raw
Open,M,59,11,初芝 隆宏,,1964,56.75,120,-130,130,90,95,-100,135,145,-150,130,95,145,370,ＲＥＤ ＺＯＮＥ 福島,SBD,Raw
Open,M,66,1,木内 陽介,Yosuke Kiuchi,1996,65.44,200,215,-220,130,140,-142.5,252.5,270,272.5,215,140,272.5,627.5,⻘⼭学院大学,SBD,Raw
Open,M,66,2,井上 雄介,Yusuke Inoue,1981,65.92,-210,215,225,-152.5,152.5,-157.5,-245,250,-265,225,152.5,250,627.5,雷神ファクトリー,SBD,Raw
Open,M,66,3,池上 宏樹,Hiroki Ikegami,1991,65.48,205,-215,215,137.5,142.5,145,252.5,257.5,-267.5,215,145,257.5,617.5,TXP,SBD,Raw
Open,M,66,4,佐竹 優典,Masanori Satake,1996,65.32,210,220,-230,135,140,-145,235,252.5,-257.5,220,140,252.5,612.5,⻘⼭学院大学,SBD,Raw
Open,M,66,5,宮崎 賀寿雄,,1986,65.7,200,210,-212.5,150,155,-157.5,235,-245,245,210,155,245,610,Ｆ・Ｔ ＧＹＭ,SBD,Raw
Open,M,66,6,木村 琢磨,,1984,65.36,200,210,-215,-155,-155,155,220,230,235,210,155,235,600,個人,SBD,Raw
Open,M,66,7,井戸 豊,,1983,65.5,225,235,240.5,115,120,-125,195,210,-222.5,240.5,120,210,570.5,石川県協会本部道場,SBD,Raw
Open,M,66,8,牛⼭ 恭太,,1997,65.6,175,182.5,187.5,140,145,150,-230,-230,230,187.5,150,230,567.5,ハイテク,SBD,Raw
Open,M,66,9,⿊瀬 奨太,,1994,65.64,185,192.5,-195,-140,145,-147.5,230,-240,-240,192.5,145,230,567.5,チーム岡⼭,SBD,Raw
Open,M,66,10,伊東 優太,,1984,65.48,185,195,205,110,115,-120,220,230,240,205,115,240,560,リアルスィング,SBD,Raw
Open,M,66,11,谷澤 直紀,,1995,65.4,170,180,185,115,122.5,130,200,210,220,185,130,220,535,TXP,SBD,Raw
Open,M,66,12,上⽥ 孝道,,1993,65.62,-190,-190,190,125,-135,-135,220,-235,-235,190,125,220,535,個人,SBD,Raw
Open,M,66,13,久保⽥ 甲斐,,1991,65.84,170,180,-185,120,125,-130,215,225,-232.5,180,125,225,530,個人,SBD,Raw
Open,M,66,14,槻 大⼆郎,,1988,65.6,170,177.5,182.5,115,125,130,185,195,202.5,182.5,130,202.5,515,ｽﾊﾟｰﾊﾟﾜｰアサマﾄﾚｰﾆﾝｸｸﾗﾌﾞ,SBD,Raw
Open,M,66,15,三河 涼,Ryo Mikawa,1986,65.38,180,192.5,-200,90,-100,100,200,215,-225,192.5,100,215,507.5,ｽﾊﾟｰﾊﾟﾜｰアサマﾄﾚｰﾆﾝｸｸﾗﾌﾞ,SBD,Raw
Open,M,66,16,玉水 一成,,1989,65.52,165,170,-175,-130,130,-132.5,190,200,-207.5,170,130,200,500,ＡＩＺＵ．ＰＯＷＥＲ．ＣＬＵＢ,SBD,Raw
Open,M,66,17,広居 尚人,,1994,65.72,180,190,-200,112.5,117.5,120,190,-200,-200,190,120,190,500,ＢＵＲＳＴ ＬＩＭＩＴ,SBD,Raw
Open,M,66,18,濱⽥ 成基,,1964,64.78,155,160,165,100,105,-110,205,-215,-217.5,165,105,205,475,リアルスィング,SBD,Raw
Open,M,66,19,藤⽥ 朋晴,,1973,65.64,160,170,-180,-105,110,112.5,-180,180,190,170,112.5,190,472.5,ESQＵATIR,SBD,Raw
Open,M,66,20,嵐 裕⽂,,1989,65.26,160,-165,-165,100,110,-115,185,190,197.5,160,110,197.5,467.5,個人,SBD,Raw
Open,M,66,21,鈴木 教郎,,1974,64.56,150,160,-167.5,105,110,-112.5,-185,-185,185,160,110,185,455,個人,SBD,Raw
Open,M,66,22,川上 薫寛,,1993,65.28,140,150,-155,-120,120,125,180,-190,-190,150,125,180,455,チームみそカツ,SBD,Raw
Open,M,66,23,井中 宏史,,1957,65.8,140,150,155,100,110,115,165,172.5,177.5,155,115,177.5,447.5,ちからこぶ,SBD,Raw
Open,M,66,24,中沢 聖⼆,,1984,63.76,155,162.5,-170,100,102.5,-105,170,180,-185,162.5,102.5,180,445,B・A・D,SBD,Raw
Open,M,66,25,藤⽥ 悠介,,1991,65.74,145,155,162.5,92.5,97.5,-100,160,172.5,185,162.5,97.5,185,445,ノーリミッツ,SBD,Raw
Open,M,66,26,三樹 範大,,1982,64.92,155,-165,-167.5,82.5,-87.5,-87.5,190,195,-200,155,82.5,195,432.5,大阪府ﾊﾟﾜｰﾘﾌﾃｨﾝｸﾞ協会,SBD,Raw
Open,M,66,DQ,失 渡邉 嶺,,1992,65.86,160,170,-177.5,-125,-125,-125,195,-210,-210,170,,195,,横浜マリンﾄﾚｰﾆﾝｸﾞｼﾞﾑ,SBD,Raw
Open,M,66,DQ,失 森下 剣人,,1988,64.78,162.5,175,180,102.5,110,112.5,-210,-210,-210,180,112.5,,,桑名体育館TC,SBD,Raw
Open,M,66,DQ,失 飛⽥ 渉,,1999,65.14,-210,-210,-210,-155,155,-160,-230,,,,155,,,個人,SBD,Raw
Open,M,74,1,宇都木 悠,,1994,73.75,220,235,242.5,150,155,157.5,245,265,-275,242.5,157.5,265,665,TXP,SBD,Raw
Open,M,74,2,原⽥ 潤,,1988,73.4,205,217.5,-222.5,155,160,162.5,255,265,270,217.5,162.5,270,650,リアルスィング,SBD,Raw
Open,M,74,3,藤井 優弥,,1998,73.5,215,230,235,135,-140,-140,260,280,-295,235,135,280,650,パワーハウス赤穂,SBD,Raw
Open,M,74,4,渋谷 優輝,Yuuki Shibuya,1985,73.1,225,232.5,-235,152.5,157.5,160,220,232.5,-242.5,232.5,160,232.5,625,Strength Gym Tokyo Bay,SBD,Raw
Open,M,74,5,梶原 広大,,1991,73.55,205,215,-220,150,157.5,160,250,-262.5,-262.5,215,160,250,625,チーム岡⼭,SBD,Raw
Open,M,74,6,仲村 龍治,,1981,73.7,200,207.5,212.5,150,160,-162.5,220,-240,240,212.5,160,240,612.5,ＢＩＧ ＢＥＡＲ ＧＹＭ,SBD,Raw
Open,M,74,7,松⼭ 聡,,1972,73.65,185,205,210,155,165,-167.5,205,225,235,210,165,235,610,ＴＥＡＭ Ｉ-CHIBA-N,SBD,Raw
Open,M,74,8,柳⽥ 雅彦,,1994,70.75,195,210,220,130,-140,140,220,235,-245,220,140,235,595,湘南BP,SBD,Raw
Open,M,74,9,⼩泉 安弘,,1975,73.05,190,200,205,140,150,-155,220,240,-257.5,205,150,240,595,ＣＬＵＢポイズン,SBD,Raw
Open,M,74,10,伊藤 学,Manabu Ito,1962,72.95,205,215,217.5,125,130,-132.5,230,242.5,-252.5,217.5,130,242.5,590,リアルスィング,SBD,Raw
Open,M,74,11,鍋倉 光,,1989,73.65,165,185,-200,125,135,-145,220,240,250,185,135,250,570,ｽﾊﾟｰﾊﾟﾜｰアサマﾄﾚｰﾆﾝｸｸﾗﾌﾞ,SBD,Raw
Open,M,74,12,高橋 優太,,1995,72.85,170,182.5,190,130,137.5,142.5,-205,220,232.5,190,142.5,232.5,565,ストロングライン,SBD,Raw
Open,M,74,13,若林 康平,,1994,73.45,172.5,180,187.5,120,125,130,220,232.5,-235,187.5,130,232.5,550,関⻄大学Ｓ＆Ｃクラブ,SBD,Raw
Open,M,74,14,五⽉⼥ 健,,1990,73.35,195,-200,-200,-120,120,-125,230,-235,-235,195,120,230,545,水⼾市ﾊﾟﾜｰﾘﾌﾃｨﾝｸﾞ協会,SBD,Raw
Open,M,74,15,⾥⾒ 正樹,,1976,71.4,165,175,180,115,120,122.5,205,220,225,180,122.5,225,527.5,⻄部組,SBD,Raw
Open,M,74,16,辻本 新,,1994,69.35,175,190,200,95,102.5,107.5,185,205,220,200,107.5,220,527.5,TXP,SBD,Raw
Open,M,74,17,水尻 真人,,1991,73.35,165,175,182.5,125,130,135,200,-210,-210,182.5,135,200,517.5,個人,SBD,Raw
Open,M,74,18,宍倉 弘樹,,1994,71.45,155,165,175,100,110,120,185,205,215,175,120,215,510,TEAM KASIWA FITNESS,SBD,Raw
Open,M,74,19,鵜野 雅也,,1992,73.4,190,-200,200,110,-115,-115,190,200,-210,200,110,200,510,⼩⽥原アリーナ,SBD,Raw
Open,M,74,20,大石 圭太朗,,1981,72.95,167.5,182.5,-200,115,-120,-120,182.5,195,205,182.5,115,205,502.5,ｽﾊﾟｰﾊﾟﾜｰアサマﾄﾚｰﾆﾝｸｸﾗﾌﾞ,SBD,Raw
Open,M,74,21,本多 博一,,1971,73.5,170,-180,180,100,110,-115,200,210,-220,180,110,210,500,個人,SBD,Raw
Open,M,74,22,岩本 拓龍,,1990,73.3,160,172.5,180,120,130,135,170,180,-190,180,135,180,495,個人,SBD,Raw
Open,M,74,23,伊達 翔太,,1988,73.05,160,170,-175,120,125,130,180,190,-195,170,130,190,490,個人,SBD,Raw
Open,M,74,24,草間 伸司,,1987,74,155,162.5,167.5,115,120,125,182.5,-190,192.5,167.5,125,192.5,485,ESQＵATIR,SBD,Raw
Open,M,74,25,巻渕 智彦,,1981,73.4,160,165,170,95,-100,100,185,195,205,170,100,205,475,ESQＵATIR,SBD,Raw
Open,M,74,DQ,失 楠元 浩之,,1970,73.95,-150,-150,-150,,,,,,,,,,,個人,SBD,Raw
Open,M,83,1,松尾 賢太郎,,1989,82.3,230,242.5,252.5,155,160,165,240,257.5,270,252.5,165,270,687.5,筋トレクラブまっちゃん,SBD,Raw
Open,M,83,2,平向 賢伍,,1984,81.6,242.5,250,257.5,142.5,150,157.5,262.5,-267.5,267.5,257.5,157.5,267.5,682.5,個人,SBD,Raw
Open,M,83,3,伊勢崎 勝史,,1987,81.2,220,235,245,160,167.5,172.5,240,255,-267.5,245,172.5,255,672.5,個人,SBD,Raw
Open,M,83,4,⻄村 直樹,,1987,82.25,250,261,263,135,142.5,145,235,245,252.5,263,145,252.5,660.5,ﾄﾚｰﾆﾝｸﾞｼﾞﾑＫＥＮＫＯＤＯ,SBD,Raw
Open,M,83,5,神野 亮司,,1981,82.5,220,230,235,150,155,160,235,250,265,235,160,265,660,MBC POWER,SBD,Raw
Open,M,83,6,永井 肇,,1984,82.7,230,240,245,140,145,-147.5,245,260,270,245,145,270,660,⻄東京パワー倶楽部,SBD,Raw
Open,M,83,7,鈴木 佑輔,Yusuke Suzuki,1984,79.9,220,230,-240,200,210.5,215,-212.5,212.5,-230,230,215,212.5,657.5,B・A・D,SBD,Raw
Open,M,83,8,宇津木 啓,,1996,82.55,225,240,-252.5,150,162.5,,230,-240,240,240,162.5,240,642.5,東洋大学,SBD,Raw
Open,M,83,9,佐名木 宗貴,,1978,82.4,215,220,,145,150,-152.5,245,255,-260,220,150,255,625,関⻄大学Ｓ＆Ｃクラブ,SBD,Raw
Open,M,83,10,⼋須 拳太郎,,1990,82.1,215,225,235,120,127.5,132.5,235,250,-260,235,132.5,250,617.5,TXP,SBD,Raw
Open,M,83,11,若⼭ 賢⼆,,1985,82.15,220,-230,-230,145,-150,-152.5,-250,250,-272.5,220,145,250,615,個人,SBD,Raw
Open,M,83,12,川口 充,,1970,81.95,210,220,225,142.5,147.5,150,230,237.5,-245,225,150,237.5,612.5,京都ﾊﾟﾜｰﾘﾌﾃｨﾝｸﾞｸﾗﾌﾞ,SBD,Raw
Open,M,83,13,手塚 晋太郎,,1992,81.15,215,225,-237.5,115,125,135,235,250,-265,225,135,250,610,ハマースポーツジム,SBD,Raw
Open,M,83,14,福島 勇輝,Yuki Fukushima,1986,82.25,225,-237.5,-240,145,150,155,225,-230,-230,225,155,225,605,Ｆ・Ｔ ＧＹＭ,SBD,Raw
Open,M,83,15,瀬藤 宗仁,,1991,81.5,220,-230,,110,-140,-140,240,260,-280,220,110,260,590,個人,SBD,Raw
Open,M,83,16,⽥村 僚⾺,,1984,82.4,-190,192.5,-195,137.5,140,,245,250,252.5,192.5,140,252.5,585,ＴＥＡＭ Ｉ-CHIBA-N,SBD,Raw
Open,M,83,17,⾺倉 実,,1966,82.55,215,225,232.5,-130,130,-135,195,207.5,220,232.5,130,220,582.5,スリムパワージム,SBD,Raw
Open,M,83,18,今古賀 翔,,1990,81.85,180,182.5,195,135,142.5,-145,200,220,230,195,142.5,230,567.5,ＥＶＥＲＬＩＦＴ,SBD,Raw
Open,M,83,19,谷澤 一矢,,1971,82.4,200,-210,-210,120,-125,125,220,230,-240,200,125,230,555,横浜マリンﾄﾚｰﾆﾝｸﾞｼﾞﾑ,SBD,Raw
Open,M,83,20,村上 晋之介,,1994,74.8,180,190,200,130,-140,-140,205,220,-230,200,130,220,550,FIT BULL,SBD,Raw
Open,M,83,21,川越 朋広,,1969,80.6,170,180,185,125,127.5,-132.5,-230,-230,230,185,127.5,230,542.5,TEAM KASIWA FITNESS,SBD,Raw
Open,M,83,22,守谷 智樹,,1985,82.65,180,187.5,195,100,112.5,120,200,215,222.5,195,120,222.5,537.5,チーム愛媛,SBD,Raw
Open,M,83,23,篠崎 智哉,,1994,81.6,175,190,200,125,130,-135,185,200,-215,200,130,200,530,個人,SBD,Raw
Open,M,83,24,村上 貴信,,1989,80.2,180,190,195,145,150,-152.5,180,-185,-185,195,150,180,525,チーム愛媛,SBD,Raw
Open,M,83,25,峯 彰宏,,1994,75.5,160,170,-180,125,-130,130,210,220,-230,170,130,220,520,NEXTREAM,SBD,Raw
Open,M,83,26,渡邉 透,,1990,80.5,175,180,-187.5,130,135,-140,200,-217.5,-225,180,135,200,515,個人,SBD,Raw
Open,M,83,27,大谷 朋男,,1961,82.8,180,190,-200,120,125,-130,185,195,-205,190,125,195,510,ノーリミッツ,SBD,Raw
Open,M,83,DQ,失 ⻄野 聖仁,,1993,82.4,190,200,-205,-115,-115,-115,205,215,222.5,200,,222.5,,ＥＶＥＲＬＩＦＴ,SBD,Raw
Open,M,83,DQ,失 ⼭本 航平,,1991,82.6,205,215,225,-155,-160,-160,,,,225,,,,個人,SBD,Raw
Open,M,93,1,宇佐美 清孝,Kiyotaka Usami,1970,91.98,225,242.5,250,175,182.5,185,265,280,-285,250,185,280,715,MBC POWER,SBD,Raw
Open,M,93,2,古川 潤,Jun Furukawa,1996,91.98,270,280,-286,130,140,142.5,270,-290,290,280,142.5,290,712.5,京都学園大学,SBD,Raw
Open,M,93,3,梶井 貴博,,1993,91.7,272.5,285.5,-290,150,157.5,162.5,235,252.5,257.5,285.5,162.5,257.5,705.5,兵庫個人選手会,SBD,Raw
Open,M,93,4,落合 広樹,Hiroki Ochai,1989,92.58,235,247.5,-255,162.5,172.5,-177.5,-250,250,280,247.5,172.5,280,700,KING BULL,SBD,Raw
Open,M,93,5,風張 透,,1998,93,240,255,-260,180,187.5,190,240,255,-262.5,255,190,255,700,ノーリミッツ,SBD,Raw
Open,M,93,6,中島 良介,,1989,85.66,-220,225,-232.5,170,175,-177.5,270,-280,-285,225,175,270,670,個人,SBD,Raw
Open,M,93,7,古賀 友太郎,,1990,91.4,242.5,250,255,142.5,150,-152.5,240,-280,-287.5,255,150,240,645,TXP,SBD,Raw
Open,M,93,8,岡崎 洋平,,1984,90.54,210,225,230,135,142.5,147.5,210,225,232.5,230,147.5,232.5,610,ＡＩＺＵ．ＰＯＷＥＲ．ＣＬＵＢ,SBD,Raw
Open,M,93,9,宮 元気,,1994,92.8,220,-230,232.5,135,140,-145,220,230,237.5,232.5,140,237.5,610,ハマースポーツジム,SBD,Raw
Open,M,93,10,高木 啓樹,,1981,92.38,200,217.5,225,157.5,167.5,172.5,180,200,210,225,172.5,210,607.5,ストロングライン,SBD,Raw
Open,M,93,11,片桐 圭一,,1982,90.92,220,230,-240,135,-140,-140,240,-250,-250,230,135,240,605,個人,SBD,Raw
Open,M,93,12,須永 裕介,,1976,91.94,215,230,-240,170,-180,-180,190,200,-207.5,230,170,200,600,ハマースポーツジム,SBD,Raw
Open,M,93,13,目⿊ 英一,,1969,92.4,200,215,-220,160,165,-170,200,220,-225,215,165,220,600,パワーハウスつくば,SBD,Raw
Open,M,93,14,村⼭ 康平,,1992,88.12,215,230,-240,130,137.5,-140,210,230,-235,230,137.5,230,597.5,TXP,SBD,Raw
Open,M,93,15,本波 仁,,1993,92.44,190,200,210,135,140,-145,210,225,235,210,140,235,585,チーム度肝,SBD,Raw
Open,M,93,16,大野 直人,,1968,92.22,190,200,-207.5,140,145,147.5,220,235,-245,200,147.5,235,582.5,パワーハウスつくば,SBD,Raw
Open,M,93,17,神尾 明宏,,1970,91.96,220,230,232.5,120,125,-127.5,222.5,-242.5,,232.5,125,222.5,580,ＴＥＡＭ Ｉ-CHIBA-N,SBD,Raw
Open,M,93,18,根⽴ｴﾘｷ ﾍﾞﾆｼｵ,,1987,87.82,190,200,-207.5,130,135,-137.5,210,225,-232.5,200,135,225,560,TXP,SBD,Raw
Open,M,93,19,⻄澤 佑介,,1980,92.4,200,210,-215,135,-140,-140,200,-215,-215,210,135,200,545,ゴールドジム名古屋⾦⼭,SBD,Raw
Open,M,93,20,猿渡 英和,,1978,92.36,185,195,-200,145,155,-157.5,190,-200,,195,155,190,540,ESQＵATIR,SBD,Raw
Open,M,93,21,高⽥ 翔士,,1991,90.84,195,202.5,-210,110,-117.5,-117.5,180,205,210,202.5,110,210,522.5,ちからこぶ,SBD,Raw
Open,M,105,1,羽⽥ 大,,1988,104.5,260,272.5,280,170,175,180,255,265,272.5,280,180,272.5,732.5,レッドゾーン福島,SBD,Raw
Open,M,105,2,武⽥ 祐介,,1985,96.85,240,260,270,175,185,-192.5,240,260,270,270,185,270,725,TXP,SBD,Raw
Open,M,105,3,遠藤 健太,,1988,102.15,260,267.5,272.5,190,200,-202.5,240,250,,272.5,200,250,722.5,仙台市体育館ＰＣ,SBD,Raw
Open,M,105,4,平井 勇輝,,1984,103.6,250,255,-260,-170,-170,170,255,275,285,255,170,285,710,高岡ＴＣ,SBD,Raw
Open,M,105,5,栗原 弘教,,1985,104.2,255,270,-275,150,160,165,245,260,-267.5,270,165,260,695,Training-Studio〝Master Maind″,SBD,Raw
Open,M,105,6,中根 孝弘,,1971,103.6,225,240,-245,170,180,185,235,255,260,240,185,260,685,ハマースポーツジム,SBD,Raw
Open,M,105,7,前⽥ 有輝,,1994,99.05,250,265,-270,145,155,-160,240,260,-265,265,155,260,680,グッドコンディション,SBD,Raw
Open,M,105,8,⼩早川 公則,,1976,100.45,245,260,-265,150,155,-157.5,245,260,-270,260,155,260,675,MBC POWER,SBD,Raw
Open,M,105,9,軍司 和貴,,1994,103.55,240,250,255,145,152.5,155,240,252.5,262.5,255,155,262.5,672.5,個人,SBD,Raw
Open,M,105,10,池⽥ 大輔,,1982,102.85,210,230,240,170,180,-185,230,250,-260,240,180,250,670,ESQＵATIR,SBD,Raw
Open,M,105,11,荒川 龍一,,1994,100.45,235,-255,255,140,150,152.5,-250,250,-270,255,152.5,250,657.5,パワーハウス,SBD,Raw
Open,M,105,12,廣渡 浩平,,1987,102.15,220,232.5,242.5,165,175,-185,220,230,-237.5,242.5,175,230,647.5,フェニックスジム,SBD,Raw
Open,M,105,13,佐野 雅史,,1985,95,210,-220,-235,145,-155,-155,290,-300,-300,210,145,290,645,高岡TC,SBD,Raw
Open,M,105,14,芳賀 涼平,,1993,97.65,220,230,-240,-140,140,-142.5,240,260,267.5,230,140,267.5,637.5,ｺﾞｰﾙﾄﾞｼﾞﾑ横浜上星川,SBD,Raw
Open,M,105,15,越前 祐輔,,1988,98.85,210,232.5,242.5,145,152.5,-155,210,230,235,242.5,152.5,235,630,POWER BOX,SBD,Raw
Open,M,105,16,橋本 到,,1989,104.65,220,235,245,150,160,-162.5,200,210,220,245,160,220,625,ノーリミッツ,SBD,Raw
Open,M,105,17,⽥邉 秀将,,1989,104.5,210,225,,150,160,-165,210,230,-247.5,225,160,230,615,個人,SBD,Raw
Open,M,105,18,大島 陣,,1991,98,195,210,-220,135,145,150,235,245,-262.5,210,150,245,605,ｳﾞｨｽﾎﾟﾊﾟﾜｰﾘﾌﾃｨﾝｸﾞｸﾗﾌﾞ,SBD,Raw
Open,M,105,19,鈴木 総司,,1989,98.75,190,200,210,145,152.5,157.5,-220,220,235,210,157.5,235,602.5,ｺﾞｰﾙﾄﾞｼﾞﾑ横須賀神奈川,SBD,Raw
Open,M,105,20,越野 大志,,1985,102,210,220,225,140,145,-147.5,230,-240,-240,225,145,230,600,ノーリミッツ,SBD,Raw
Open,M,105,21,高橋 ⻯介,,1981,94.6,185,200,210,120,127.5,132.5,195,217.5,-230,210,132.5,217.5,560,キムンカムイ旭川,SBD,Raw
Open,M,120,1,久井 宏真,,1986,118.94,300,310,-321,160,170,-175,280,290,295,310,170,295,775,パワーハウス赤穂,SBD,Raw
Open,M,120,2,山川 太希,Taiki Yamakawa,1996,118.16,260,280,290,-160,160,165,280,305,-320,290,165,305,760,那覇ジム,SBD,Raw
Open,M,120,3,加瀬 智,,1991,118.96,-245,250,270,180,190,192.5,225,232.5,240,270,192.5,240,702.5,ＫʼｓＧＹＭ横浜,SBD,Raw
Open,M,120,4,松澤 孝信,Takanobu Matsuzawa,1992,109.82,230,240,250,155,162.5,170,255,270,-282.5,250,170,270,690,ｽﾊﾟｰﾊﾟﾜｰアサマﾄﾚｰﾆﾝｸｸﾗﾌﾞ,SBD,Raw
Open,M,120,5,⽥口 照人,,1992,117.96,220,240,-260,185,200,-210.5,200,220,-240,240,200,220,660,個人,SBD,Raw
Open,M,120,6,林 直明,,1991,105.02,200,212.5,220,140,145,-150,250,260,-270,220,145,260,625,パワーハウスつくば,SBD,Raw
Open,M,120,7,中村 敏雄,,1970,114.68,205,220,230,165,172.5,177.5,200,212.5,-227.5,230,177.5,212.5,620,TXP,SBD,Raw
Open,M,120,8,⽥近 良忠,,1974,105.12,220,222.5,230,-130,130,-135,220,230,-240,230,130,230,590,ゴールドジム柏千葉,SBD,Raw
Open,M,120,9,越久⽥ 匡利,,1978,119,212.5,232.5,242.5,117.5,122.5,-127.5,212.5,225,-235,242.5,122.5,225,590,個人,SBD,Raw
Open,M,120+,1,⼭本 翔太,,1989,159.25,240,252.5,260,185,195,-200,252.5,265,272.5,260,195,272.5,727.5,ＡＣＴＯＲ,SBD,Raw
Open,M,120+,2,岩波 吾猛,,1980,123.9,275,300,305.5,130,145,152.5,220,-245,245,305.5,152.5,245,703,個人,SBD,Raw
Open,M,120+,3,海⽼⽥ 旭,,1979,134.5,215,230,240,160,170,-175,220,235,-250,240,170,235,645,TXP,SBD,Raw
Open,M,120+,4,大城 朝史,,1983,126.25,230,-250,-250,155,-162.5,-162.5,220,230,240,230,155,240,625,那覇ジム,SBD,Raw
Juniors,M,53,1,平井 凱斗,,1997,52.85,155,-162.5,168,70,-75,-75,160,167.5,-177.5,168,70,167.5,405.5,個人,SBD,Raw
Juniors,M,53,2,⽥辺 陽太,,1998,44.95,110,-120,120,60,65,70,140,150,155,120,70,155,345,岡⼭商科大学,SBD,Raw
Juniors,M,53,3,寺岡 拓朗,,1998,51.65,110,-117.5,117.5,70,75,77.5,110,137.5,-150,117.5,77.5,137.5,332.5,岡⼭大学,SBD,Raw
Juniors,M,59,1,松崎 涼,,1999,58.05,170,182.5,192.5,90,97.5,102.5,200,210,-225,192.5,102.5,210,505,個人,SBD,Raw
Juniors,M,59,2,⽥村 陽,,1999,58.75,165,175,-177.5,-115,120,-122.5,200,207.5,-215,175,120,207.5,502.5,⻘⼭学院大学,SBD,Raw
Juniors,M,59,3,土屋 潤人,,2000,58.35,170,177.5,180,110,120,122.5,180,192.5,-197.5,180,122.5,192.5,495,岡崎城⻄高等学校,SBD,Raw
Juniors,M,59,4,鈴木 康之,,1996,58.9,140,-145,-145,-110,110,112.5,170,182.5,190,140,112.5,190,442.5,Ｆ・Ｔ ＧＹＭ,SBD,Raw
Juniors,M,59,5,濱砂 水喜,,2000,58.5,130,140,147.5,100,107.5,115,-160,160,177.5,147.5,115,177.5,440,春日部共栄高等学校,SBD,Raw
Juniors,M,59,6,浅井 優希,,1999,58.05,130,140,-150,90,95,97.5,200,-210,-210,140,97.5,200,437.5,京都学園大学,SBD,Raw
Juniors,M,59,7,池⽥ 健太郎,,1996,58.75,125,-132.5,132.5,95,-100,-100,185,195,-212.5,132.5,95,195,422.5,個人,SBD,Raw
Juniors,M,59,8,⼩林 崇人,,1998,59,125,130,135,90,95,97.5,150,155,165,135,97.5,165,397.5,東洋大学,SBD,Raw
Juniors,M,59,9,遠藤 真輝,,1998,58.45,125,132.5,137.5,70,72.5,75,150,-160,165,137.5,75,165,377.5,東北大学ﾎﾞﾃﾞｨﾋﾞﾙ部,SBD,Raw
Juniors,M,59,10,原⽥ 晃希,,1999,56,130,-135,135,75,80,-82.5,145,-160,-160,135,80,145,360,ちからこぶ,SBD,Raw
Juniors,M,59,DQ,失 新島 宏嗣,,1998,58.25,-130,-130,-130,75,80,-82.5,170,180,-185,,80,180,,東北大学ﾎﾞﾃﾞｨﾋﾞﾙ部,SBD,Raw
Juniors,M,66,1,木内 陽介,Yosuke Kiuchi,1996,65.44,200,215,-220,130,140,-142.5,252.5,270,272.5,215,140,272.5,627.5,⻘⼭学院大学,SBD,Raw
Juniors,M,66,2,佐竹 優典,Masanori Satake,1996,65.32,210,220,-230,135,140,-145,235,252.5,-257.5,220,140,252.5,612.5,⻘⼭学院大学,SBD,Raw
Juniors,M,66,3,牛⼭ 恭太,,1997,65.6,175,182.5,187.5,140,145,150,-230,-230,230,187.5,150,230,567.5,ハイテク,SBD,Raw
Juniors,M,66,4,三永 隼人,,1996,65.98,182.5,195,-202.5,122.5,130,-137.5,225,235,242.5,195,130,242.5,567.5,パワーハウス赤穂,SBD,Raw
Juniors,M,66,5,澤木 勇佑,,1998,65.42,180,187.5,192.5,120,127.5,-135,200,-215,-215,192.5,127.5,200,520,ハイテク,SBD,Raw
Juniors,M,66,6,三井 靖也,,1996,65.62,155,165,170,127.5,137.5,140,200,210,-212.5,170,140,210,520,国際武道大学,SBD,Raw
Juniors,M,66,7,中原 昇,,1997,65.8,160,175,180,90,95,-100,200,210,220,180,95,220,495,個人,SBD,Raw
Juniors,M,66,8,富岡 航,,1997,65.62,140,150,-155,117.5,125,130,195,205,207.5,150,130,207.5,487.5,ハイテク,SBD,Raw
Juniors,M,66,9,石川 育夢,,2000,65.98,147.5,157.5,162.5,-110,115,122.5,172.5,185,192.5,162.5,122.5,192.5,477.5,浦和学院高等学校,SBD,Raw
Juniors,M,66,10,矢崎 尚悟,,1996,65.26,165,-175,-175,105,-110,-110,175,185,-190,165,105,185,455,慶應義塾大学,SBD,Raw
Juniors,M,66,11,佐藤 涼太,,1996,65.68,145,152.5,-157.5,110,117.5,-125,185,-205,-205,152.5,117.5,185,455,仙台市体育館ﾊﾟﾜｰﾘﾌﾃｨﾝｸﾞｸﾗﾌﾞ,SBD,Raw
Juniors,M,66,12,内野 ⼒仁,,1999,65.12,145,155,-165,95,100,105,160,170,-180,155,105,170,430,ストロングライン,SBD,Raw
Juniors,M,66,13,仲濱 慧,,2000,65.08,140,-145,145,72.5,77.5,-80,190,200,-220,145,77.5,200,422.5,ちからこぶ,SBD,Raw
Juniors,M,66,14,藤野 ⻯之介,,1999,65.02,-140,140,-150,-85,85,-87.5,160,170,185,140,85,185,410,東北大学ﾎﾞﾃﾞｨﾋﾞﾙ部,SBD,Raw
Juniors,M,66,DQ,失 飛⽥ 渉,,1999,65.14,-210,-210,-210,-155,155,-160,-230,,,,155,,,個人,SBD,Raw
Juniors,M,74,1,藤井 優弥,,1998,73.5,215,230,235,135,-140,-140,260,280,,235,135,280,650,パワーハウス赤穂,SBD,Raw
Juniors,M,74,2,齋藤 龍,,1998,73.7,220,230,-235,125,-135,135,250,260,-270,230,135,260,625,ストロングライン,SBD,Raw
Juniors,M,74,3,井上 悠成,,1996,68.9,180,195,200,105,115,-120,232.5,255,-270,200,115,255,570,個人,SBD,Raw
Juniors,M,74,4,⽥中 啓左,,1998,73.45,175,185,190,125,130,132.5,210,220,-227.5,190,132.5,220,542.5,⻘⼭学院大学,SBD,Raw
Juniors,M,74,5,上⽥ 駿,,1997,73.82,170,180,185,110,120,125,215,-225,-225,185,125,215,525,ハイテク,SBD,Raw
Juniors,M,74,6,瀬尾 雅也,,1996,73.5,175,187.5,192.5,125,-130,-130,187.5,200,-205,192.5,125,200,517.5,パワーハウスつくば,SBD,Raw
Juniors,M,74,7,下崎 剛主,,1999,73.1,175,180,-187.5,130,-135,135,185,195,-202.5,180,135,195,510,リアルスィング,SBD,Raw
Juniors,M,74,8,滝 翔貴,,1999,71.4,175,185,190,95,102.5,105,180,200,207.5,190,105,207.5,502.5,国際武道大学,SBD,Raw
Juniors,M,74,9,鳩⼭ 雄基,,1996,73,160,170,175,110,120,-125,190,197.5,205,175,120,205,500,東北大学ﾎﾞﾃﾞｨﾋﾞﾙ部,SBD,Raw
Juniors,M,74,10,鳴坂 俊希,,1999,73.86,157.5,167.5,-175,107.5,115,120,180,190,200,167.5,120,200,487.5,TXP,SBD,Raw
Juniors,M,74,11,木村 優太,,1997,73.6,180,-190,-190,95,100,-105,190,200,-210,180,100,200,480,慶應義塾大学,SBD,Raw
Juniors,M,74,12,井⼾ 勇利,,1998,73.8,150,165,170,105,110,-115,185,200,-212.5,170,110,200,480,北海学園大学,SBD,Raw
Juniors,M,74,13,⾺場 左吉,,1997,73.4,140,-142.5,150,95,100,-105,195,-200,200,150,100,200,450,慶應義塾大学,SBD,Raw
Juniors,M,74,14,前⽥ 歩夢,,1997,73.96,135,142.5,150,82.5,90,92.5,180,192.5,195,150,92.5,195,437.5,岡⼭商科大学,SBD,Raw
Juniors,M,74,15,鏡 裕輝,,1997,69.78,150,160,-165,80,85,-90,180,190,-202.5,160,85,190,435,網走パワーズ,SBD,Raw
Juniors,M,74,16,伊賀 悠太,,1996,71.18,-145,150,-160,85,92.5,-97.5,170,180,-187.5,150,92.5,180,422.5,東京理科大学,SBD,Raw
Juniors,M,74,DQ,失 ⼋巻 拓未,,1997,73.6,200,210,215,150,160,-168,-200,-200,-200,215,160,,,東京農業大学,SBD,Raw
Juniors,M,83,1,江川 昂汰,,1996,81.95,245,255,-265,135,140,142.5,235,245,252.5,255,142.5,252.5,650,京都学園大学,SBD,Raw
Juniors,M,83,2,照沼 直樹,,1997,81.95,217.5,225,230,140,-150,150,240,255,-272.5,230,150,255,635,Strength Gym Tokyo Bay,SBD,Raw
Juniors,M,83,3,岡野 太郎,,1997,82.75,190,200,210,160,-165,,240,-250,250,210,160,250,620,東京農業大学,SBD,Raw
Juniors,M,83,4,佐藤 亮太,,1996,81.35,205,215,,152.5,160,-165,210,225,235,215,160,235,610,ノーリミッツ,SBD,Raw
Juniors,M,83,5,⻑野 友紀,,1997,80.7,205,212.5,220,135,142.5,-147.5,230,237.5,-247.5,220,142.5,237.5,600,ＴＥＡＭ Ｉ-CHIBA-N,SBD,Raw
Juniors,M,83,6,石⽥ 典大,,1997,83,240,250.5,-255.5,125,127.5,132.5,207.5,-220,-227.5,250.5,132.5,207.5,590.5,東京理科大学,SBD,Raw
Juniors,M,83,7,塚脇 敏貴,,1999,81.3,185,-195,-195,130,135,-137.5,240,260,-270,185,135,260,580,京都学園大学,SBD,Raw
Juniors,M,83,8,野澤 健人,,1997,81.45,205,212.5,220,125,-132.5,-132.5,235,-245,-245,220,125,235,580,ESQＵATIR,SBD,Raw
Juniors,M,83,9,⻄村 将汰,,1999,82.65,180,200,205,168,172.5,-180.5,180,200,-215,205,172.5,200,577.5,個人,SBD,Raw
Juniors,M,83,10,ミラー ジャクソン,,2000,81.7,172.5,182.5,195,107.5,117.5,122.5,232.5,245,-260,195,122.5,245,562.5,ＥＶＥＲＬＩＦＴ,SBD,Raw
Juniors,M,83,11,⼩枝 大樹,,1997,82.55,182.5,192.5,200,105,112.5,-117.5,210,225,235,200,112.5,235,547.5,ＡＩＺＵ．ＰＯＷＥＲ．ＣＬＵＢ,SBD,Raw
Juniors,M,83,12,四分一 歩,,1997,82.55,180,-190,190,-120,120,-122.5,215,230,-240,190,120,230,540,東北大学ﾎﾞﾃﾞｨﾋﾞﾙ部,SBD,Raw
Juniors,M,83,13,高島 祐也,,1998,81.2,180,-192.5,-192.5,115,125,-132.5,190,205,-215,180,125,205,510,パワーハウスつくば,SBD,Raw
Juniors,M,83,14,⽥中 眞,,1998,82.05,160,175,-177.5,135,145,-150,170,190,-205,175,145,190,510,京都学園大学,SBD,Raw
Juniors,M,83,15,富⼭ 和郎,,1998,80.65,165,172.5,180,105,110,-115,195,207.5,210,180,110,210,500,個人,SBD,Raw
Juniors,M,83,16,森⽥ 隆輝,,1997,82.2,155,-165,165,100,110,-115,200,210,-215,165,110,210,485,東北大学ﾎﾞﾃﾞｨﾋﾞﾙ部,SBD,Raw
Juniors,M,83,17,⼩池 優太,,1996,77.55,162.5,172.5,-177.5,105,110,-112.5,187.5,-200,200,172.5,110,200,482.5,新潟国際情報大学,SBD,Raw
Juniors,M,83,18,⻄⼭ 直杜,,1996,81.45,155,170,-175,100,-105,-105,200,210,-215,170,100,210,480,スリムパワージム,SBD,Raw
Juniors,M,83,19,村上 大河,,1997,78.5,170,180,-190,90,97.5,-100,190,200,-212.5,180,97.5,200,477.5,個人,SBD,Raw
Juniors,M,83,20,中野 将大,,1997,79.15,165,-175,-175,100,105,-110,180,-190,-190,165,105,180,450,ESQＵATIR,SBD,Raw
Juniors,M,93,1,古川 潤,Jun Furukawa,1996,91.98,270,280,-286,130,140,142.5,270,-290,290,280,142.5,290,712.5,京都学園大学,SBD,Raw
Juniors,M,93,2,シルバ英樹,,1999,92.42,210,222.5,235,130,137.5,-142.5,260,280,-293,235,137.5,280,652.5,日本体育大学,SBD,Raw
Juniors,M,93,3,大澤 嵩樹,,1997,91.28,250,260,270,140,-150,-150,230,240,-242.5,270,140,240,650,東北大学ﾎﾞﾃﾞｨﾋﾞﾙ部,SBD,Raw
Juniors,M,93,4,坂元 翔,,1997,92.46,-230,245,252.5,120,-132.5,-132.5,240,270,-282.5,252.5,120,270,642.5,ｺﾞｰﾙﾄﾞｼﾞﾑ名古屋⾦⼭,SBD,Raw
Juniors,M,93,5,⽥野 智徳,,1997,91.8,230,240,245,160,170,-175,205,-217.5,217.5,245,170,217.5,632.5,エイブルスポーツクラブ,SBD,Raw
Juniors,M,93,6,佐久間直哉,,2000,90.98,205,215,-220,150,157.5,160,210,230,240,215,160,240,615,ストロングライン,SBD,Raw
Juniors,M,93,7,⼩林 拓史,,1996,92.04,210,215,220,140,150,-155,210,230,-240,220,150,230,600,個人,SBD,Raw
Juniors,M,93,8,内藤 潤,,1996,83.88,185,200,-207.5,137.5,-145,-145,220,230,-240,200,137.5,230,567.5,新日鐵住⾦君津ﾎﾞﾃﾞｨﾋﾞﾙ同好会,SBD,Raw
Juniors,M,93,9,三橋 凱,,2000,83.13,200,-220,-220,120,125,-130,210,230,-260,200,125,230,555,京都学園大学,SBD,Raw
Juniors,M,93,10,森 壮太,,1998,91.78,165,180,190,135,140,145,180,-190,-190,190,145,180,515,岡⼭大学,SBD,Raw
Juniors,M,93,11,念代 朋哉,,2000,92.08,155,165,-175,75,82.5,87.5,210,220,230,165,87.5,230,482.5,東奥義塾高等学校,SBD,Raw
Juniors,M,93,12,今井 良太,,1998,90.36,-180,-180,180,-100,100,-110,-180,180,-200,180,100,180,460,東京理科大学,SBD,Raw
Juniors,M,105,1,細畑 幸佑,,1999,99.06,235,245,250,130,135,140,240,252.5,260,250,140,260,650,早稲⽥大学,SBD,Raw
Juniors,M,105,2,榊原 蓮,,1998,93.03,180,200,-210,110,120,-127.5,180,190,-195,200,120,190,510,京都学園大学,SBD,Raw
Juniors,M,120,1,山川 太希,Taiki Yamakawa,1996,118.16,260,280,290,-160,160,165,280,305,-320,290,165,305,760,那覇ジム,SBD,Raw
Juniors,M,120,2,大原 友海,,1996,110.88,252.5,267.5,-280,-155,162.5,-170,240,255,-270,267.5,162.5,255,685,早稲⽥大学,SBD,Raw
Sub-Juniors,M,53,1,藤⽥ 海斗,,2001,52.75,100,105,-110,75,80,82.5,-130,130,145,105,82.5,145,332.5,浦和学院高等学校,SBD,Raw
Sub-Juniors,M,59,1,⼭⽥ 真哉,,2001,57.1,125,137.5,145,100,110,115,170,185,-200.5,145,115,185,445,浦和学院高等学校,SBD,Raw
Sub-Juniors,M,59,2,渡邉 将慶,,2001,58.15,142.5,152.5,157.5,87.5,92.5,95,162.5,-172.5,172.5,157.5,95,172.5,425,草加高等学校,SBD,Raw
Sub-Juniors,M,59,3,北村 颯光,,2001,57.2,105,115,122.5,80,-85,-85,145,155,-165,122.5,80,155,357.5,浦和学院高等学校,SBD,Raw
Sub-Juniors,M,66,1,苅谷 賢展,,2002,65.35,160,167.5,-172.5,100,-110,-110,200,221.5,-223.5,167.5,100,221.5,489,岡崎城⻄高等学校,SBD,Raw
Sub-Juniors,M,66,2,野村 翔⾺,,2001,62.1,120,130,-137.5,75,82.5,-90,150,155,162.5,130,82.5,162.5,375,京都府⽴農芸高校,SBD,Raw
Sub-Juniors,M,66,3,⼩⻄ 健⼼,,2003,60.9,110,115,117.5,65,70,75,130,140,150,117.5,75,150,342.5,パワーハウス,SBD,Raw
Sub-Juniors,M,74,1,斎藤 昇亜,,2001,71.8,200,-216,-216,95,105,107.5,180,210,-230,200,107.5,210,517.5,個人,SBD,Raw
Sub-Juniors,M,74,2,藤井 泰陽,,2001,70.95,150,160,-170,100,110,-115,170,180,-190,160,110,180,450,常総学院高等学校,SBD,Raw
Sub-Juniors,M,83,1,富⽥ 慎之介,,2001,82.4,212.5,-220.5,220.5,140,145.5,-148,210,220,-227.5,220.5,145.5,220,586,浦和学院高等学校,SBD,Raw
Sub-Juniors,M,83,2,後藤 優誠,,2002,81.5,180,190,200,137.5,142.5,-146,190,-205,205,200,142.5,205,547.5,瀬野川ﾄﾚｰﾆﾝｸﾞｸﾗﾌﾞ,SBD,Raw
Sub-Juniors,M,83,3,石井 良一,,2001,75.6,150,160,-170,90,-97.5,,165,-175,-175,160,90,165,415,国士舘高等学校,SBD,Raw
Sub-Juniors,M,93,1,木之下⻯也,,2001,92.2,190,-200,,-130,130,-140,190,200,-212.5,190,130,200,520,個人,SBD,Raw
Sub-Juniors,M,105,1,⾦子 万⽣,,2001,93.8,170,180,-200,80,90,-100,190,200,215,180,90,215,485,京都府⽴農芸高校,SBD,Raw
Sub-Juniors,M,120,1,森 政也,,2001,105.15,185,200,-210,120,127.5,132.5,195,205,-220,200,132.5,205,537.5,浦和学院高等学校,SBD,Raw
Open,F,47,1,可児 理恵,Rie Kani,1979,46.8,110,115,-117,70,72.5,75,142.5,150,-155,115,75,150,340,ぴくしぃ整形外科,SBD,Raw
Open,F,47,2,福村 彩,,1986,46.28,87.5,95,100,62.5,67.5,-72.5,115,125,132.5,100,67.5,132.5,300,ストロングライン,SBD,Raw
Open,F,47,3,浦川 悠子,,1982,46.76,100,105,107.5,52.5,-55,-55,130,-135,-135,107.5,52.5,130,290,個人,SBD,Raw
Open,F,47,4,齊藤 恵,,1982,46.72,90,100,-105,50,55,57.5,120,130,-135,100,57.5,130,287.5,ＢＵＲＳＴ ＬＩＭＩＴ,SBD,Raw
Open,F,47,5,岡本 美樹,,1965,46.8,75,-80,80,-60,60,62.5,120,130,-135,80,62.5,130,272.5,リアルスィング,SBD,Raw
Open,F,47,6,笹尾 桃子,,1983,44.9,85,95,-97.5,40,45,-47.5,107.5,117.5,122.5,95,45,122.5,262.5,ｽﾊﾟｰﾊﾟﾜｰアサマﾄﾚｰﾆﾝｸｸﾗﾌﾞ,SBD,Raw
Open,F,47,7,池本 麻衣,,1993,46.6,-80,80,85,42.5,45,47.5,105,-110,-110,85,47.5,105,237.5,ゼウスジム,SBD,Raw
Open,F,47,8,⼩林菜々子,,1991,45.04,62.5,72.5,75,47.5,-55,-55,87.5,97.5,102.5,75,47.5,102.5,225,タケイパワージム,SBD,Raw
Open,F,47,9,東海林ゆい,,1993,42.96,65,72.5,-77.5,35,37.5,-40,80,90,-95,72.5,37.5,90,200,TXP,SBD,Raw
Open,F,52,1,早川 琴果,Kotomi Hayakawa,1995,50.16,95,102.5,107.5,72.5,75,77.5,140,-147.5,152.5,107.5,77.5,152.5,337.5,ESQＵATIR,SBD,Raw
Open,F,52,2,可児 遥,Haruka Kani,2004,50.64,115,122.5,-127.5,-57.5,60,-62.5,137.5,147.5,-156.5,122.5,60,147.5,330,フェニックスジム,SBD,Raw
Open,F,52,3,林 ⽂歌,,1982,52,95,-100,100,57.5,60,-65,-140,140,142.5,100,60,142.5,302.5,リアルスィング,SBD,Raw
Open,F,52,4,⻘⽊ 千明,,1992,50.36,100,105,-107.5,60,65,-67.5,120,125,130,105,65,130,300,MBC POWER,SBD,Raw
Open,F,52,5,河⻄ ⾹南,,1996,51.44,105,115,-117.5,65,-67.5,-67.5,120,-140,-140,115,65,120,300,ESQＵATIR,SBD,Raw
Open,F,52,6,田中 亜弥,,1987,51.78,95,105,110,47.5,52.5,-55,122.5,132.5,-140,110,52.5,132.5,295,TXP,SBD,Raw
Open,F,52,7,荻野 智子,,1997,47.7,100,-110,-110,65,-67.5,-67.5,105,-112.5,-112.5,100,65,105,270,ESQＵATIR,SBD,Raw
Open,F,52,8,坂井 真奈,,1989,47.6,75,80,-82.5,55,57.5,-60,-115,115,125,80,57.5,125,262.5,B・A・D,SBD,Raw
Open,F,52,9,木村 初子,Hatsuko Kimura,1951,50.74,80,90,-100,40,-45,,120,130,-135,90,40,130,260,ｽﾊﾟｰﾊﾟﾜｰアサマﾄﾚｰﾆﾝｸｸﾗﾌﾞ,SBD,Raw
Open,F,52,10,糸井 千都⾹,,1972,51.88,80,90,-95,50,52.5,-55,100,-110,110,90,52.5,110,252.5,TXP,SBD,Raw
Open,F,52,11,武智 わかな,,1993,51.9,70,75,80,45,-50,50,107.5,115,117.5,80,50,117.5,247.5,ノーリミッツ,SBD,Raw
Open,F,52,12,磯田 あかね,,1970,51.76,-80,80,85,50,55,-60,105,-112.5,-112.5,85,55,105,245,ｽﾊﾟｰﾊﾟﾜｰアサマﾄﾚｰﾆﾝｸｸﾗﾌﾞ,SBD,Raw
Open,F,52,13,田中 彰子,,1964,51.3,77.5,82.5,90,47.5,50,-52.5,95,100,-105,90,50,100,240,パワーハウス赤穂,SBD,Raw
Open,F,52,14,宮川 裕美子,,1984,51.5,70,75,80,-40,40,42.5,90,95,100,80,42.5,100,222.5,ノーリミッツ,SBD,Raw
Open,F,57,1,中野 栞,,1991,56.6,117.5,125,130,87.5,-92.5,92.5,125,132.5,-137.5,130,92.5,132.5,355,ノーリミッツ,SBD,Raw
Open,F,57,2,上林 理紗子,,1989,56.42,100,105,-110,52.5,55,-57.5,127.5,135,145,105,55,145,305,ノーリミッツ,SBD,Raw
Open,F,57,3,川端 友⺒,,1979,54.14,-100,-100,100,65,70,-72.5,125,132.5,-135,100,70,132.5,302.5,ゼウスジム,SBD,Raw
Open,F,57,4,番 詩織,,1991,56.62,100,105,107.5,-60,60,-62.5,125,130,-135,107.5,60,130,297.5,チームみそカツ,SBD,Raw
Open,F,57,5,菅生 桃子,,1990,55.94,95,-105,105,55,-60,-60,125,132.5,-142.5,105,55,132.5,292.5,京都ﾊﾟﾜｰﾘﾌﾃｨﾝｸﾞｸﾗﾌﾞ,SBD,Raw
Open,F,57,6,三浦恵美子,,1974,56.6,85,92.5,-97.5,55,60,-65,120,127.5,-132.5,92.5,60,127.5,280,ｽﾊﾟｰﾊﾟﾜｰアサマﾄﾚｰﾆﾝｸｸﾗﾌﾞ,SBD,Raw
Open,F,63,1,堤 彩夏,,1995,63,130,135,140,67.5,72.5,-75,145,152.5,-160,140,72.5,152.5,365,京優会,SBD,Raw
Open,F,63,2,鈴⽊ 恭子,,1977,62.62,122.5,132.5,-137.5,65,70,-72.5,135,147.5,-152.5,132.5,70,147.5,350,ｽﾊﾟｰﾊﾟﾜｰアサマﾄﾚｰﾆﾝｸｸﾗﾌﾞ,SBD,Raw
Open,F,63,3,石曽根直子,,1986,62.12,100,110,-120,60,-65,65,130,-140,-145,110,65,130,305,個人,SBD,Raw
Open,F,63,4,伊藤 治美,,1978,61.32,95,105,-110,57.5,-62.5,62.5,125,135,-140,105,62.5,135,302.5,Strength Gym Tokyo Bay,SBD,Raw
Open,F,63,5,柴山 夏英,,1984,59.86,-100,105,110,52.5,60,-65,110,120,-130,110,60,120,290,Training-Studio〝Master Maind″,SBD,Raw
Open,F,63,6,矢田 和砂,,1973,61.52,100,105,107.5,-52.5,-52.5,52.5,115,120,-125,107.5,52.5,120,280,ゼウスジム,SBD,Raw
Open,F,63,7,浦野 萌々,,1998,59.7,87.5,92.5,-100,47.5,50,-52.5,102.5,107.5,-110,92.5,50,107.5,250,ノーリミッツ,SBD,Raw
Open,F,63,8,岩崎 麻衣子,,1992,61.42,75,80,-82.5,47.5,50,-52.5,110,120,-130,80,50,120,250,個人,SBD,Raw
Open,F,72,1,野村 優,Yu Nomura,2000,71.14,135,140,-145,80,85,87.5,180,190,200,140,87.5,200,427.5,京都学園大学,SBD,Raw
Open,F,72,2,岡田 有加,Yuka Okado,1992,70.52,135,142.5,147.5,75,82.5,85,172.5,180,185,147.5,85,185,417.5,TXP,SBD,Raw
Open,F,72,3,竹内 あい,Ai Takeuchi,1989,68.4,150,-160,-165,75,80,-82.5,140,-147.5,-147.5,150,80,140,370,Jungle GYM,SBD,Raw
Open,F,72,4,前野 由衣,Yui Maeno,1989,70.22,115,125,-127.5,70,77.5,80,145,155,160,125,80,160,365,ｽﾊﾟｰﾊﾟﾜｰアサマﾄﾚｰﾆﾝｸｸﾗﾌﾞ,SBD,Raw
Open,F,72,5,武田 睦,,1986,71.68,122.5,132.5,-137.5,62.5,67.5,70,125,132.5,-140,132.5,70,132.5,335,TXP,SBD,Raw
Open,F,72,6,マッカーシー ビアンカ,Bianca McCarthy,1988,66.56,105,110,112.5,65,70,-72.5,125,135,140,112.5,70,140,322.5,TXP,SBD,Raw
Open,F,72,7,大賀瑞穂,,1966,71.32,80,90,-95,50,55,57.5,100,115,120,90,57.5,120,267.5,個人,SBD,Raw
Open,F,84,1,後藤 啓恵,,1966,78.88,95,102.5,-110,55,60,-67.5,110,117.5,120,102.5,60,120,282.5,ＢＵＲＳＴ ＬＩＭＩＴ,SBD,Raw
Open,F,84,2,中村 理歩,,1994,72.26,90,100,-102.5,50,55,57.5,105,117.5,120,100,57.5,120,277.5,個人,SBD,Raw
Open,F,84,DQ,梅村 優子,,1974,80.76,-160,-160,-160,,,,,,,,,,,ちからこぶ,SBD,Raw
Open,F,84+,1,土肥みちる,,1976,96.1,110,115,-120,55,60,-62.5,-100,-100,100,115,60,100,275,個人,SBD,Raw
Open,F,84+,2,岡 恵美,,1978,84.92,-75,80,85,47.5,50,52.5,107.5,-115,-115,85,52.5,107.5,245,個人,SBD,Raw
Juniors,F,43,1,浜田 華澄,,2000,41.5,70,80,-88.5,40,-45,-45,80,90,-100,80,40,90,210,ＫʼｓＧＹＭ横浜,SBD,Raw
Juniors,F,52,1,河⻄ ⾹南,,1996,51.44,105,115,-117.5,65,-67.5,-67.5,120,-140,-140,115,65,120,300,ESQＵATIR,SBD,Raw
Juniors,F,52,2,荻野 智子,,1997,47.7,100,-110,-110,65,-67.5,-67.5,105,-112.5,-112.5,100,65,105,270,ESQＵATIR,SBD,Raw
Juniors,F,57,1,伊藤 桃夏,,1997,55.84,70,80,-90,55,57.5,-60,95,110,-127.5,80,57.5,110,247.5,チームミラクル,SBD,Raw
Juniors,F,63,1,菅谷 友美,,1999,62.04,105,112.5,117.5,55,60,-62.5,115,130,140,117.5,60,140,317.5,早稲田大学,SBD,Raw
Juniors,F,63,2,浦野 萌々,,1998,59.7,87.5,92.5,-100,47.5,50,-52.5,102.5,107.5,-110,92.5,50,107.5,250,ノーリミッツ,SBD,Raw
Juniors,F,72,1,野村 優,Yu Nomura,2000,71.14,135,140,-145,80,85,87.5,180,190,200,140,87.5,200,427.5,京都学園大学,SBD,Raw
Juniors,F,72,2,森田 奈那,,2000,67.44,145,150,157.5,65,72.5,-75,140,150,160,157.5,72.5,160,390,個人,SBD,Raw
Juniors,F,84,1,栃下 みゆ,,1999,76.38,-120,120,-137.5,42.5,50,-52.5,115,125,140,120,50,140,310,京都学園大学,SBD,Raw
Sub-Juniors,F,52,1,可児 遥,Haruka Kani,2004,50.64,115,122.5,-127.5,-57.5,60,-62.5,137.5,147.5,-156.5,122.5,60,147.5,330,フェニックスジム,SBD,Raw
Sub-Juniors,F,52,2,榎本 雪来,,2002,51.25,55,60,-65,32.5,37.5,40,75,82.5,87.5,60,40,87.5,187.5,浦和学院高等学校,SBD,Raw
Sub-Juniors,F,52,3,ペニー舞弥,,2004,50.85,50,60,-65,25,-30,-30,65,80,-102.5,60,25,80,165,Ｔeam Advance,SBD,Raw
Sub-Juniors,F,57,1,岩崎 萌,,2003,56.2,70,82.5,92.5,37.5,42.5,-45,75,85,95,92.5,42.5,95,230,浦和学院高等学校,SBD,Raw
Sub-Juniors,F,57,2,⼩幡 歩美,,2003,56.15,70,75,80,40,42.5,-45,80,90,92.5,80,42.5,92.5,215,アイアンジム,SBD,Raw
Sub-Juniors,F,63,1,堀越 百恵,,2001,61.1,107.5,115,-120,50,55,57.5,110,120,130,115,57.5,130,302.5,常総学院高等学校,SBD,Raw
Sub-Juniors,F,72,1,藤原 志帆,,2002,68.75,125,135,140,65,70,75,140,150,160,140,75,160,375,国士舘高等学校,SBD,Raw
Sub-Juniors,F,72,2,林 美緒,,2001,71.5,130,-137.5,-137.5,70,-82.5,-82.5,140,-157.5,-157.5,130,70,140,340,岡崎城⻄高校,SBD,Raw
Sub-Juniors,F,72,3,松本 葵,,2001,71.55,90,-100,100,55,60,-62.5,100,120,-130,100,60,120,280,京都府⽴農芸高校,SBD,Raw
