Division,WeightClassKg,Place,Name,Team,BodyweightKg,Best3SquatKg,Best3BenchKg,Best3DeadliftKg,TotalKg,Equipment,Event,Sex
Boys,51.71,1,Travis White,Orange Little Cypress-Mauriceville,48.94,104.33,49.9,99.79,254.01,Single-ply,SBD,M
Boys,51.71,2,Robert Hunter,Nederland,51.21,92.99,43.09,83.91,219.99,Single-ply,SBD,M
Boys,55.79,1,Austin Leger,Lumberton,55.29,122.47,81.65,147.42,351.53,Single-ply,SBD,M
Boys,59.87,2,Quinten Kahla,Winnie East Chambers,55.84,115.67,68.04,111.13,294.84,Single-ply,SBD,M
Boys,55.79,3,John Nguyen,Beaumont West Brook,55.61,83.91,63.5,127.01,274.42,Single-ply,SBD,M
Boys,55.79,4,John Breaux,Nederland,53.66,86.18,56.7,113.4,256.28,Single-ply,SBD,M
Boys,55.79,5,Carmichael Wiley,Orangefield,53.25,90.72,58.97,90.72,240.4,Single-ply,SBD,M
Boys,67.13,1,Dylan Whitaker,Winnie East Chambers,60.01,136.08,81.65,120.2,337.93,Single-ply,SBD,M
Boys,67.13,1,Nick Dockens,Orange Little Cypress-Mauriceville,67.13,215.46,113.4,215.46,544.31,Single-ply,SBD,M
Boys,67.13,2,Austin Powell,Vidor,67.13,179.17,97.52,185.97,462.66,Single-ply,SBD,M
Boys,67.13,3,Caleb Modzelewski,Sour Lake Hardin-Jefferson,63.91,161.03,106.59,176.9,444.52,Single-ply,SBD,M
Boys,67.13,4,Dwayne Colone,Beaumont Ozen,64.36,149.69,99.79,192.78,442.25,Single-ply,SBD,M
Boys,74.84,5,Colby Trahan,Bridge City,67.31,190.51,79.38,170.1,439.98,Single-ply,SBD,M
Boys,67.13,6,Delis Chalambaga,Deweyville,61.78,158.76,88.45,161.03,408.23,Single-ply,SBD,M
Boys,67.13,7,Jordin Pastorella,Nederland,66.86,158.76,77.11,151.95,387.82,Single-ply,SBD,M
Boys,74.84,8,Randy Toson,Beaumont Ozen,67.22,131.54,92.99,147.42,371.95,Single-ply,SBD,M
Boys,67.13,9,James Pierce,Nederland,65.32,129.27,86.18,147.42,362.87,Single-ply,SBD,M
Boys,74.84,10,Trevon Fobbs,Nederland,67.18,117.93,65.77,149.69,333.39,Single-ply,SBD,M
Boys,67.13,11,Chris Hagner,Nederland,63.23,131.54,58.97,136.08,326.59,Single-ply,SBD,M
Boys,67.13,12,Conrad Breitensten,Nederland,64.18,120.2,65.77,136.08,322.05,Single-ply,SBD,M
Boys,67.13,DQ,Darvin Gatlin,Beaumont West Brook,66.77,197.31,,,,Single-ply,SBD,M
Boys,74.84,1,Austin Simmons,Hamshire-Fannett,72.17,215.46,197.31,195.04,607.81,Single-ply,SBD,M
Boys,74.84,2,Jacobie Brown,Beaumont West Brook,72.8,195.04,120.2,195.04,510.29,Single-ply,SBD,M
Boys,74.84,3,Jonah Howell,Lumberton,72.71,172.37,104.33,208.65,485.34,Single-ply,SBD,M
Boys,74.84,4,Jackson Calhoun,Orangefield,69.26,174.63,104.33,190.51,469.47,Single-ply,SBD,M
Boys,74.84,5,DJ Aull,Vidor,70.31,172.37,92.99,174.63,439.98,Single-ply,SBD,M
Boys,74.84,6,Chris Stokes,Hamshire-Fannett,69.04,147.42,102.06,158.76,408.23,Single-ply,SBD,M
Boys,82.1,7,Caleb Cook,Lumberton,75.02,158.76,88.45,145.15,392.36,Single-ply,SBD,M
Boys,74.84,8,Brandon Thomas,Lumberton,73.21,145.15,79.38,136.08,360.61,Single-ply,SBD,M
Boys,74.84,DQ,Josh Colline,Beaumont Ozen,68.81,147.42,,,,Single-ply,SBD,M
Boys,74.84,DQ,Josh Alfred,Beaumont West Brook,73.75,111.13,79.38,,,Single-ply,SBD,M
Boys,74.84,DQ,Cameron Rhodman,Beaumont Ozen,69.26,170.1,,,,Single-ply,SBD,M
Boys,74.84,DQ,Xavier Mitchell,Beaumont Central,71.49,131.54,,,,Single-ply,SBD,M
Boys,82.1,1,Christian Andrews,Beaumont Ozen,78.29,226.8,145.15,219.99,591.94,Single-ply,SBD,M
Boys,82.1,2,Coleton Boudreaux,Orange Little Cypress-Mauriceville,81.47,233.6,136.08,204.12,573.79,Single-ply,SBD,M
Boys,89.81,3,Joshua Bowie,Beaumont West Brook,82.19,222.26,120.2,219.99,562.45,Single-ply,SBD,M
Boys,82.1,4,Taylor Reddell,Winnie East Chambers,77.47,199.58,115.67,185.97,501.22,Single-ply,SBD,M
Boys,82.1,5,Garrett Floyd,Sour Lake Hardin-Jefferson,80.47,158.76,106.59,185.97,451.32,Single-ply,SBD,M
Boys,82.1,6,Demetri Stamatus,Nederland,76.52,163.29,102.06,149.69,415.04,Single-ply,SBD,M
Boys,82.1,7,Jonathan Brown #1,Beaumont West Brook,80.56,129.27,88.45,151.95,369.68,Single-ply,SBD,M
Boys,82.1,8,Mario Lopez,Nederland,77.11,113.4,86.18,147.42,347,Single-ply,SBD,M
Boys,82.1,9,Darryl Coleman,Beaumont West Brook,77.29,124.74,79.38,136.08,340.19,Single-ply,SBD,M
Boys,82.1,10,Jamaal Hilliard,Beaumont West Brook,75.7,83.91,88.45,108.86,281.23,Single-ply,SBD,M
Boys,82.1,DQ,Dalen Guillory,Sour Lake Hardin-Jefferson,81.96,174.63,,,,Single-ply,SBD,M
Boys,89.81,1,Bruce Reyes,Beaumont West Brook,84.82,260.82,122.47,219.99,603.28,Single-ply,SBD,M
Boys,89.81,2,Lorence Richards,Hamshire-Fannett,86.5,226.8,113.4,226.8,566.99,Single-ply,SBD,M
Boys,89.81,3,Brentyn Clark,Vidor,86.36,210.92,129.27,192.78,532.97,Single-ply,SBD,M
Boys,99.79,4,Layne Walker,Sour Lake Hardin-Jefferson,89.95,197.31,104.33,213.19,514.83,Single-ply,SBD,M
Boys,89.81,5,Zach Cole,Bridge City,88.59,215.46,108.86,188.24,512.56,Single-ply,SBD,M
Boys,89.81,6,Dylan Trahan,Bridge City,89.04,188.24,142.88,174.63,505.76,Single-ply,SBD,M
Boys,89.81,7,Ian Putman,Orangefield,84.87,192.78,127.01,181.44,501.22,Single-ply,SBD,M
Boys,89.81,8,Kirby Johnson,Winnie East Chambers,84.23,190.51,106.59,195.04,492.15,Single-ply,SBD,M
Boys,89.81,9,Zach Griffin,Beaumont Central,89.09,174.63,122.47,192.78,489.88,Single-ply,SBD,M
Boys,99.79,10,Blake Nolan,Nederland,89.95,156.49,95.25,181.44,433.18,Single-ply,SBD,M
Boys,89.81,11,Mathew Carter,Beaumont West Brook,85.59,174.63,92.99,142.88,410.5,Single-ply,SBD,M
Boys,89.81,12,Jacob Brinkley,Nederland,85.73,145.15,81.65,161.03,387.82,Single-ply,SBD,M
Boys,99.79,1,Mitchell Jennings,Orange Little Cypress-Mauriceville,99.61,238.14,165.56,201.85,605.55,Single-ply,SBD,M
Boys,99.79,2,Rj Pastorello,Nederland,97.57,226.8,138.35,204.12,569.26,Single-ply,SBD,M
Boys,99.79,3,Edmund Horn,Lumberton,90.9,215.46,138.35,204.12,557.92,Single-ply,SBD,M
Boys,99.79,4,Blake Trejo,Nederland,91.58,145.15,113.4,167.83,426.38,Single-ply,SBD,M
Boys,99.79,5,J Tyler,Port Arthur Memorial,90.49,142.88,88.45,185.97,417.3,Single-ply,SBD,M
Boys,99.79,6,Jacob Frost,Nederland,92.62,170.1,79.38,163.29,412.77,Single-ply,SBD,M
Boys,99.79,7,Bryson Martinez,Beaumont West Brook,90.45,104.33,68.04,113.4,285.76,Single-ply,SBD,M
Boys,109.77,1,Allen Harris,Beaumont Central,102.24,226.8,147.42,260.82,635.03,Single-ply,SBD,M
Boys,109.77,2,S. Brown,Port Arthur Memorial,108.09,204.12,113.4,204.12,521.63,Single-ply,SBD,M
Boys,109.77,3,Zach Burkhalter,Lumberton,105.46,185.97,117.93,181.44,485.34,Single-ply,SBD,M
Boys,109.77,4,Kyle Fountain,Hamshire-Fannett,101.6,170.1,106.59,183.7,460.4,Single-ply,SBD,M
Boys,109.77,5,Stefan Griggs,Nederland,105.69,142.88,88.45,163.29,394.63,Single-ply,SBD,M
Boys,109.77,DQ,Cody Robinson,Lumberton,108,249.48,,,,Single-ply,SBD,M
Boys,109.77,DQ,Taylor Thompson,Port Neches-Groves,107.64,285.76,176.9,,,Single-ply,SBD,M
Boys,109.77,DQ,Jarred Lezak,Winnie East Chambers,100.15,,,,,Single-ply,SBD,M
Boys,124.74,1,Cameron Allen,Orange Little Cypress-Mauriceville,123.88,290.3,185.97,272.16,748.43,Single-ply,SBD,M
Boys,124.74,2,Aaron Easley,Port Neches-Groves,120.61,281.23,147.42,208.65,637.3,Single-ply,SBD,M
Boys,124.74,3,Brock Pryor,Nederland,117.57,240.4,142.88,197.31,580.6,Single-ply,SBD,M
Boys,124.74,4,Justin Brock,Beaumont West Brook,115.62,208.65,115.67,219.99,544.31,Single-ply,SBD,M
Boys,124.74,5,Jordon Laughlin,Hamshire-Fannett,123.83,197.31,120.2,199.58,517.1,Single-ply,SBD,M
Boys,124.74,6,Ryan Lebouef,Orangefield,123.97,185.97,95.25,192.78,474,Single-ply,SBD,M
Boys,124.74,DQ,Marcus Kelly,Beaumont West Brook,121.7,,,,,Single-ply,SBD,M
Boys,124.74+,1,Nashon Edwards,Beaumont Ozen,155.67,260.82,147.42,260.82,669.05,Single-ply,SBD,M
Boys,124.74+,DQ,Caleb Malveaux,Nederland,129.23,242.67,165.56,,,Single-ply,SBD,M
