Division,WeightClassKg,Place,Name,Team,BodyweightKg,Best3SquatKg,Best3BenchKg,Best3DeadliftKg,TotalKg,Equipment,Event,Sex
Boys,55.79,1,David Tubig,Burleson,51.94,113.4,68.04,129.27,310.71,Single-ply,SBD,M
Boys,51.71,2,Mohammad Ali,Mansfield Timberview,45.81,95.25,56.7,129.27,281.23,Single-ply,SBD,M
Boys,55.79,3,Derrick Williams,Kennedale,51.89,97.52,70.31,113.4,281.23,Single-ply,SBD,M
Boys,51.71,4,Ethan Johnson,Burleson Centennial,49.35,81.65,34.02,97.52,213.19,Single-ply,SBD,M
Boys,51.71,5,Armando Alvarado,Castleberry,49.53,65.77,43.09,92.99,201.85,Single-ply,SBD,M
Boys,55.79,6,Kyle Parks,Fort Worth Western Hills,51.94,52.16,38.56,63.5,154.22,Single-ply,SBD,M
Boys,51.71,7,Chris Walker,Fort Worth Western Hills,35.92,43.09,24.95,61.23,129.27,Single-ply,SBD,M
Boys,51.71,DQ,Jordan Bare,Kennedale,51.07,,,,,Single-ply,SBD,M
Boys,55.79,1,JT White,Cedar Hill,53.16,158.76,79.38,174.63,412.77,Single-ply,SBD,M
Boys,59.87,2,Dameon Bissant,Cedar Hill,55.97,165.56,79.38,158.76,403.7,Single-ply,SBD,M
Boys,59.87,3,Sean Wofford,Burleson,55.97,115.67,65.77,120.2,301.64,Single-ply,SBD,M
Boys,55.79,4,Gerardo Barrera,Venus,52.8,74.84,63.5,117.93,256.28,Single-ply,SBD,M
Boys,59.87,1,Tevin Cofield,Mansfield,58.42,158.76,99.79,172.37,430.91,Single-ply,SBD,M
Boys,59.87,2,Kevin Huynh,Kennedale,56.7,165.56,88.45,172.37,426.38,Single-ply,SBD,M
Boys,59.87,3,Trent Oliver,Cedar Hill,58.79,151.95,90.72,151.95,394.63,Single-ply,SBD,M
Boys,59.87,4,Austin Blalock,Burleson Centennial,58.88,129.27,79.38,154.22,362.87,Single-ply,SBD,M
Boys,59.87,5,Tristan Zamarripa,Lake Worth,57.42,129.27,79.38,151.95,360.61,Single-ply,SBD,M
Boys,67.13,6,Jayvier Rigmaiden,Burleson Centennial,60.1,142.88,63.5,151.95,358.34,Single-ply,SBD,M
Boys,59.87,7,Garrett Mowles,Venus,59.87,117.93,68.04,124.74,310.71,Single-ply,SBD,M
Boys,67.13,8,Hayden Brock,Kennedale,59.96,97.52,52.16,115.67,265.35,Single-ply,SBD,M
Boys,59.87,9,Tyler Gentry,Fort Worth Western Hills,57.88,74.84,43.09,115.67,233.6,Single-ply,SBD,M
Boys,59.87,DQ,Chris Hernandez,Venus,59.6,158.76,,,,Single-ply,SBD,M
Boys,74.84,DQ,Brandon Marsh,Burleson Centennial,67.36,,,,,Single-ply,SBD,M
Boys,67.13,2,Devante Owens,Mansfield,64.68,165.56,99.79,174.63,439.98,Single-ply,SBD,M
Boys,67.13,3,Kyle Van Pelt,Mansfield Timberview,63.78,165.56,104.33,158.76,428.64,Single-ply,SBD,M
Boys,67.13,4,Shakeel Jones,Fort Worth Western Hills,66.95,138.35,104.33,185.97,428.64,Single-ply,SBD,M
Boys,67.13,5,Cj Karber,Joshua,66.77,147.42,102.06,174.63,424.11,Single-ply,SBD,M
Boys,67.13,6,Tommie Martinez,Midlothian,65.59,158.76,102.06,156.49,417.3,Single-ply,SBD,M
Boys,67.13,7,Oscar Orozco,Castleberry,66.5,142.88,92.99,174.63,410.5,Single-ply,SBD,M
Boys,67.13,8,Levi Mowles,Venus,66.5,149.69,83.91,165.56,399.16,Single-ply,SBD,M
Boys,67.13,9,Garrett David,Waxahachie,64.05,142.88,74.84,172.37,390.09,Single-ply,SBD,M
Boys,67.13,10,Michael Royals,Burleson,65.77,138.35,77.11,158.76,374.21,Single-ply,SBD,M
Boys,67.13,11,Ethan Balthrop,Castleberry,61.42,136.08,74.84,147.42,358.34,Single-ply,SBD,M
Boys,74.84,12,Jack Zizzo,Lake Worth,67.36,136.08,90.72,124.74,351.53,Single-ply,SBD,M
Boys,67.13,13,William Newton #2,Cedar Hill,65.5,129.27,79.38,136.08,344.73,Single-ply,SBD,M
Boys,67.13,14,Bryan Ortiz,Castleberry,66.32,136.08,70.31,136.08,342.46,Single-ply,SBD,M
Boys,74.84,15,Griffin Balthrop,Castleberry,67.31,127.01,81.65,133.81,342.46,Single-ply,SBD,M
Boys,74.84,16,Stephen Linares,Kennedale,67.31,142.88,74.84,124.74,342.46,Single-ply,SBD,M
Boys,67.13,17,Bryan Latigo,Fort Worth Western Hills,62.96,106.59,68.04,158.76,333.39,Single-ply,SBD,M
Boys,67.13,18,River Grant,Cleburne,63.78,124.74,72.57,115.67,312.98,Single-ply,SBD,M
Boys,67.13,19,Gabriel Gonzalez,Mansfield,62.14,113.4,61.23,136.08,310.71,Single-ply,SBD,M
Boys,67.13,20,Ángel Sánchez,Lake Worth,61.33,113.4,65.77,129.27,308.44,Single-ply,SBD,M
Boys,67.13,21,Jeremy Pippin,Lake Worth,64.14,90.72,77.11,111.13,278.96,Single-ply,SBD,M
Boys,67.13,22,Kelton Cruz,Kennedale,60.51,104.33,49.9,108.86,263.08,Single-ply,SBD,M
Boys,67.13,DQ,Abraham Cervantes,Castleberry,62.23,,,,,Single-ply,SBD,M
Boys,74.84,1,Rene Rivas,Venus,71.4,206.38,122.47,229.06,557.92,Single-ply,SBD,M
Boys,74.84,2,Alex Scallion,Castleberry,73.94,204.12,117.93,204.12,526.17,Single-ply,SBD,M
Boys,74.84,3,Taylor Bissell,Burleson,68.22,181.44,99.79,199.58,480.81,Single-ply,SBD,M
Boys,74.84,4,Ben Adams,Cedar Hill,72.57,174.63,108.86,197.31,480.81,Single-ply,SBD,M
Boys,74.84,5,Josh Smith,Mansfield Timberview,72.48,192.78,111.13,174.63,478.54,Single-ply,SBD,M
Boys,74.84,6,Taylor Clark,Joshua,67.68,156.49,106.59,165.56,428.64,Single-ply,SBD,M
Boys,74.84,7,Jeremy Fuentes,Cleburne,67.86,156.49,95.25,167.83,419.57,Single-ply,SBD,M
Boys,74.84,8,Conner Malone,Midlothian,69.4,165.56,88.45,161.03,415.04,Single-ply,SBD,M
Boys,74.84,9,Greg Roberts,Lake Worth,73.84,163.29,90.72,158.76,412.77,Single-ply,SBD,M
Boys,74.84,10,Ty Stewart,Lake Worth,74.84,149.69,90.72,145.15,385.55,Single-ply,SBD,M
Boys,74.84,11,Collin Bundy,Kennedale,71.94,149.69,90.72,136.08,376.48,Single-ply,SBD,M
Boys,74.84,12,Vladimir Aguilar,Cleburne,73.39,133.81,81.65,149.69,365.14,Single-ply,SBD,M
Boys,74.84,13,Dennis Ralon,Lake Worth,68.86,142.88,95.25,124.74,362.87,Single-ply,SBD,M
Boys,74.84,14,Austin Powell,Fort Worth Western Hills,74.21,133.81,70.31,156.49,360.61,Single-ply,SBD,M
Boys,74.84,15,Tyler Coody,Midlothian,71.94,133.81,79.38,122.47,335.66,Single-ply,SBD,M
Boys,74.84,16,Matt Nwuchuku,Cedar Hill,70.13,115.67,83.91,129.27,328.85,Single-ply,SBD,M
Boys,74.84,17,Andrew Alegria,Lake Worth,71.12,117.93,77.11,131.54,326.59,Single-ply,SBD,M
Boys,74.84,18,Jorge Hernandez,Cleburne,73.48,136.08,61.23,115.67,312.98,Single-ply,SBD,M
Boys,74.84,19,Juan Folis,Cleburne,74.75,111.13,70.31,124.74,306.17,Single-ply,SBD,M
Boys,74.84,20,Chris Evans,Mansfield,73.12,61.23,61.23,129.27,251.74,Single-ply,SBD,M
Boys,74.84,DQ,Tim Landers,Castleberry,71.58,,,,,Single-ply,SBD,M
Boys,82.1,1,Blake Dunham,Burleson Centennial,80.83,219.99,113.4,226.8,560.19,Single-ply,SBD,M
Boys,82.1,2,David Rodriguez,Joshua,79.83,204.12,133.81,210.92,548.85,Single-ply,SBD,M
Boys,82.1,3,Jt Ibe,Mansfield,79.83,206.38,102.06,183.7,492.15,Single-ply,SBD,M
Boys,82.1,4,Tim Hutchins,Cedar Hill,81.19,183.7,106.59,192.78,483.08,Single-ply,SBD,M
Boys,82.1,5,Colin Radford,Joshua,76.75,165.56,115.67,183.7,464.93,Single-ply,SBD,M
Boys,82.1,6,Eric Maldonado,Castleberry,80.1,172.37,102.06,167.83,442.25,Single-ply,SBD,M
Boys,82.1,7,Manuel Murillo,Venus,81.37,183.7,102.06,154.22,439.98,Single-ply,SBD,M
Boys,82.1,8,Nathan Ferguson,Burleson Centennial,81.1,158.76,95.25,179.17,433.18,Single-ply,SBD,M
Boys,82.1,9,Trey Gloeckler,Burleson,76.57,149.69,90.72,174.63,415.04,Single-ply,SBD,M
Boys,82.1,10,Nick Hall,Mansfield,76.93,161.03,102.06,147.42,410.5,Single-ply,SBD,M
Boys,89.81,1,Craig Renfro,Waxahachie,85.91,267.62,140.61,260.82,669.05,Single-ply,SBD,M
Boys,89.81,2,KJ Evans,Joshua,86.09,240.4,149.69,233.6,623.69,Single-ply,SBD,M
Boys,89.81,3,Zach Haler,Cleburne,86.09,226.8,140.61,226.8,594.21,Single-ply,SBD,M
Boys,89.81,4,Leo Brooks,Kennedale,87.82,183.7,147.42,204.12,535.24,Single-ply,SBD,M
Boys,89.81,5,Jerry Burris,Cedar Hill,84.46,219.99,108.86,188.24,517.1,Single-ply,SBD,M
Boys,89.81,6,Cameron Bundy,Kennedale,87.91,176.9,136.08,195.04,508.02,Single-ply,SBD,M
Boys,89.81,7,Chase Wingo,Midlothian,87.54,174.63,102.06,199.58,476.27,Single-ply,SBD,M
Boys,89.81,8,Jalon Shade,Cedar Hill,83.37,163.29,115.67,192.78,471.74,Single-ply,SBD,M
Boys,89.81,9,Isiah Hall,Burleson,87.63,163.29,97.52,204.12,464.93,Single-ply,SBD,M
Boys,89.81,10,Blake Shipman,Mansfield,84.19,158.76,115.67,179.17,453.59,Single-ply,SBD,M
Boys,89.81,11,Kris Smith,Burleson Centennial,85.82,167.83,102.06,183.7,453.59,Single-ply,SBD,M
Boys,89.81,12,Joseph Brown,Mansfield,87.91,156.49,111.13,179.17,446.79,Single-ply,SBD,M
Boys,89.81,13,Austin Murrell,Burleson,86.45,161.03,97.52,176.9,435.45,Single-ply,SBD,M
Boys,89.81,14,Nathaniel Rutherford,Joshua,88.72,142.88,92.99,183.7,419.57,Single-ply,SBD,M
Boys,89.81,15,Christian Garcia,Fort Worth Western Hills,88.99,151.95,97.52,170.1,419.57,Single-ply,SBD,M
Boys,89.81,16,Malik Jamison,Kennedale,87.09,142.88,88.45,142.88,374.21,Single-ply,SBD,M
Boys,89.81,17,Randall Vasquez,Fort Worth Western Hills,83.46,111.13,97.52,161.03,369.68,Single-ply,SBD,M
Boys,89.81,DQ,Eduardo Cruz,Venus,88,156.49,,,,Single-ply,SBD,M
Boys,99.79,1,Calan Johnson,Cedar Hill,96.71,272.16,151.95,226.8,650.91,Single-ply,SBD,M
Boys,99.79,DQ,Cam Chamberlin,Burleson,97.79,,,,,Single-ply,SBD,M
Boys,99.79,3,Samuel Amaka,Mansfield Timberview,98.88,249.48,133.81,240.4,623.69,Single-ply,SBD,M
Boys,99.79,4,Trey McGahan,Kennedale,92.9,240.4,131.54,238.14,610.08,Single-ply,SBD,M
Boys,99.79,5,Josh Whitworth,Joshua,97.34,206.38,142.88,229.06,578.33,Single-ply,SBD,M
Boys,99.79,6,Keavin Turner,Cedar Hill,90.99,235.87,122.47,204.12,562.45,Single-ply,SBD,M
Boys,99.79,7,Steven Prater,Venus,94.44,210.92,136.08,213.19,560.19,Single-ply,SBD,M
Boys,99.79,8,Alejandro Anzaldea,Mansfield Timberview,98.34,226.8,145.15,183.7,555.65,Single-ply,SBD,M
Boys,99.79,9,Adam Arredondo,Waxahachie,98.79,215.46,129.27,197.31,542.04,Single-ply,SBD,M
Boys,99.79,10,Eric Martinez,Venus,94.35,197.31,124.74,213.19,535.24,Single-ply,SBD,M
Boys,99.79,11,Kendall Adams,Cedar Hill,90.81,197.31,117.93,217.72,532.97,Single-ply,SBD,M
Boys,99.79,12,Maurice Isuo,Mansfield,94.44,206.38,108.86,213.19,528.44,Single-ply,SBD,M
Boys,99.79,13,Caleb Shaw,Midlothian,90.81,204.12,124.74,195.04,523.9,Single-ply,SBD,M
Boys,99.79,14,Leo Zavala,Waxahachie,90.99,210.92,90.72,204.12,505.76,Single-ply,SBD,M
Boys,99.79,15,Kierndre Reed,Mansfield,96.07,183.7,127.01,183.7,494.42,Single-ply,SBD,M
Boys,99.79,16,Kelly Rhodes,Burleson,99.25,181.44,113.4,192.78,487.61,Single-ply,SBD,M
Boys,99.79,17,Dairon Houstion,Cedar Hill,97.52,197.31,111.13,174.63,483.08,Single-ply,SBD,M
Boys,99.79,18,Aaron Ewing,Lake Worth,92.53,183.7,113.4,179.17,476.27,Single-ply,SBD,M
Boys,99.79,19,Prince Fakunle,Cedar Hill,98.52,181.44,111.13,181.44,474,Single-ply,SBD,M
Boys,99.79,20,Matthew Harmon,Mansfield Timberview,97.43,165.56,99.79,170.1,435.45,Single-ply,SBD,M
Boys,99.79,21,Levi Masters,Midlothian,95.62,158.76,90.72,172.37,421.84,Single-ply,SBD,M
Boys,99.79,22,Michael Coleman,Mansfield Timberview,92.62,158.76,106.59,145.15,410.5,Single-ply,SBD,M
Boys,99.79,23,Farian Lopez,Castleberry,92.53,140.61,90.72,165.56,396.89,Single-ply,SBD,M
Boys,99.79,DQ,Chris Reues,Castleberry,93.44,138.35,,,,Single-ply,SBD,M
Boys,99.79,DQ,Chris Deck,Castleberry,96.89,142.88,,,,Single-ply,SBD,M
Boys,99.79,DQ,Robert Rymerson,Burleson Centennial,92.17,165.56,,,,Single-ply,SBD,M
Boys,109.77,1,Cruz Marquez,Joshua,103.69,235.87,136.08,235.87,607.81,Single-ply,SBD,M
Boys,109.77,2,Andrew Abamu,Cedar Hill,101.7,226.8,113.4,254.01,594.21,Single-ply,SBD,M
Boys,109.77,3,Victor Mejia,Waxahachie,109.13,217.72,138.35,213.19,569.26,Single-ply,SBD,M
Boys,109.77,4,Gerald Hutch,Burleson,109.13,231.33,120.2,204.12,555.65,Single-ply,SBD,M
Boys,109.77,5,Adrian Zavala,Waxahachie,107.23,183.7,131.54,229.06,544.31,Single-ply,SBD,M
Boys,109.77,6,Nathan Ward,Kennedale,109.77,224.53,133.81,185.97,544.31,Single-ply,SBD,M
Boys,109.77,7,Julian Shade,Cedar Hill,100.97,195.04,120.2,201.85,517.1,Single-ply,SBD,M
Boys,109.77,8,Hasbaldo Ruiz,Cleburne,100.52,192.78,124.74,192.78,510.29,Single-ply,SBD,M
Boys,109.77,9,Austin Holley,Waxahachie,108.23,192.78,111.13,204.12,508.02,Single-ply,SBD,M
Boys,109.77,10,Tc Quintana,Burleson Centennial,104.14,190.51,108.86,197.31,496.68,Single-ply,SBD,M
Boys,109.77,11,Lawton Anderson,Midlothian,104.24,197.31,124.74,158.76,480.81,Single-ply,SBD,M
Boys,109.77,12,Sonny Kemp,Midlothian,105.69,151.95,104.33,158.76,415.04,Single-ply,SBD,M
Boys,109.77,13,Sean Gil,Mansfield,104.78,161.03,115.67,136.08,412.77,Single-ply,SBD,M
Boys,109.77,DQ,Sean Hargrove,Venus,106.23,176.9,,,,Single-ply,SBD,M
Boys,109.77,DQ,Davian Flores,Mansfield Timberview,104.78,124.74,,,,Single-ply,SBD,M
Boys,124.74,1,Ivan Garciduenas,Burleson Centennial,118.21,249.48,149.69,215.46,614.62,Single-ply,SBD,M
Boys,124.74,2,Jaleil Davis,Cedar Hill,124.38,244.94,158.76,210.92,614.62,Single-ply,SBD,M
Boys,124.74,3,Kenny DeLeon,Venus,110.59,240.4,127.01,226.8,594.21,Single-ply,SBD,M
Boys,124.74,4,Colton Hostetler,Burleson Centennial,121.47,229.06,133.81,222.26,585.13,Single-ply,SBD,M
Boys,124.74,5,Brent Reed,Kennedale,122.83,235.87,108.86,226.8,571.53,Single-ply,SBD,M
Boys,124.74,6,Christian Milliorn,Waxahachie,112.94,190.51,124.74,219.99,535.24,Single-ply,SBD,M
Boys,124.74,7,Trey Good,Joshua,113.4,204.12,117.93,213.19,535.24,Single-ply,SBD,M
Boys,124.74,8,Isaiah Suazo,Burleson Centennial,113.67,204.12,111.13,181.44,496.68,Single-ply,SBD,M
Boys,124.74,9,Terik Rabb,Kennedale,123.29,179.17,117.93,199.58,496.68,Single-ply,SBD,M
Boys,124.74,10,Brandon North,Midlothian,121.29,195.04,111.13,181.44,487.61,Single-ply,SBD,M
Boys,124.74+,11,Josh Saunders,Midlothian,124.92,179.17,113.4,158.76,451.32,Single-ply,SBD,M
Boys,124.74,12,Chris Nwosu,Cedar Hill,110.95,167.83,102.06,165.56,435.45,Single-ply,SBD,M
Boys,124.74,13,Doug Thomas,Mansfield,112.04,142.88,113.4,140.61,396.89,Single-ply,SBD,M
Boys,124.74,14,Uzoma Okeve,Mansfield Timberview,110.77,102.06,79.38,138.35,319.78,Single-ply,SBD,M
Boys,124.74,DQ,Albert Willingham,Cedar Hill,122.11,294.84,,,,Single-ply,SBD,M
Boys,124.74,DQ,Sean Partridge,Fort Worth Western Hills,120.56,206.38,,,,Single-ply,SBD,M
Boys,124.74+,1,Gennard Johnson,Waxahachie,149.23,283.5,149.69,278.96,712.14,Single-ply,SBD,M
Boys,124.74+,2,Julian Salmond,Fort Worth Western Hills,125.01,281.23,129.27,256.28,666.78,Single-ply,SBD,M
Boys,124.74+,3,Caleb Riley,Joshua,131.9,226.8,129.27,226.8,582.87,Single-ply,SBD,M
Boys,124.74+,4,Tevin Boone,Cleburne,134.35,226.8,138.35,213.19,578.33,Single-ply,SBD,M
Boys,124.74+,5,Dakota Larson,Venus,131.36,195.04,154.22,181.44,530.7,Single-ply,SBD,M
Boys,124.74+,6,Marshall Moody,Kennedale,133.63,183.7,122.47,213.19,519.36,Single-ply,SBD,M
Boys,124.74+,7,Michael Sottilotto,Kennedale,130.18,201.85,127.01,181.44,510.29,Single-ply,SBD,M
Boys,124.74+,8,Julio Martinez,Castleberry,132.36,226.8,102.06,181.44,510.29,Single-ply,SBD,M
Boys,124.74+,9,Michael Pescka,Mansfield Timberview,134.63,174.63,117.93,192.78,485.34,Single-ply,SBD,M
Boys,124.74+,10,Josh Collius,Burleson,125.46,170.1,117.93,192.78,480.81,Single-ply,SBD,M
