WeightClassKg,Sex,Division,Age,Equipment,Event,Name,BodyweightKg,Best3SquatKg,Squat4Kg,Best3BenchKg,Best3DeadliftKg,Deadlift4Kg,TotalKg,Place
52,F,Pro Open,,Multi-ply,SBD,Elaine Grimwood,51.62,165.56,,86.18,156.49,,408.23,1
52,M,Amateur Teen 14-15,,Multi-ply,SBD,Tom Hardardt,51.94,158.76,,68.04,151.95,,378.75,1
67.5,M,Amateur Juniors 20-23,,Wraps,SBD,Albert Eckrode,67.36,151.95,,113.4,179.17,,444.52,1
75,M,Amateur Juniors 20-23,,Wraps,SBD,John Palazzolo,74.03,195.04,204.12,140.61,204.12,,539.77,1
75,M,Amateur Open,,Wraps,SBD,Dan Antonucci,75,181.44,,111.13,247.21,254.01,539.77,1
75,M,Pro Open,,Multi-ply,SBD,Shay Larrisey,74.84,331.12,,208.65,276.69,,816.47,1
75,M,Amateur Open,,Multi-ply,SBD,Joshua Childs,71.03,145.15,,127.01,190.51,,462.66,1
82.5,M,Amateur Teen 14-15,,Multi-ply,SBD,Zach Rebollido,80.74,192.78,,92.99,158.76,,444.52,1
82.5,M,Amateur Teen 16-17,,Wraps,SBD,Ryan Telepo,81.92,133.81,,79.38,151.95,,365.14,1
82.5,M,Amateur Open,,Multi-ply,SBD,Michael McGarvey,80.56,281.23,,170.1,208.65,,659.98,1
90,M,Amateur Open,,Wraps,SBD,Adam Banotai,89.72,179.17,,142.88,235.87,240.4,557.92,2
90,M,Amateur Juniors 20-23,,Multi-ply,SBD,George Lobb,88.9,283.5,,226.8,249.48,,759.77,1
90,M,Amateur Juniors 20-23,,Multi-ply,SBD,Ron Garvey,90,260.82,,61.23,283.5,,605.55,2
100,M,Amateur Teen 16-17,,Multi-ply,SBD,Anthony Pasquino,99.52,251.74,,102.06,158.76,,512.56,1
100,M,Amateur Teen 14-15,,Multi-ply,SBD,Tony Iudicello,94.98,217.72,,158.76,213.19,,589.67,1
100,M,Amateur Juniors 20-23,,Wraps,SBD,John Durner,96.71,219.99,,163.29,272.16,,655.44,1
100,M,Amateur Open,,Multi-ply,SBD,Jim Jones,96.52,306.17,,238.14,272.16,,816.47,1
100,M,Amateur Masters 40-44,,Wraps,SBD,Dave Richardson #3,100,226.8,,189.37,199.58,,615.75,1
110,M,Amateur Teen 16-17,,Wraps,SBD,Nick Sites,109.68,170.1,,113.4,185.97,,469.47,1
110,M,Amateur Open,,Wraps,SBD,Jason Fortino,109.32,229.06,,145.15,254.01,,628.23,1
110,M,Amateur Submasters 33-39,,Wraps,SBD,Jason Fortino,109.32,229.06,,145.15,254.01,,628.23,1
110,M,Amateur Police,,Wraps,SBD,William Spayd,108.23,217.72,226.8,136.08,240.4,,594.21,1
110,M,Amateur Open,,Wraps,SBD,David Benner,109.77,208.65,,158.76,226.8,,594.21,2
125,M,Amateur Juniors 20-23,,Wraps,SBD,Mitch Gyger,111.4,215.46,,192.78,283.5,,691.73,1
125,M,Amateur Open,,Multi-ply,SBD,Tim Davis,117.66,254.01,,170.1,226.8,,650.91,1
125,M,Amateur Open,,Wraps,SBD,John Zayaitz,124.28,274.42,283.5,204.12,276.69,,755.23,1
125,M,Amateur Open,,Wraps,SBD,Joe Sauble,119.29,274.42,,176.9,254.01,,705.34,2
125,M,Amateur Open,,Wraps,SBD,Brian Abell,118.39,215.46,,156.49,208.65,,580.6,3
125,M,Amateur Submasters 33-39,,Wraps,SBD,Joe Sauble,119.29,274.42,,176.9,254.01,,705.34,1
125,M,Amateur Masters 45-49,49,Wraps,SBD,Larry Short,121.93,204.12,,199.58,215.46,,619.15,1
125,M,Amateur Masters 40-44,,Multi-ply,SBD,Mark Dimiduk,121.56,288.03,,92.99,229.06,,610.08,1
140+,M,Amateur Open,,Multi-ply,SBD,George Underwood,144.88,340.19,,233.6,260.82,,834.61,1
60,M,Amateur Teen 14-15,,Multi-ply,SBD,Josh Parrish,60,161.03,,77.11,,,,DQ
67.5,M,Amateur Open,,Raw,B,Sam Spoto,66.86,,,106.59,,,106.59,1
75,M,Pro Open,,Multi-ply,B,Joe Mazza,74.84,,,319.78,,,319.78,1
75,M,Amateur Open,,Raw,B,James McDaniel,74.66,,,120.2,,,120.2,1
82.5,M,Amateur Police,,Raw,B,Edward Maddock,80.92,,,174.63,,,174.63,1
82.5,M,Amateur Open,,Raw,B,Chris Graham,80.83,,,131.54,,,131.54,1
82.5,M,Pro Open,,Multi-ply,B,Rudy Hillyard,,,,183.7,,,183.7,1
90,M,Amateur Juniors 20-23,,Multi-ply,B,Jacob Walker,84.73,,,136.08,,,136.08,1
90,M,Amateur Juniors 20-23,,Raw,B,Ian Guido,88.36,,,165.56,,,165.56,1
100,M,Pro Submasters 33-39,,Raw,B,John Roberts,100,,,170.1,,,170.1,1
100,M,Pro Masters 50-54,52,Multi-ply,B,Hal Wilson,94.71,,,247.21,,,247.21,1
110,M,Pro Submasters 33-39,,Raw,B,Gerrit Bult,107.23,,,199.58,,,199.58,1
125,M,Pro Open,,Raw,B,Ed Daubert,124.1,,,229.06,,,229.06,1
125,M,Pro Open,,Raw,B,Bobby Bowlin,114.67,,,215.46,,,215.46,2
140,M,Pro Open,,Multi-ply,B,Chuck Scherza,138.35,,,331.12,,,331.12,1
140,M,Pro Submasters 33-39,,Multi-ply,B,Chuck Scherza,138.35,,,331.12,,,331.12,1
140+,M,Pro Masters 45-49,47,Raw,B,Tom McDonald,151.95,,,226.8,,,226.8,1
140+,M,Pro Masters 60-64,62,Multi-ply,B,Bob O'Brien,140.61,,,204.12,,,204.12,1
110,M,Amateur Masters 40-44,41,Multi-ply,B,Nick Tavares,107.86,,,,,,,DQ
75,M,Amateur Masters 55-59,58,Multi-ply,B,Mike Barrett,74.71,,,,,,,DQ
125,M,Amateur Juniors 20-23,,Multi-ply,B,Rob Pizzuti,116.48,,,,,,,DQ
125,M,Amateur Masters 40-44,43,Multi-ply,B,Chris Riedy,123.74,,,,,,,DQ
90,M,Amateur Juniors 20-23,,Raw,B,Michael Gramuglia,88.9,,,,,,,DQ
82.5,M,Amateur Masters 45-49,48,Multi-ply,B,Mike Querques,81.51,,,,,,,DQ
67.5,M,Amateur Masters 55-59,56,Raw,D,Christ Loutrary,61.23,,,,188.24,,188.24,1
67.5,M,Amateur Juniors 20-23,,Raw,D,Matt Dragovich,65.68,,,,235.87,242.67,235.87,1
82.5,F,Amateur Open,,Raw,BD,Lori Hummel,76.29,,,68.04,124.74,,192.78,1
67.5,M,Amateur Teen 14-15,,Multi-ply,BD,Ryan Brands,66.68,,,86.18,145.15,,231.33,1
75,M,Amateur Teen 14-15,,Multi-ply,BD,Ryan Hydock,73.66,,,63.5,142.88,,206.38,1
75,M,Amateur Juniors 20-23,,Raw,BD,Joesph Schoenly Jr,71.67,,,136.08,170.1,,306.17,1
90,M,Pro Masters 45-49,45,Raw,BD,David Siegfried Jr,87.18,,,197.31,242.67,,439.98,1
100,M,Pro Masters 45-49,47,Raw,BD,Richard Scott,94.71,,,147.42,190.51,,337.93,1
140+,M,Pro Police,,Raw,BD,Brian Bacher,168.19,,,208.65,299.37,,508.02,1
