Division,WeightClassKg,Place,Name,Team,BodyweightKg,Best3SquatKg,Best3BenchKg,Best3DeadliftKg,TotalKg,Equipment,Event,Sex
Boys,51.71,1,Juan Padron,Navasota,51.62,136.08,72.57,140.61,349.27,Single-ply,SBD,M
Boys,51.71,2,Colt Baranowski,Smithville,49.99,127.01,63.5,136.08,326.59,Single-ply,SBD,M
Boys,51.71,3,Elijah Lascurain,College Station A&M Cons,51.35,99.79,77.11,124.74,301.64,Single-ply,SBD,M
Boys,51.71,4,Levi Goudeau,Anderson-Shiro,51.71,120.2,65.77,115.67,301.64,Single-ply,SBD,M
Boys,51.71,5,Oakley Bruder,Smithville,51.35,97.52,47.63,115.67,260.82,Single-ply,SBD,M
Boys,51.71,6,Boone Beyer,Magnolia,47.08,99.79,49.9,97.52,247.21,Single-ply,SBD,M
Boys,55.79,1,Rushi Patel,College Station,54.98,165.56,81.65,163.29,410.5,Single-ply,SBD,M
Boys,55.79,2,Cody Costello,Magnolia West,55.34,151.95,86.18,147.42,385.55,Single-ply,SBD,M
Boys,55.79,3,Reis Rice,Magnolia,55.16,133.81,81.65,149.69,365.14,Single-ply,SBD,M
Boys,55.79,4,Michael Hushka,Conroe The Woodlands,54.25,131.54,77.11,149.69,358.34,Single-ply,SBD,M
Boys,55.79,5,Marcos Mendez,Magnolia West,55.61,127.01,72.57,158.76,358.34,Single-ply,SBD,M
Boys,55.79,6,Logan Arrington,Navasota,55.79,122.47,74.84,149.69,347,Single-ply,SBD,M
Boys,55.79,7,Ryan Burns,Sealy,55.07,131.54,68.04,133.81,333.39,Single-ply,SBD,M
Boys,55.79,8,Kellen Hapes,College Station,54.43,133.81,72.57,124.74,331.12,Single-ply,SBD,M
Boys,55.79,9,Cody Burklund,Sealy,52.62,117.93,72.57,138.35,328.85,Single-ply,SBD,M
Boys,55.79,10,Caleb Burleson,College Station,55.43,117.93,79.38,127.01,324.32,Single-ply,SBD,M
Boys,55.79,11,Santon Moya,College Station A&M Cons,54.98,115.67,65.77,131.54,312.98,Single-ply,SBD,M
Boys,55.79,12,Waylon Moody,Bryan,55.25,113.4,58.97,138.35,310.71,Single-ply,SBD,M
Boys,55.79,13,Matt Provost,Conroe The Woodlands,52.71,113.4,54.43,127.01,294.84,Single-ply,SBD,M
Boys,59.87,1,Ian Campbell,Navasota,59.42,190.51,117.93,158.76,467.2,Single-ply,SBD,M
Boys,59.87,2,Celestino Rubio,Bryan Rudder,59.69,158.76,74.84,181.44,415.04,Single-ply,SBD,M
Boys,59.87,3,Mekye Kao,College Station A&M Cons,59.87,147.42,92.99,167.83,408.23,Single-ply,SBD,M
Boys,59.87,4,Tyler Boggs,Magnolia,59.24,154.22,79.38,158.76,392.36,Single-ply,SBD,M
Boys,59.87,5,Schuyler Moore,Magnolia West,59.33,142.88,95.25,136.08,374.21,Single-ply,SBD,M
Boys,59.87,6,Quan Williams,College Station A&M Cons,59.87,147.42,65.77,154.22,367.41,Single-ply,SBD,M
Boys,59.87,7,Carter Callahan,Burton,58.69,138.35,68.04,136.08,342.46,Single-ply,SBD,M
Boys,59.87,8,Jesus Loya,Magnolia,58.6,127.01,63.5,136.08,326.59,Single-ply,SBD,M
Boys,59.87,9,Gavin Kirkland,Burton,59.87,113.4,61.23,133.81,308.44,Single-ply,SBD,M
Boys,59.87,10,Lorenzo Onate,College Station A&M Cons,59.87,99.79,77.11,124.74,301.64,Single-ply,SBD,M
Boys,59.87,11,Lj Hernandez,Bryan,56.97,104.33,45.36,127.01,276.69,Single-ply,SBD,M
Boys,59.87,12,Jack Benton,College Station A&M Cons,58.06,99.79,52.16,113.4,265.35,Single-ply,SBD,M
Boys,59.87,DQ,Chase Gibson,College Station A&M Cons,59.87,149.69,88.45,,,Single-ply,SBD,M
Boys,67.13,1,Cory Price,College Station A&M Cons,66.41,192.78,111.13,197.31,501.22,Single-ply,SBD,M
Boys,67.13,2,Jaden Schroeder,Huntsville,64.32,181.44,106.59,192.78,480.81,Single-ply,SBD,M
Boys,67.13,3,Tre Hiojosa,Waller,66.41,170.1,90.72,188.24,449.06,Single-ply,SBD,M
Boys,67.13,4,Trey Goodman,Navasota,64.68,181.44,90.72,167.83,439.98,Single-ply,SBD,M
Boys,67.13,5,Raul Arrizola,Smithville,66.41,158.76,108.86,158.76,426.38,Single-ply,SBD,M
Boys,67.13,6,Weston Tuttle,Conroe The Woodlands,66.13,156.49,90.72,176.9,424.11,Single-ply,SBD,M
Boys,67.13,7,Donovan Thomas,Navasota,66.22,149.69,95.25,167.83,412.77,Single-ply,SBD,M
Boys,67.13,8,Cade Heil,Bryan,64.68,149.69,77.11,149.69,376.48,Single-ply,SBD,M
Boys,67.13,9,Truman Jasperson,College Station A&M Cons,65.5,131.54,90.72,140.61,362.87,Single-ply,SBD,M
Boys,67.13,10,Michael Pettibon,College Station,62.78,142.88,68.04,142.88,353.8,Single-ply,SBD,M
Boys,67.13,11,Hayden Eoff,College Station A&M Cons,62.14,136.08,81.65,129.27,347,Single-ply,SBD,M
Boys,67.13,12,Cooper Fedora,College Station A&M Cons,67.13,127.01,68.04,145.15,340.19,Single-ply,SBD,M
Boys,67.13,13,Dakota Newton,College Station A&M Cons,61.6,120.2,70.31,115.67,306.17,Single-ply,SBD,M
Boys,67.13,DQ,Alex Flores,Anderson-Shiro,65.5,163.29,,,,Single-ply,SBD,M
Boys,67.13,DQ,David Pearson,College Station A&M Cons,66.04,127.01,72.57,,,Single-ply,SBD,M
Boys,74.84,1,Gabriel Gonzalez,Magnolia West,73.39,226.8,151.95,199.58,578.33,Single-ply,SBD,M
Boys,74.84,2,Jacob Willard,Conroe The Woodlands,71.12,204.12,104.33,188.24,496.68,Single-ply,SBD,M
Boys,74.84,3,Jake Chandler,Burton,74.75,179.17,115.67,195.04,489.88,Single-ply,SBD,M
Boys,74.84,4,Jacob Bandera,Smithville,74.48,181.44,108.86,188.24,478.54,Single-ply,SBD,M
Boys,74.84,5,Rodrigo Valdez,College Station,72.85,183.7,111.13,176.9,471.74,Single-ply,SBD,M
Boys,74.84,6,Daniel Cobia,Smithville,74.84,185.97,104.33,179.17,469.47,Single-ply,SBD,M
Boys,74.84,7,Ethan McEntire,Magnolia,74.66,183.7,95.25,185.97,464.93,Single-ply,SBD,M
Boys,74.84,8,Charlie Reyes,Burton,69.76,167.83,95.25,190.51,453.59,Single-ply,SBD,M
Boys,74.84,9,Dj Offing,Anderson-Shiro,74.66,174.63,111.13,161.03,446.79,Single-ply,SBD,M
Boys,74.84,10,Nathan Leone,Conroe The Woodlands,72.39,156.49,90.72,167.83,415.04,Single-ply,SBD,M
Boys,74.84,11,Saul Canchola,College Station,72.03,165.56,79.38,158.76,403.7,Single-ply,SBD,M
Boys,74.84,12,Antonio Cardenas,College Station A&M Cons,74.84,156.49,86.18,161.03,403.7,Single-ply,SBD,M
Boys,74.84,13,Bennet Hutchins,College Station A&M Cons,71.58,122.47,63.5,129.27,315.25,Single-ply,SBD,M
Boys,74.84,DQ,Sloane Vavra,Bryan,74.48,149.69,,,,Single-ply,SBD,M
Boys,82.1,1,Edgar Cabrera,Magnolia,81.01,226.8,129.27,204.12,560.19,Single-ply,SBD,M
Boys,82.1,2,Andrew Wyatt,Smithville,78.02,201.85,136.08,215.46,553.38,Single-ply,SBD,M
Boys,82.1,3,Nicolas Whitfield,Magnolia,79.29,224.53,108.86,195.04,528.44,Single-ply,SBD,M
Boys,82.1,4,Trevin Rohrman,Waller,81.65,204.12,113.4,204.12,521.63,Single-ply,SBD,M
Boys,82.1,5,Marquise Stubblefield,Magnolia West,78.2,204.12,102.06,206.38,512.56,Single-ply,SBD,M
Boys,82.1,6,John Jackson,Hempstead,82.1,181.44,124.74,204.12,510.29,Single-ply,SBD,M
Boys,82.1,7,Bladen Reaves,Bryan Rudder,80.38,190.51,104.33,192.78,487.61,Single-ply,SBD,M
Boys,82.1,8,Colton Smith,Conroe The Woodlands,78.56,142.88,83.91,165.56,392.36,Single-ply,SBD,M
Boys,82.1,9,Geraldo Flores,College Station A&M Cons,76.75,136.08,102.06,140.61,378.75,Single-ply,SBD,M
Boys,82.1,10,Joseph Perez,College Station A&M Cons,80.29,136.08,77.11,147.42,360.61,Single-ply,SBD,M
Boys,82.1,11,Nicholas Eggbrect,College Station A&M Cons,76.02,136.08,68.04,140.61,344.73,Single-ply,SBD,M
Boys,82.1,DQ,Casey Shutt,Bryan Rudder,81.1,183.7,,,,Single-ply,SBD,M
Boys,82.1,DQ,Kalob Jonas,Smithville,78.65,219.99,120.2,,,Single-ply,SBD,M
Boys,89.81,1,Kelpatrick Manning,Huntsville,83.82,235.87,149.69,226.8,612.35,Single-ply,SBD,M
Boys,89.81,2,Luke McCaffety,Magnolia West,82.92,219.99,111.13,195.04,526.17,Single-ply,SBD,M
Boys,89.81,3,Jacob Malesky,Magnolia,88.45,213.19,115.67,192.78,521.63,Single-ply,SBD,M
Boys,89.81,4,Tyrek Houston,Navasota,89.81,188.24,138.35,192.78,519.36,Single-ply,SBD,M
Boys,89.81,5,Will Harris,College Station A&M Cons,87.63,208.65,104.33,201.85,514.83,Single-ply,SBD,M
Boys,89.81,6,Jaxsen Sewell,Magnolia West,85.46,213.19,115.67,181.44,510.29,Single-ply,SBD,M
Boys,89.81,7,Titus Terrell,Navasota,84.37,183.7,111.13,188.24,483.08,Single-ply,SBD,M
Boys,89.81,8,Logan Ecuyer,Conroe The Woodlands,83.28,176.9,106.59,185.97,469.47,Single-ply,SBD,M
Boys,89.81,9,Jaylen Davis,College Station,89.72,204.12,81.65,183.7,469.47,Single-ply,SBD,M
Boys,89.81,10,Charlie Stutts,Bryan,89.09,170.1,108.86,154.22,433.18,Single-ply,SBD,M
Boys,89.81,11,Benjamin Zapalac,Burton,88.63,176.9,90.72,154.22,421.84,Single-ply,SBD,M
Boys,89.81,DQ,Chad Roebuck,Anderson-Shiro,88.09,226.8,138.35,,,Single-ply,SBD,M
Boys,99.79,1,Noah Clarkson,Magnolia West,98.43,272.16,181.44,249.48,703.07,Single-ply,SBD,M
Boys,99.79,2,Marko Milosavljevic,Conroe The Woodlands,99.52,226.8,138.35,235.87,601.01,Single-ply,SBD,M
Boys,99.79,3,Uriel Gutierrez,Magnolia,98.7,224.53,113.4,235.87,573.79,Single-ply,SBD,M
Boys,99.79,4,Cameron Riggins,Burton,93.98,215.46,111.13,192.78,519.36,Single-ply,SBD,M
Boys,99.79,5,Luke Miles,College Station,91.35,170.1,99.79,197.31,467.2,Single-ply,SBD,M
Boys,99.79,6,Malik Ross,College Station A&M Cons,97.34,174.63,92.99,147.42,415.04,Single-ply,SBD,M
Boys,99.79,DQ,Caleb Garner,College Station A&M Cons,97.25,192.78,120.2,,,Single-ply,SBD,M
Boys,99.79,DQ,Desmond Murphy,Bryan Rudder,98.43,226.8,117.93,,,Single-ply,SBD,M
Boys,99.79,DQ,Fernando Garcia,Huntsville,98.34,226.8,,,,Single-ply,SBD,M
Boys,99.79,DQ,Oscar Alvarenga,Waller,98.7,226.8,120.2,,,Single-ply,SBD,M
Boys,109.77,1,Devarian Guyton,College Station A&M Cons,102.06,258.55,145.15,283.5,687.19,Single-ply,SBD,M
Boys,109.77,2,Truce Tumlinson,College Station,103.96,272.16,131.54,233.6,637.3,Single-ply,SBD,M
Boys,109.77,3,Hilario Rodriguez,Navasota,104.78,260.82,136.08,224.53,621.42,Single-ply,SBD,M
Boys,109.77,4,Ronald Lee,Navasota,107.23,249.48,136.08,233.6,619.15,Single-ply,SBD,M
Boys,109.77,5,Dalton Taylor,Magnolia,103.96,260.82,145.15,210.92,616.89,Single-ply,SBD,M
Boys,109.77,6,Vince Sheffield,College Station A&M Cons,108.95,249.48,133.81,195.04,578.33,Single-ply,SBD,M
Boys,109.77,7,Eric Garcia,Huntsville,107.32,219.99,124.74,208.65,553.38,Single-ply,SBD,M
Boys,109.77,8,Joseph Clay,Sealy,103.78,208.65,124.74,181.44,514.83,Single-ply,SBD,M
Boys,109.77,9,Juan Hernández,Brookshire Royal,108.41,192.78,95.25,199.58,487.61,Single-ply,SBD,M
Boys,109.77,10,Kyle Greer,College Station A&M Cons,106.59,181.44,99.79,163.29,444.52,Single-ply,SBD,M
Boys,109.77,11,Neal Wilson,College Station A&M Cons,100.15,90.72,68.04,108.86,267.62,Single-ply,SBD,M
Boys,109.77,DQ,Caleb Hill,Bryan Rudder,109.5,,,,,Single-ply,SBD,M
Boys,109.77,DQ,Jordan Martain,Brookshire Royal,102.06,183.7,115.67,,,Single-ply,SBD,M
Boys,109.77,DQ,Rusty Bertrand,Magnolia West,102.42,244.94,145.15,,,Single-ply,SBD,M
Boys,124.74,1,Atyias Casteel,Huntsville,124.56,233.6,129.27,226.8,589.67,Single-ply,SBD,M
Boys,124.74,2,Ethan Wicht,Bryan,117.39,217.72,127.01,231.33,576.06,Single-ply,SBD,M
Boys,124.74,3,Eduardo Arteaga,Brookshire Royal,120.2,201.85,95.25,210.92,508.02,Single-ply,SBD,M
Boys,124.74,4,Jo'Vaughn Holmes,College Station,122.92,226.8,113.4,149.69,489.88,Single-ply,SBD,M
Boys,124.74,5,Conner Hickson,College Station A&M Cons,113.13,176.9,117.93,174.63,469.47,Single-ply,SBD,M
Boys,124.74+,1,Brandon Bobino,Huntsville,159.57,310.71,167.83,244.94,723.48,Single-ply,SBD,M
Boys,124.74+,2,Derrick Rigsby,Huntsville,148.32,290.3,181.44,244.94,716.68,Single-ply,SBD,M
Boys,124.74+,3,Kaleb Barho,Smithville,127.64,301.64,156.49,226.8,684.92,Single-ply,SBD,M
Boys,124.74+,4,Jakobe Nutall,Bryan Rudder,138.07,240.4,151.95,238.14,630.49,Single-ply,SBD,M
Boys,124.74+,5,Gio Lopez,Magnolia West,130.63,240.4,131.54,217.72,589.67,Single-ply,SBD,M
Boys,124.74+,6,Felipe Alvarado,Navasota,125.83,226.8,142.88,215.46,585.13,Single-ply,SBD,M
Boys,124.74+,7,Harrison Sorenson,Conroe The Woodlands,134.54,238.14,136.08,197.31,571.53,Single-ply,SBD,M
Boys,124.74+,8,Jorge Dominguez,Waller,135.9,226.8,136.08,206.38,569.26,Single-ply,SBD,M
Boys,124.74+,9,Talon Crouse,Bryan,126.1,188.24,117.93,226.8,532.97,Single-ply,SBD,M
Boys,124.74+,10,Cole Vairin,Magnolia,134.44,197.31,124.74,201.85,523.9,Single-ply,SBD,M
Boys,124.74+,DQ,Andrew Seaback,Anderson-Shiro,142.34,244.94,129.27,,,Single-ply,SBD,M
