Place,Sex,Name,Event,Division,WeightClassKg,Equipment,BodyweightKg,Best3SquatKg,Best3BenchKg,Best3DeadliftKg,TotalKg,BirthYear
1,M,Kenny Johnson,B,M-T2,52,Single-ply,51.9,,81.6,,81.6,1997
1,M,Trevor Fuller,B,M-T2,82.5,Single-ply,75.1,,138.3,,138.3,1996
1,M,Daniel Page,B,MR-O,52,Raw,41.8,,68,,68,1982
1,M,Grant Evans,B,MR-O,67.5,Raw,65.9,,120.2,,120.2,1989
1,M,Alexander Ersing,B,MR-O,75,Raw,74.8,,147.4,,147.4,1987
1,M,Jose Tellez,D,MR-O,82.5,Raw,81.9,,,231.3,231.3,1983
1,M,Jamie Zwiers,B,MR-M1a,110,Raw,108.4,,190.5,,190.5,
1,M,Adam Bellingham,B,M-M1b,100,Single-ply,97.7,,154.2,,154.2,1967
1,M,Dave Johnson,B,M-M1b,110,Single-ply,109.7,,199.6,,199.6,
1,M,Gary Kachar,B,M-M2b,125+,Single-ply,129.4,,152,,152,1956
1,M,Thomas Mollan,B,MR-M3b,100,Raw,98.4,,136.1,,136.1,1946
1,M,Iosif Plagov,B,MR-M4b,67.5,Raw,66.2,,88.5,,88.5,1935
1,M,Gerald Lindas,B,MR-M4b,75,Raw,71.2,,97.5,,97.5,1936
1,F,Rebecca Litscher,B,FR-O,75,Raw,72.3,,81.6,,81.6,1982
DD,M,Heath Thiel,SBD,M-M1a,125+,Single-ply,148.8,,61.2,322.1,,
1,M,Jordan Plantiko,SBD,MR-T2,90,Raw,89.2,206.4,152,240.4,598.8,1996
1,M,Nathan Stemo,SBD,MR-T3,82.5,Raw,81.3,231.3,102.1,226.8,560.2,1995
1,M,Andy Askow,SBD,MR-T3,125+,Raw,163,308.4,195,290.3,793.7,1994
1,M,Christian Herwig,SBD,M-T1,90,Single-ply,88.2,152,97.5,197.3,446.8,
1,M,James Lampshire,SBD,M-T3,82.5,Single-ply,81.7,213.2,131.5,226.8,571.5,
1,M,Anthony Wolf,SBD,M-T3,90,Single-ply,88.3,249.5,149.7,254,653.2,1995
2,M,Nathan King,SBD,M-T3,90,Single-ply,88.4,215.5,108.9,224.5,548.9,1995
1,M,Vong Xiong,SD,M-T3,100,Single-ply,96.5,317.5,,265.4,582.9,1994
1,M,Brandon Mikulecky,SBD,M-Jr,90,Single-ply,85.6,213.2,170.1,215.5,598.8,1991
1,M,Quintin Meyer,SBD,M-Jr,110,Single-ply,104.8,333.4,206.4,317.5,857.3,1991
1,M,Alex Pinnow,SD,MR-Jr,75,Raw,72.6,190.5,,204.1,394.6,1993
1,M,Joel Mroczenski,SBD,MR-Jr,82.5,Raw,80.2,165.6,127,183.7,476.3,1993
1,M,David Wilkowski,SBD,MR-Jr,90,Raw,83.7,197.3,142.9,204.1,544.3,1991
2,M,Scott Rasmussen,SBD,MR-Jr,90,Raw,88.5,170.1,122.5,204.1,496.7,1993
1,M,Michael Kaschner,SBD,MR-Jr,100,Raw,99.2,192.8,188.2,231.3,612.3,1993
2,M,Gunnar Mach,SBD,MR-Jr,100,Raw,99.2,229.1,131.5,204.1,564.7,1993
3,M,Nicholas Viegut,SBD,MR-Jr,100,Raw,93.4,204.1,124.7,215.5,544.3,1992
4,M,Chad Heyer,SBD,MR-Jr,100,Raw,96.4,183.7,122.5,226.8,533,1992
1,M,Alexander Duley,SBD,MR-Jr,110,Raw,108.2,238.1,133.8,249.5,621.4,1993
2,M,Matthew Sharafinski,SBD,MR-Jr,110,Raw,104.8,226.8,115.7,249.5,592,1993
1,M,Ian Barge,SBD,MR-Jr,125,Raw,123.8,265.4,158.8,288,712.2,1993
1,M,Aaron Phillips,SBD,M-O,67.5,Single-ply,67.3,272.2,147.4,235.9,655.5,1985
1,M,Pete Nees,SBD,M-O,110,Single-ply,105.5,301.6,210.9,283.5,796,1984
2,M,Aaron Henderson,SBD,M-O,110,Single-ply,104.1,274.4,199.6,297.1,771.1,1983
1,M,Greg Kiriaki,SBD,M-O,125,Single-ply,122,340.2,208.7,303.9,852.8,1983
1,M,Jaeyoon Cho,SBD,MR-O,75,Raw,74.4,142.9,79.4,174.6,396.9,1989
1,M,Benjamin Page,SBD,MR-O,82.5,Raw,80.6,163.3,104.3,192.8,460.4,1987
2,M,Ty Van Valkenburg,SD,MR-O,82.5,Raw,80.7,210.9,,244.9,455.8,1988
3,M,Derron Bohne,SD,MR-O,82.5,Raw,79.5,192.8,,260.8,453.6,1974
1,M,Grant McCaulley,SBD,MR-O,90,Raw,88.7,174.6,127,233.6,535.2,1981
2,M,Ben Willkommen,SBD,MR-O,90,Raw,89.6,174.6,138.3,220,532.9,1986
1,M,Russell Johnston,SBD,MR-O,100,Raw,93.4,247.2,165.6,251.7,664.5,1987
2,M,Lars Skoglund,SBD,MR-O,100,Raw,98.6,208.7,149.7,260.8,619.2,1987
3,M,Thomas O'Connor,SBD,MR-O,100,Raw,92.4,220,136.1,226.8,582.9,1982
4,M,Matt Teske,SBD,MR-O,100,Raw,96.9,199.6,133.8,238.1,571.5,1978
5,M,Eric Destache,SBD,MR-O,100,Raw,97.5,197.3,152,220,569.3,1979
6,M,Angelo Koutoupis,SBD,MR-O,100,Raw,93.6,176.9,133.8,233.6,544.3,1989
7,M,Jacob Mahaffey,SBD,MR-O,100,Raw,96.4,165.6,124.7,181.4,471.7,1987
1,M,Jake Monroe,SBD,MR-O,110,Raw,107.9,233.6,140.6,267.6,641.8,1988
1,M,Kenneth Brashears,SBD,MR-O,125,Raw,121.3,226.8,152,226.8,605.6,1987
1,M,Joseph Miller,SBD,MR-O,125+,Raw,171.9,229.1,138.3,251.7,619.1,1986
2,M,Gage Abrahams,SBD,MR-O,125+,Raw,148.7,215.5,124.7,276.7,616.9,1976
1,M,Ron Burmeister,SBD,M-M1a,90,Single-ply,88.3,208.7,147.4,229.1,585.2,1971
1,M,Jason Johnson,SBD,M-M1a,110,Single-ply,103.6,263.1,224.5,272.2,759.8,1971
1,M,Alfred Gruenwald,SBD,MR-M1a,67.5,Raw,66.8,124.7,81.6,183.7,390,1972
1,M,Kevin Mittelsteadt,SBD,MR-M1a,100,Raw,98.9,210.9,181.4,242.7,635,1970
1,M,Dennis Smits,SBD,M-M2a,90,Single-ply,89.5,263.1,145.2,235.9,644.2,1959
1,M,Scott Lade,SBD,MR-M1b,125+,Raw,137.5,317.5,222.3,285.8,825.6,1968
1,M,Tony Williams,SBD,MR-M2a,82.5,Raw,80.9,181.4,120.2,240.4,542,
1,M,Jim Perz,SBD,MR-M2a,125,Raw,114.2,190.5,138.3,233.6,562.4,
1,M,Joe Hummel,SBD,MR-M2b,90,Raw,89.1,163.3,106.6,190.5,460.4,1955
2,M,Gary Meerschaert,SBD,MR-M2b,90,Raw,85.5,129.3,111.1,156.5,396.9,1959
DQ,M,Richard Moreau,SBD,MR-M3b,110,Raw,104.7,,,,,1947
1,F,Jordanne Panton,SBD,FR-T1,67.5,Raw,60.5,97.5,59,161,317.5,1999
1,F,Danielle Draggoo,SBD,FR-T2,67.5,Raw,66.1,93,47.6,136.1,276.7,1996
1,F,Kimberly Johnson,SD,FR-T3,56,Raw,53.2,149.7,,161,310.7,1994
1,F,Chelsea Burns,SBD,F-Jr,48,Single-ply,46,61.2,49.9,95.3,206.4,1991
1,F,Samantha Cook,SD,F-Jr,60,Single-ply,59.9,63.5,,93,156.5,1993
1,F,Stacie Pomrening,SBD,F-Jr,75,Single-ply,72.8,188.2,108.9,181.4,478.5,1992
1,F,Frances Marks,SBD,FR-Jr,75,Raw,71.2,88.5,65.8,147.4,301.7,1990
2,F,Evagelia Chaniotakis,SBD,FR-Jr,75,Raw,70.6,93,52.2,106.6,251.8,1990
1,F,Brittany Rabe,SBD,F-O,67.5,Single-ply,65.8,122.5,47.6,120.2,290.3,1998
1,F,Katrine Holmegaard Bak,SBD,F-O,75,Single-ply,68.4,154.2,106.6,145.2,406,
1,F,Helen Lesser,SBD,FR-O,56,Raw,53.7,56.7,49.9,93,199.6,1974
1,F,Erin Walterman,SBD,FR-O,67.5,Raw,66.2,136.1,90.7,172.4,399.2,1982
2,F,Courtney Mikl,SBD,FR-O,67.5,Raw,63.8,113.4,59,142.9,315.3,1988
3,F,Crystale Lind,SBD,FR-O,67.5,Raw,60.6,104.3,59,131.5,294.8,1979
1,F,Rebecca Litscher,SBD,FR-O,75,Raw,72.3,122.5,81.6,138.3,342.4,1982
2,F,Abbie Windus,SBD,FR-O,75,Raw,72.1,83.9,52.2,124.7,260.8,1988
1,F,Rebecca Abrahams,SBD,FR-O,82.5,Raw,77.4,142.9,79.4,158.8,381.1,1978
2,F,Christina Redd-King,SBD,FR-O,82.5,Raw,81,133.8,56.7,156.5,347,1985
3,F,Julia Gengenbach,SBD,FR-O,82.5,Raw,80.4,102.1,61.2,156.5,319.8,1977
1,F,Rachael Goldmann,SBD,FR-O,90+,Raw,91.9,131.5,74.8,145.2,351.5,1986
1,F,Michelle Stamm,SBD,FR-M1a,60,Raw,60,122.5,59,136.1,317.6,1969
1,F,Jennifer Sahy,SBD,FR-M1a,67.5,Raw,65.5,138.3,70.3,188.2,396.8,1970
1,F,Joni Mach,SBD,F-M1b,60,Single-ply,59.7,120.2,59,127,306.2,1965
1,F,Sheralind Wendlandt,SBD,FR-M1b,82.5,Raw,82,83.9,52.2,120.2,256.3,1966
1,M,Tom Bjugstad,BD,MR-Jr,82.5,Raw,81.3,,129.3,204.1,333.4,
1,M,Nathan Sorenson,BD,MR-Jr,90,Raw,90,,124.7,249.5,374.2,1992
1,M,Broderick Kothe,BD,MR-Jr,100,Raw,94.8,,149.7,233.6,383.3,1992
1,M,Grant Evans,BD,MR-O,67.5,Raw,65.9,,120.2,158.8,279,1989
1,M,Alexander Ersing,BD,MR-O,75,Raw,74.8,,147.4,195,342.4,1987
1,M,Bobby Galvan,BD,MR-O,100,Raw,100,,127,240.4,367.4,
2,M,Jacob Mahaffey,BD,MR-O,100,Raw,96.4,,124.7,181.4,306.1,1987
1,M,Eric Bugenhagen,BD,MR-O,110,Raw,106.2,,170.1,274.4,444.5,1987
1,M,Tony Williams,BD,MR-M2a,82.5,Raw,80.9,,120.2,240.4,360.6,
