WeightClassKg,Equipment,Sex,Division,Name,Best3SquatKg,Best3BenchKg,Best3DeadliftKg,TotalKg,Event,Place
35,Raw,F,Ironman 12-13,Megan Lee,39.46,23.59,61.24,124.28,SBD,1
44,Raw,F,Ironman 12-13,Chloe Desantis,34.02,24.95,54.43,113.4,SBD,1
52,Raw,F,Ironman 16-17,Moriah Douglas,66.68,40.82,91.63,199.13,SBD,1
56,Raw,F,Ironman 12-13,Allie Henderson,52.16,32.66,83.91,168.74,SBD,1
60,Raw,F,Ironman 35-39,Carmen Soto-Aguirre,83.91,44,122.47,250.38,SBD,1
60,Raw,F,Ironman 16-17,Katelyn Kilpatrick,53.07,38.56,91.63,183.25,SBD,1
60,Raw,F,Ironman 18-19,Shaye Wilson,49.9,32.66,74.84,157.4,SBD,1
60,Raw,F,Ironman 12-13,Brittany Barreiros,38.56,23.59,65.77,127.91,SBD,1
67.5,Raw,F,Ironman 20-24,Arielle Champagne,102.06,54.43,129.27,285.76,SBD,1
67.5,Raw,F,Ironman 14-15,Marissa Cawthon,61.24,34.02,102.06,197.31,SBD,1
67.5,Raw,F,Ironman 14-15,Faryn Antenucci,68.95,36.29,91.63,196.86,SBD,2
67.5,Raw,F,Ironman 14-15,Briana Barreiros,40.82,30.39,70.31,141.52,SBD,3
67.5,Raw,F,Ironman 14-15,Amelia Langford,40.82,28.12,70.31,139.25,SBD,4
67.5,Raw,F,Ironman 75-79,Sarah Hand,,20.41,50.8,71.21,BD,1
75,Raw,F,Ironman 35-39,Julie Wilson,117.93,70.31,129.27,317.52,SBD,1
75,Raw,F,Ironman 35-39,Kathy Cox,97.52,47.63,147.42,292.57,SBD,2
75,Raw,F,Ironman 65-69,Carmen Gutwirth,45.36,22.68,70.31,138.35,SBD,1
75,Raw,F,Ironman 90-94,Edith Traina,,20.41,49.9,70.31,BD,1
75,Raw,F,Ironman 85-89,Trudy Daxon,,,68.04,68.04,D,1
82.5,Raw,F,Ironman 14-15,Dulcy Olson,65.77,32.66,95.25,193.68,SBD,1
82.5,Raw,F,Ironman 12-13,Brettany Murdock,45.36,37.19,77.11,159.66,SBD,1
44,Raw,F,16-17,Michelle Gorski,58.97,36.29,79.38,174.63,SBD,1
44,Raw,F,12-13,Megan Lee,39.46,23.59,61.24,124.28,SBD,1
44,Raw,F,12-13,Chloe Desantis,34.02,24.95,54.43,113.4,SBD,2
48,Raw,F,16-17,Samantha Martinez,54.43,29.48,63.5,147.42,SBD,1
52,Raw,F,30-34,Jessica Cockreham,117.93,65.77,140.61,324.32,SBD,1
52,Raw,F,18-19,Kaitlyn Smith,90.72,43.09,122.47,256.28,SBD,1
52,Raw,F,16-17,Victoria Schaefer,77.11,56.7,95.25,229.06,SBD,1
52,Raw,F,16-17,Moriah Douglas,66.68,40.82,91.63,199.13,SBD,2
52,Raw,F,16-17,Morgan Drummond,54.43,49.9,77.11,181.44,SBD,3
56,Raw,F,20-24,Dana Harenda,104.33,47.63,131.54,283.5,SBD,1
56,Raw,F,20-24,Chelcie Almeyda,88.45,52.16,117.93,258.55,SBD,2
56,Raw,F,12-13,Allie Henderson,52.16,32.66,83.91,168.74,SBD,1
60,Raw,F,35-39,Carmen Soto-Aguirre,83.91,44,122.47,250.38,SBD,1
60,Raw,F,16-17,Katelyn Kilpatrick,53.07,38.56,91.63,183.25,SBD,1
60,Raw,F,18-19,Shaye Wilson,49.9,32.66,74.84,157.4,SBD,1
60,Raw,F,16-17,Silvia Gonzalez,24.95,36.29,72.57,133.81,SBD,2
60,Raw,F,16-17,Jennifer Rivas,43.09,27.22,56.7,127.01,SBD,3
60,Raw,F,12-13,Brittany Barreiros,38.56,23.59,65.77,127.91,SBD,1
67.5,Raw,F,40-44,Marie Ferejan,127.01,83.91,142.88,353.8,SBD,1
67.5,Raw,F,60-64,Loma Amore,129.27,70.31,154.22,353.8,SBD,1
67.5,Raw,F,20-24,Arielle Champagne,102.06,54.43,129.27,285.76,SBD,1
67.5,Raw,F,55-59,Joann Andrews,99.79,63.5,117.93,281.23,SBD,1
67.5,Raw,F,16-17,Monique Dudley,99.79,45.36,136.08,281.23,SBD,1
67.5,Raw,F,14-15,Marissa Cawthon,61.24,34.02,102.06,197.31,SBD,1
67.5,Raw,F,14-15,Faryn Antenucci,68.95,36.29,91.63,196.86,SBD,2
67.5,Raw,F,14-15,Briana Barreiros,40.82,30.39,70.31,141.52,SBD,3
67.5,Raw,F,14-15,Amelia Langford,40.82,28.12,70.31,139.25,SBD,4
67.5,Raw,F,65-69,Carmen Gutwirth,45.36,22.68,70.31,138.35,SBD,1
67.5,Raw,F,75-79,Sarah Hand,,20.41,50.8,71.21,BD,1
75,Raw,F,35-39,Julie Wilson,117.93,70.31,129.27,317.52,SBD,1
75,Raw,F,35-39,Kathy Cox,97.52,47.63,147.42,292.57,SBD,2
75,Raw,F,18-19,Tayla Pesce,,43.09,58.97,102.06,BD,1
75,Raw,F,90-94,Edith Traina,,20.41,49.9,70.31,BD,1
75,Raw,F,85-89,Trudy Daxon,,,68.04,68.04,D,1
82.5,Raw,F,14-15,Dulcy Olson,65.77,32.66,95.25,193.68,SBD,1
82.5,Raw,F,12-13,Brettany Murdock,45.36,37.19,77.11,159.66,SBD,1
90+,Raw,F,30-34,Melissa D'Errico,108.86,92.99,113.4,315.25,SBD,1
90+,Raw,F,16-17,Teya Bevilacqua,58.97,52.16,77.11,188.24,SBD,1
48,Raw,M,Ironman 10-11,Kobe Butler,,22.68,65.77,88.45,BD,1
60,Raw,M,Ironman 20-24,Timothy Acfalle,,81.65,138.35,219.99,BD,1
67.5,Raw,M,Ironman 20-24,Casey Hayes,149.69,111.13,192.78,453.59,SBD,1
67.5,Raw,M,Ironman 16-17,Connor Krieger,124.74,86.18,136.08,347,SBD,1
67.5,Raw,M,Ironman 12-13,James Smith,92.99,65.77,129.27,288.03,SBD,1
75,Raw,M,Ironman 18-19,Bryan Palombo,154.22,147.42,192.78,494.42,SBD,1
75,Raw,M,Ironman 35-39,David Forman,161.03,104.33,172.37,437.72,SBD,1
75,Raw,M,Ironman 10-11,William Remley,83.91,47.63,104.33,235.87,SBD,1
75,Raw,M,Ironman 30-34,Greg Meade,,129.27,,129.27,B,1
82.5,Raw,M,Ironman 20-24,Keith Schneider,210.92,124.74,254.01,589.67,SBD,1
82.5,Raw,M,Ironman 20-24,Devon Palombo,185.97,136.08,226.8,548.85,SBD,2
82.5,Raw,M,Ironman 25-29,Peter Baker,195.04,115.67,235.87,546.58,SBD,1
82.5,Raw,M,Ironman 30-34,Don Beasock,192.78,124.74,226.8,544.31,SBD,1
82.5,Raw,M,Ironman 20-24,Chris Hayes,185.97,142.88,199.58,528.44,SBD,3
82.5,Raw,M,Ironman 16-17,Josh Vogel,165.56,131.54,183.71,480.81,SBD,1
82.5,Raw,M,Ironman 45-49,Rory Torres,124.74,111.13,181.44,417.31,SBD,1
82.5,Raw,M,Ironman 16-17,Brandon Marcotte,127.01,83.91,151.95,362.87,SBD,2
90,Raw,M,Ironman 20-24,Roman Romanenko,190.51,142.88,238.14,571.53,SBD,1
90,Raw,M,Ironman 18-19,Tanner Wright,183.71,124.74,256.28,564.72,SBD,1
90,Raw,M,Ironman 50-54,Spero Tshontikidis,189.15,112.04,232.24,533.43,SBD,1
90,Raw,M,Ironman 40-44,Lou Boglioi,163.29,113.4,183.71,460.4,SBD,1
90,Raw,M,Ironman 45-49,Gene Marcotte,138.35,133.81,183.71,455.86,SBD,1
90,Raw,M,Ironman 55-59,Pete Classon,106.59,115.67,185.97,408.23,SBD,1
90,Raw,M,Ironman 18-19,Ed Balboni,102.06,79.38,156.49,337.93,SBD,2
100,Raw,M,Ironman 25-29,Kyle Mishler,231.33,174.63,281.23,687.19,SBD,1
100,Raw,M,Ironman 20-24,Brandon Hagerott,183.71,124.74,272.16,580.6,SBD,1
100,Raw,M,Ironman 16-17,Colton Remley,142.88,88.45,206.38,437.72,SBD,1
100,Raw,M,Ironman 14-15,Ben Pruett,142.88,92.99,151.95,387.82,SBD,1
100,Raw,M,Ironman 14-15,Jake Fleming,145.15,61.24,122.47,328.85,SBD,2
100,Raw,M,Ironman 40-44,Lance Betts,167.83,,226.8,,SBD,DQ
100,Raw,M,Ironman 40-44,Jorge Acevedo,,190.51,,190.51,B,1
100,Raw,M,Ironman 55-59,Ret Tanner,,140.61,,140.61,B,1
100,Raw,M,Ironman 50-54,David Whitehead,,129.27,,129.27,B,1
100,Raw,M,Ironman 55-59,Charlie Nelson,,,222.26,222.26,D,1
110,Raw,M,Ironman 55-59,Dave Schneider,226.8,129.27,272.16,628.23,SBD,1
110,Raw,M,Ironman 20-24,Mike Fleming,215.46,149.69,229.06,594.21,SBD,1
110,Raw,M,Ironman 60-64,Larry Bucchioni,165.56,108.86,229.06,503.49,SBD,1
110,Raw,M,Ironman 16-17,Kris Hefner,174.63,127.01,197.31,498.95,SBD,1
110,Raw,M,Ironman 45-49,Mark Stanhope,145.15,104.33,147.42,396.89,SBD,1
110,Raw,M,Ironman 18-19,Nathan Todd,,174.63,226.8,401.43,BD,1
110,Raw,M,Ironman 12-13,Justin Schmidt,,34.02,90.72,124.74,BD,1
110,Raw,M,Ironman 25-29,David Stage,,,310.71,310.71,D,1
125,Raw,M,Ironman 40-44,Larry Dromerhauser,151.95,102.06,192.78,446.79,SBD,1
125,Raw,M,Ironman 16-17,Justin Cruz,124.74,90.72,181.44,396.89,SBD,1
125,Raw,M,Ironman 50-54,Michael Francis,,176.9,344.73,521.63,BD,1
140+,Raw,M,Ironman 45-49,Beau Moore #1,344.73,249.48,333.39,927.6,SBD,1
52,Raw,M,16-17,Patrick Hemond,72.57,56.7,97.52,226.8,SBD,1
52,Raw,M,10-11,Kobe Butler,,22.68,65.77,88.45,BD,1
56,Raw,M,18-19,Matt Jacobson,88.45,54.43,83.91,226.8,SBD,1
60,Raw,M,18-19,Jake Benedix,147.42,95.25,165.56,408.23,SBD,1
60,Raw,M,20-24,Timothy Acfalle,,81.65,138.35,219.99,BD,1
67.5,Raw,M,16-17,Brett Benedix,208.65,90.72,206.38,505.76,SBD,1
67.5,Raw,M,20-24,Casey Hayes,149.69,111.13,192.78,453.59,SBD,1
67.5,Raw,M,16-17,Connor Krieger,124.74,86.18,136.08,347,SBD,2
67.5,Raw,M,12-13,James Smith,92.99,65.77,129.27,288.03,SBD,1
67.5,Raw,M,18-19,Reid Becker,,99.79,172.37,272.16,BD,1
67.5,Raw,M,16-17,Dillon Durham,,,170.1,170.1,D,1
75,Raw,M,30-34,Craig Rudolph,181.44,151.95,238.14,571.53,SBD,1
75,Raw,M,20-24,Doug Phan,154.22,108.86,249.48,512.56,SBD,1
75,Raw,M,20-24,Ethan Goldberg,165.56,120.2,215.46,501.22,SBD,2
75,Raw,M,18-19,Bryan Palombo,154.22,147.42,192.78,494.42,SBD,1
75,Raw,M,35-39,Sean Mathison,165.56,124.74,204.12,494.42,SBD,1
75,Raw,M,35-39,David Forman,161.03,104.33,172.37,437.72,SBD,2
75,Raw,M,10-11,William Remley,83.91,47.63,104.33,235.87,SBD,1
75,Raw,M,30-34,Greg Meade,,129.27,,129.27,B,1
82.5,Raw,M,20-24,Keith Schneider,210.92,124.74,254.01,589.67,SBD,1
82.5,Raw,M,20-24,Chris Jacobson,213.19,102.06,238.14,553.38,SBD,2
82.5,Raw,M,20-24,Devon Palombo,185.97,136.08,226.8,548.85,SBD,3
82.5,Raw,M,25-29,Peter Baker,195.04,115.67,235.87,546.58,SBD,1
82.5,Raw,M,30-34,Don Beasock,192.78,124.74,226.8,544.31,SBD,1
82.5,Raw,M,20-24,Chris Hayes,185.97,142.88,199.58,528.44,SBD,4
82.5,Raw,M,16-17,Josh Vogel,165.56,131.54,183.71,480.81,SBD,1
82.5,Raw,M,30-34,Brock Hart,170.1,102.06,204.12,476.27,SBD,2
82.5,Raw,M,45-49,Rory Torres,124.74,111.13,181.44,417.31,SBD,1
82.5,Raw,M,16-17,Brandon Marcotte,127.01,83.91,151.95,362.87,SBD,2
82.5,Raw,M,35-39,Bobby Keys,,190.51,,190.51,B,1
90,Raw,M,35-39,Bryan Chaikin,215.46,165.56,247.21,628.23,SBD,1
90,Raw,M,20-24,Roman Romanenko,190.51,142.88,238.14,571.53,SBD,1
90,Raw,M,18-19,Tanner Wright,183.71,124.74,256.28,564.72,SBD,1
90,Raw,M,50-54,Mark Kreiger,204.12,127.01,204.12,535.24,SBD,1
90,Raw,M,50-54,Spero Tshontikidis,189.15,112.04,232.24,533.43,SBD,2
90,Raw,M,40-44,Lou Boglioi,163.29,113.4,183.71,460.4,SBD,1
90,Raw,M,45-49,Gene Marcotte,138.35,133.81,183.71,455.86,SBD,1
90,Raw,M,55-59,Pete Classon,106.59,115.67,185.97,408.23,SBD,1
90,Raw,M,18-19,Ed Balboni,102.06,79.38,156.49,337.93,SBD,2
90,Raw,M,14-15,Cole Sundey,,77.11,165.56,242.67,BD,1
90,Raw,M,30-34,Sam Bozanich,,192.78,,192.78,B,1
100,Raw,M,25-29,Kyle Mishler,231.33,174.63,281.23,687.19,SBD,1
100,Raw,M,50-54,Todd Wright,217.72,136.08,247.21,601.01,SBD,1
100,Raw,M,16-17,Jacob Sundey,229.06,136.08,229.06,594.21,SBD,1
100,Raw,M,20-24,Brandon Hagerott,183.71,124.74,272.16,580.6,SBD,1
100,Raw,M,30-34,Layne Norton,269.89,158.76,142.88,571.53,SBD,1
100,Raw,M,25-29,Josh Cue,197.31,133.81,215.46,546.58,SBD,2
100,Raw,M,25-29,Alex Kogan,183.71,131.54,229.06,544.31,SBD,3
100,Raw,M,16-17,Colton Remley,142.88,88.45,206.38,437.72,SBD,2
100,Raw,M,14-15,Hunter Moore,142.88,77.11,192.78,412.77,SBD,1
100,Raw,M,14-15,Ben Pruett,142.88,92.99,151.95,387.82,SBD,2
100,Raw,M,14-15,Jake Fleming,145.15,61.24,122.47,328.85,SBD,3
100,Raw,M,40-44,Lance Betts,167.83,,226.8,,SBD,DQ
100,Raw,M,40-44,Jorge Acevedo,,190.51,,190.51,B,1
100,Raw,M,55-59,Ret Tanner,,140.61,,140.61,B,1
100,Raw,M,50-54,David Whitehead,,129.27,,129.27,B,1
100,Raw,M,50-54,Bill Beekley,,,249.48,249.48,D,1
100,Raw,M,55-59,Charlie Nelson,,,222.26,222.26,D,1
110,Raw,M,20-24,Jordan Wong,294.84,195.04,272.16,762.04,SBD,1
110,Raw,M,20-24,Lance Hickey,265.35,167.83,317.52,750.7,SBD,2
110,Raw,M,55-59,Dave Schneider,226.8,129.27,272.16,628.23,SBD,1
110,Raw,M,20-24,Matt Delgado,224.53,138.35,260.82,623.69,SBD,3
110,Raw,M,35-39,Matt Lecrone,199.58,142.88,265.35,607.81,SBD,1
110,Raw,M,20-24,Mike Fleming,215.46,149.69,229.06,594.21,SBD,4
110,Raw,M,60-64,Larry Bucchioni,165.56,108.86,229.06,503.49,SBD,1
110,Raw,M,16-17,Kris Hefner,174.63,127.01,197.31,498.95,SBD,1
110,Raw,M,45-49,Mark Stanhope,145.15,104.33,147.42,396.89,SBD,1
110,Raw,M,18-19,Nathan Todd,,174.63,226.8,401.43,BD,1
110,Raw,M,18-19,Jonathan Graham,,142.88,251.74,394.63,BD,2
110,Raw,M,12-13,Justin Schmidt,,34.02,90.72,124.74,BD,1
110,Raw,M,40-44,Donnie Daubert,,199.58,,199.58,B,1
110,Raw,M,25-29,David Stage,,,310.71,310.71,D,1
125,Raw,M,30-34,Brad Humble,201.85,163.29,240.4,605.55,SBD,1
125,Raw,M,40-44,Larry Dromerhauser,151.95,102.06,192.78,446.79,SBD,1
125,Raw,M,16-17,Justin Cruz,124.74,90.72,181.44,396.89,SBD,1
125,Raw,M,50-54,Michael Francis,,176.9,344.73,521.63,BD,1
125,Raw,M,35-39,Jeremy Bennett,,195.04,272.16,467.2,BD,1
125,Raw,M,40-44,Barry Gershman,,213.19,,213.19,B,1
125,Raw,M,50-54,Fred Goldberg,,210.92,,210.92,B,1
125,Raw,M,30-34,Ariel Cortez,,165.56,,165.56,B,1
140+,Raw,M,45-49,Beau Moore #1,344.73,249.48,333.39,927.6,SBD,1
140+,Raw,M,25-29,Matt van Beuningan,360.61,240.4,319.78,920.79,SBD,1
140+,Raw,M,16-17,Deelyn Tilley,,136.08,265.35,401.43,BD,1
140+,Raw,M,30-34,Daniel Garber,,192.78,183.71,376.48,BD,1
