Division,WeightClassKg,Place,Name,Team,BodyweightKg,Best3SquatKg,Best3BenchKg,Best3DeadliftKg,TotalKg,Equipment,Event,Sex
Boys,51.71,1,Justin Dowdy,Wills Point,50.35,142.88,92.99,156.49,392.36,Single-ply,SBD,M
Boys,51.71,2,Ivan Ramirez,North Mesquite,47.36,95.25,43.09,117.93,256.28,Single-ply,SBD,M
Boys,51.71,3,Dylan King,Kaufman,50.44,99.79,52.16,104.33,256.28,Single-ply,SBD,M
Boys,51.71,4,Alec Marable,Eustace,49.8,77.11,49.9,90.72,217.72,Single-ply,SBD,M
Boys,51.71,5,Carson Adcock,Crandall,49.26,79.38,40.82,79.38,199.58,Single-ply,SBD,M
Boys,55.79,1,Devon Harris,North Forney,55.52,181.44,115.67,195.04,492.15,Single-ply,SBD,M
Boys,59.87,2,Joseph Rico,Forney,56.02,156.49,97.52,163.29,417.3,Single-ply,SBD,M
Boys,55.79,3,Jordan Estell,North Mesquite,55.61,131.54,72.57,172.37,376.48,Single-ply,SBD,M
Boys,55.79,4,Cooper Gilliland,Royse City,55.79,115.67,65.77,140.61,322.05,Single-ply,SBD,M
Boys,55.79,5,Jose Olvera,Kaufman,54.61,115.67,68.04,127.01,310.71,Single-ply,SBD,M
Boys,55.79,6,Shane Landis,Bishop Lynch,52.44,102.06,65.77,120.2,288.03,Single-ply,SBD,M
Boys,59.87,1,Tyler Watson,Crandall,59.42,154.22,97.52,174.63,426.38,Single-ply,SBD,M
Boys,59.87,2,Cameron Simmons,Royse City,58.6,151.95,99.79,151.95,403.7,Single-ply,SBD,M
Boys,59.87,3,Josh Esquivel,Rockwall-Heath,59.42,131.54,81.65,142.88,356.07,Single-ply,SBD,M
Boys,59.87,4,Victor Ejiasi,North Forney,59.51,127.01,63.5,154.22,344.73,Single-ply,SBD,M
Boys,59.87,5,Woody Strain,Kaufman,58.79,115.67,70.31,138.35,324.32,Single-ply,SBD,M
Boys,59.87,6,Judet Benner,Eustace,59.42,120.2,68.04,133.81,322.05,Single-ply,SBD,M
Boys,59.87,7,Gilberto Torres,Forney,57.15,108.86,68.04,140.61,317.51,Single-ply,SBD,M
Boys,59.87,8,Jailon Armstrong,Kaufman,57.7,111.13,70.31,129.27,310.71,Single-ply,SBD,M
Boys,59.87,9,Jagger Johnson,Forney,59.42,120.2,61.23,129.27,310.71,Single-ply,SBD,M
Boys,59.87,10,Kole Hartis,Crandall,56.25,95.25,56.7,97.52,249.48,Single-ply,SBD,M
Boys,59.87,11,Jordan Scoggins,Prosper,57.97,95.25,49.9,88.45,233.6,Single-ply,SBD,M
Boys,67.13,1,Alex Ramsey,Royse City,67.04,213.19,122.47,208.65,544.31,Single-ply,SBD,M
Boys,67.13,2,Derrick Mosley,North Forney,67,185.97,104.33,174.63,464.93,Single-ply,SBD,M
Boys,67.13,3,Taylor Gonzalez,Crandall,66.22,149.69,113.4,172.37,435.45,Single-ply,SBD,M
Boys,74.84,4,Justin Griffin,Eustace,67.31,174.63,90.72,167.83,433.18,Single-ply,SBD,M
Boys,67.13,5,A'Daireon Madlock,North Mesquite,64.23,163.29,79.38,176.9,419.57,Single-ply,SBD,M
Boys,74.84,6,Reed Ralston,Forney,67.36,142.88,99.79,174.63,417.3,Single-ply,SBD,M
Boys,67.13,7,Darius Campbell,Red Oak,66.68,154.22,97.52,158.76,410.5,Single-ply,SBD,M
Boys,67.13,8,Denton Bridges,Terrell,66.77,145.15,99.79,161.03,405.97,Single-ply,SBD,M
Boys,67.13,9,Brant Hamilton,Eustace,64.41,147.42,77.11,176.9,401.43,Single-ply,SBD,M
Boys,74.84,10,Jermaine Mask,Bishop Lynch,67.22,156.49,79.38,165.56,401.43,Single-ply,SBD,M
Boys,67.13,11,Peter Garcia,Royse City,63.32,154.22,83.91,158.76,396.89,Single-ply,SBD,M
Boys,67.13,12,Brandon Ruiz,Forney,65.95,142.88,90.72,154.22,387.82,Single-ply,SBD,M
Boys,67.13,13,Alex Pound,Argyle,65.41,136.08,90.72,158.76,385.55,Single-ply,SBD,M
Boys,67.13,14,AJ Garcia,Kennedale,64.77,145.15,74.84,161.03,381.02,Single-ply,SBD,M
Boys,74.84,15,Casey Cranford,Wills Point,67.31,138.35,90.72,149.69,378.75,Single-ply,SBD,M
Boys,67.13,16,Dakota Middleton,Prosper,66.59,138.35,81.65,149.69,369.68,Single-ply,SBD,M
Boys,67.13,17,Drae Sanford,Arlington Seguin,64.77,127.01,68.04,163.29,358.34,Single-ply,SBD,M
Boys,74.84,18,Christopher Ray,Cedar Hill,67.22,142.88,52.16,163.29,358.34,Single-ply,SBD,M
Boys,67.13,19,Caleb Moore,Arlington Seguin,64.14,145.15,65.77,145.15,356.07,Single-ply,SBD,M
Boys,67.13,20,Hayden Brock,Kennedale,66.13,138.35,70.31,136.08,344.73,Single-ply,SBD,M
Boys,67.13,21,Christian Pugh,Royse City,66.5,120.2,83.91,138.35,342.46,Single-ply,SBD,M
Boys,74.84,22,Kelton Kersh,Kaufman,67.22,131.54,70.31,140.61,342.46,Single-ply,SBD,M
Boys,67.13,23,Jayln Hicks,Arlington Seguin,64.59,124.74,61.23,149.69,335.66,Single-ply,SBD,M
Boys,67.13,24,Joshua Hughes,Eustace,62.78,117.93,79.38,124.74,322.05,Single-ply,SBD,M
Boys,67.13,25,Connor Petsch,Kaufman,64.68,115.67,77.11,122.47,315.25,Single-ply,SBD,M
Boys,74.84,26,Josh Morgan,Eustace,67.31,108.86,68.04,131.54,308.44,Single-ply,SBD,M
Boys,67.13,27,Hunter Norris,Eustace,63.78,102.06,72.57,115.67,290.3,Single-ply,SBD,M
Boys,67.13,28,Aaron Rhinehardt,Kennedale,61.69,104.33,65.77,117.93,288.03,Single-ply,SBD,M
Boys,67.13,29,Darius Hurd,Kennedale,62.14,90.72,52.16,120.2,263.08,Single-ply,SBD,M
Boys,67.13,30,Gabriel Lucio,Bishop Lynch,66.22,90.72,49.9,108.86,249.48,Single-ply,SBD,M
Boys,67.13,DQ,Darrius Sockwell,Cedar Hill,67.04,,,,,Single-ply,SBD,M
Boys,74.84,1,Bacardi Clark,Mesquite Horn,72.94,274.42,140.61,242.67,657.71,Single-ply,SBD,M
Boys,74.84,2,LaXavier Battee,Kaufman,73.57,204.12,124.74,206.38,535.24,Single-ply,SBD,M
Boys,82.1,3,Jewmonte Lewis,Cedar Hill,75.02,185.97,131.54,185.97,503.49,Single-ply,SBD,M
Boys,74.84,4,Dominique McBride,North Mesquite,68.86,181.44,92.99,208.65,483.08,Single-ply,SBD,M
Boys,74.84,5,Nate Jacobs,Crandall,71.85,165.56,117.93,197.31,480.81,Single-ply,SBD,M
Boys,74.84,6,Dalton Hoelscher,Bishop Lynch,74.3,190.51,95.25,185.97,471.74,Single-ply,SBD,M
Boys,74.84,7,Tim Caradine,Terrell,72.21,167.83,92.99,199.58,460.4,Single-ply,SBD,M
Boys,74.84,8,James Nixon,North Forney,73.66,154.22,97.52,192.78,444.52,Single-ply,SBD,M
Boys,74.84,9,Lon Brown,Arlington Seguin,69.58,151.95,77.11,199.58,428.64,Single-ply,SBD,M
Boys,74.84,10,Ivan Vasquez,Red Oak,68.86,154.22,90.72,181.44,426.38,Single-ply,SBD,M
Boys,74.84,11,Wade Woodard,Prosper,73.3,149.69,113.4,147.42,410.5,Single-ply,SBD,M
Boys,74.84,12,Deondre Gray,Red Oak,71.76,142.88,92.99,170.1,405.97,Single-ply,SBD,M
Boys,74.84,13,Dakota Marshall,Royse City,73.03,142.88,79.38,149.69,371.95,Single-ply,SBD,M
Boys,82.1,14,Juan Garcia,Eustace,75.02,136.08,72.57,154.22,362.87,Single-ply,SBD,M
Boys,74.84,15,Joey Paddock,Wills Point,73.48,120.2,102.06,124.74,347,Single-ply,SBD,M
Boys,74.84,16,Gabriel Suniga,Forney,71.03,92.99,61.23,111.13,265.35,Single-ply,SBD,M
Boys,74.84,DQ,Hakim Daniels-Smith,Arlington Seguin,74.84,172.37,102.06,,,Single-ply,SBD,M
Boys,82.1,1,Dylon Bonesteel,North Mesquite,76.84,208.65,127.01,219.99,555.65,Single-ply,SBD,M
Boys,82.1,2,Josh Scott,Rockwall-Heath,81.47,208.65,133.81,208.65,551.11,Single-ply,SBD,M
Boys,82.1,3,Andre Davis,North Forney,81.78,195.04,117.93,201.85,514.83,Single-ply,SBD,M
Boys,82.1,4,Brett Mallon,Crandall,78.29,174.63,99.79,192.78,467.2,Single-ply,SBD,M
Boys,82.1,5,Oscar Camacho,Kaufman,81.47,185.97,95.25,174.63,455.86,Single-ply,SBD,M
Boys,82.1,6,Hunter Ryan,Crandall,78.56,158.76,88.45,163.29,410.5,Single-ply,SBD,M
Boys,82.1,7,Coreg Martinez,Bishop Lynch,78.2,138.35,92.99,174.63,405.97,Single-ply,SBD,M
Boys,89.81,8,Zac Eskridge,Crandall,82.19,151.95,88.45,165.56,405.97,Single-ply,SBD,M
Boys,82.1,9,Daniel Salguero,Red Oak,75.48,142.88,102.06,158.76,403.7,Single-ply,SBD,M
Boys,82.1,10,Chris Coleman,Rockwall-Heath,82.1,131.54,108.86,156.49,396.89,Single-ply,SBD,M
Boys,82.1,11,Marcus Moreland,Cedar Hill,81.65,136.08,88.45,142.88,367.41,Single-ply,SBD,M
Boys,82.1,12,Dylan Hunsaker,Eustace,80.01,151.95,102.06,111.13,365.14,Single-ply,SBD,M
Boys,82.1,13,Tim Oree,Arlington Seguin,77.29,154.22,63.5,136.08,353.8,Single-ply,SBD,M
Boys,82.1,14,Noel Sithole,Prosper,76.48,124.74,83.91,136.08,344.73,Single-ply,SBD,M
Boys,82.1,15,Jacob Winters,Kennedale,76.93,113.4,56.7,120.2,290.3,Single-ply,SBD,M
Boys,89.81,16,Brody Floyd,Kennedale,82.28,77.11,68.04,127.01,272.16,Single-ply,SBD,M
Boys,82.1,DQ,Alex Herrera,Kennedale,76.48,149.69,,,,Single-ply,SBD,M
Boys,82.1,DQ,Kevin Kanzaki,Argyle,81.74,,,,,Single-ply,SBD,M
Boys,82.1,DQ,Derwin Townsend,Cedar Hill,80.29,,,,,Single-ply,SBD,M
Boys,82.1,DQ,Tyler Hooten,Wills Point,75.66,102.06,74.84,,,Single-ply,SBD,M
Boys,82.1,DQ,Brandon Cerda,North Forney,78.11,154.22,,,,Single-ply,SBD,M
Boys,89.81,1,Jared Loftis,Royse City,89.81,258.55,131.54,244.94,635.03,Single-ply,SBD,M
Boys,89.81,2,Tristen Carstarphen,Rockwall-Heath,86.73,195.04,127.01,208.65,530.7,Single-ply,SBD,M
Boys,89.81,3,Jonathan Dunson,Kaufman,87.36,206.38,131.54,190.51,528.44,Single-ply,SBD,M
Boys,89.81,4,Clay Wikerson,Rockwall-Heath,84.91,204.12,115.67,201.85,521.63,Single-ply,SBD,M
Boys,89.81,5,Nate Banks,Crandall,88.18,181.44,124.74,197.31,503.49,Single-ply,SBD,M
Boys,89.81,6,Michael McKinney,Royse City,89.36,213.19,106.59,181.44,501.22,Single-ply,SBD,M
Boys,89.81,7,Lloyd Reid,Red Oak,83.82,174.63,113.4,199.58,487.61,Single-ply,SBD,M
Boys,89.81,8,Brenden Blunt,Crandall,82.55,181.44,113.4,176.9,471.74,Single-ply,SBD,M
Boys,89.81,9,Cory Wilkerson,Rockwall-Heath,84.01,174.63,108.86,170.1,453.59,Single-ply,SBD,M
Boys,89.81,10,Dalton Bramhall,Crandall,84.1,170.1,95.25,172.37,437.72,Single-ply,SBD,M
Boys,89.81,11,Mark Callaway,Royse City,85.18,158.76,88.45,183.7,430.91,Single-ply,SBD,M
Boys,89.81,12,Colton Hall,Kennedale,89.27,149.69,92.99,181.44,424.11,Single-ply,SBD,M
Boys,89.81,13,Neil Tucker,Terrell,86.45,149.69,104.33,158.76,412.77,Single-ply,SBD,M
Boys,89.81,14,Chandler Hill,Crandall,83.28,170.1,79.38,158.76,408.23,Single-ply,SBD,M
Boys,99.79,15,Braughn Bigham,Prosper,90.04,124.74,79.38,127.01,331.12,Single-ply,SBD,M
Boys,89.81,16,Shawn Gathright,Prosper,84.19,102.06,83.91,133.81,319.78,Single-ply,SBD,M
Boys,99.79,17,Braxton Tipton,Forney,89.9,113.4,54.43,113.4,281.23,Single-ply,SBD,M
Boys,89.81,18,Desmund Brown,Terrell,86.45,138.35,,,138.35,Single-ply,S,M
Boys,89.81,DQ,Browning Baron,Kennedale,89.54,,,,,Single-ply,S,M
Boys,89.81,DQ,Jermaine Gardner,North Forney,89.09,136.08,,,,Single-ply,S,M
Boys,89.81,DQ,Grant Fischer,North Forney,87.68,117.93,,,,Single-ply,S,M
Boys,89.81,DQ,Sam Ejiasi,North Forney,88.63,,,,,Single-ply,S,M
Boys,99.79,1,Cody Ray,Forney,98.7,244.94,122.47,213.19,580.6,Single-ply,SBD,M
Boys,99.79,2,Timothy Hutchins,Cedar Hill,91.44,226.8,127.01,215.46,569.26,Single-ply,SBD,M
Boys,109.77,3,Antonio Harris,Terrell,99.97,210.92,142.88,208.65,562.45,Single-ply,SBD,M
Boys,99.79,4,Elier Avila,Kaufman,97.43,222.26,117.93,199.58,539.77,Single-ply,SBD,M
Boys,99.79,5,Ken Louden,North Mesquite,90.72,156.49,131.54,249.48,537.51,Single-ply,SBD,M
Boys,99.79,6,Kevin Morrow,Kaufman,97.25,210.92,117.93,206.38,535.24,Single-ply,SBD,M
Boys,99.79,7,Xavier Robertson,Kaufman,94.35,183.7,136.08,210.92,530.7,Single-ply,SBD,M
Boys,99.79,8,Will Barnes,North Forney,98.34,201.85,151.95,165.56,519.36,Single-ply,SBD,M
Boys,99.79,9,Josh Tate,Cedar Hill,92.8,199.58,120.2,197.31,517.1,Single-ply,SBD,M
Boys,99.79,10,Adedoyin Falana,Cedar Hill,91.81,181.44,106.59,201.85,489.88,Single-ply,SBD,M
Boys,99.79,11,David Brown,Crandall,99.43,190.51,108.86,185.97,485.34,Single-ply,SBD,M
Boys,99.79,12,Anthony Urieta,Bishop Lynch,99.43,192.78,111.13,172.37,476.27,Single-ply,SBD,M
Boys,109.77,13,Malik Jamison,Kennedale,99.97,179.17,97.52,197.31,474,Single-ply,SBD,M
Boys,99.79,14,Daniel Grigsby,North Forney,96.34,176.9,113.4,170.1,460.4,Single-ply,SBD,M
Boys,99.79,15,Ahae Igietsu,Arlington Seguin,95.53,181.44,70.31,167.83,419.57,Single-ply,SBD,M
Boys,99.79,16,Tristen Rubio,Bishop Lynch,93.8,170.1,90.72,154.22,415.04,Single-ply,SBD,M
Boys,99.79,17,Patrick Dikerson,North Forney,96.16,145.15,104.33,151.95,401.43,Single-ply,SBD,M
Boys,99.79,18,Jacob Zarycki,Prosper,93.71,108.86,83.91,131.54,324.32,Single-ply,SBD,M
Boys,99.79,DQ,Tyler Ruby,Bishop Lynch,98.25,136.08,,,,Single-ply,SBD,M
Boys,109.77,1,Jalon Scott,North Mesquite,103.6,256.28,136.08,249.48,641.83,Single-ply,SBD,M
Boys,109.77,2,Lionel Garcia,Eustace,103.15,190.51,117.93,190.51,498.95,Single-ply,SBD,M
Boys,109.77,3,Philip Gomez,North Forney,106.41,161.03,111.13,149.69,421.84,Single-ply,SBD,M
Boys,109.77,4,Eligah Butler,Arlington Seguin,102.78,154.22,77.11,181.44,412.77,Single-ply,SBD,M
Boys,109.77,5,Ryan Brightwell,North Forney,104.78,147.42,97.52,154.22,399.16,Single-ply,SBD,M
Boys,109.77,6,Louis Manto,Prosper,106.14,129.27,92.99,115.67,337.93,Single-ply,SBD,M
Boys,124.74,1,John Molina,Bishop Lynch,112.13,249.48,149.69,213.19,612.35,Single-ply,SBD,M
Boys,124.74,2,Brandon Wiggleton,North Mesquite,117.84,215.46,142.88,226.8,585.13,Single-ply,SBD,M
Boys,124.74,3,Randy Crystian,Cedar Hill,116.21,201.85,142.88,235.87,580.6,Single-ply,SBD,M
Boys,124.74,4,Nick Rodriguez,Kaufman,119.29,208.65,129.27,222.26,560.19,Single-ply,SBD,M
Boys,124.74,5,Daniel Brown #5,Crandall,121.56,195.04,136.08,204.12,535.24,Single-ply,SBD,M
Boys,124.74,6,Rod Smith,Bishop Lynch,118.66,190.51,120.2,204.12,514.83,Single-ply,SBD,M
Boys,124.74,7,Quavon Freeman,North Forney,120.66,213.19,117.93,181.44,512.56,Single-ply,SBD,M
Boys,124.74,8,Armando Martinez,Red Oak,113.22,188.24,117.93,204.12,510.29,Single-ply,SBD,M
Boys,124.74,9,Terry Huynh,North Mesquite,110.86,188.24,102.06,195.04,485.34,Single-ply,SBD,M
Boys,124.74,10,Jeremy Hodowanic,North Forney,116.03,163.29,151.95,167.83,483.08,Single-ply,SBD,M
Boys,124.74,11,Adam Dyer,Argyle,121.47,170.1,95.25,204.12,469.47,Single-ply,SBD,M
Boys,124.74,12,Mike Rivera,Arlington Seguin,110.31,147.42,108.86,199.58,455.86,Single-ply,SBD,M
Boys,124.74,13,Ja'Coby Paul,Terrell,112.76,151.95,120.2,158.76,430.91,Single-ply,SBD,M
Boys,124.74,14,Noah Elder,Forney,123.01,188.24,83.91,158.76,430.91,Single-ply,SBD,M
Boys,124.74,15,Johhny Zielinski,Kennedale,114.12,163.29,92.99,161.03,417.3,Single-ply,SBD,M
Boys,124.74,16,Trent Helt,Arlington Seguin,124.56,158.76,86.18,170.1,415.04,Single-ply,SBD,M
Boys,124.74,17,Trevor Dobbs,Red Oak,111.31,129.27,79.38,158.76,367.41,Single-ply,SBD,M
Boys,124.74,DQ,Conner Leclair,Prosper,119.39,,,,,Single-ply,SBD,M
Boys,124.74,DQ,Mason Reedom,Arlington Seguin,123.83,,,,,Single-ply,SBD,M
Boys,124.74+,1,Michael Castle,Argyle,149.59,331.12,204.12,226.8,762.04,Single-ply,SBD,M
Boys,124.74+,2,Jermaine Williams,North Forney,139.71,256.28,142.88,242.67,641.83,Single-ply,SBD,M
Boys,124.74+,3,Michael Nichols,North Mesquite,126.73,231.33,165.56,233.6,630.49,Single-ply,SBD,M
Boys,124.74+,4,Cliffton Coffey,Cedar Hill,131.72,235.87,142.88,231.33,610.08,Single-ply,SBD,M
Boys,124.74+,5,Trevor Elbert,Rockwall-Heath,133.08,233.6,140.61,226.8,601.01,Single-ply,SBD,M
Boys,124.74+,6,Cody Taylor,Royse City,128,213.19,142.88,226.8,582.87,Single-ply,SBD,M
Boys,124.74+,7,Eric Roberts,Terrell,134.17,224.53,147.42,190.51,562.45,Single-ply,SBD,M
Boys,124.74+,8,Norris Floyd,North Forney,136.08,217.72,151.95,183.7,553.38,Single-ply,SBD,M
Boys,124.74+,9,Jorge Guerrero,Rockwall-Heath,140.25,213.19,138.35,195.04,546.58,Single-ply,SBD,M
Boys,124.74+,10,Dezmand Candelarie,North Mesquite,138.35,197.31,136.08,201.85,535.24,Single-ply,SBD,M
Boys,124.74+,11,Zach Collins,Arlington Seguin,135.17,208.65,97.52,183.7,489.88,Single-ply,SBD,M
Boys,124.74+,12,Jackson Loving,Prosper,136.53,190.51,117.93,176.9,485.34,Single-ply,SBD,M
Boys,124.74+,13,Edgar SanJuan,Kaufman,133.45,208.65,113.4,156.49,478.54,Single-ply,SBD,M
Boys,124.74+,14,Oriando Martinez,Red Oak,130.54,161.03,97.52,197.31,455.86,Single-ply,SBD,M
Boys,124.74+,15,Joe Carrillo,North Forney,127.64,154.22,108.86,142.88,405.97,Single-ply,SBD,M
Boys,124.74+,16,Austin Frye,Royse City,132.72,210.92,113.4,,324.32,Single-ply,SB,M
Boys,124.74+,DQ,Justice Powers,Cedar Hill,139.71,204.12,,,,Single-ply,SB,M
