Name,Sex,Equipment,BodyweightKg,WeightClassKg,Division,Squat1Kg,Squat2Kg,Squat3Kg,Best3SquatKg,Bench1Kg,Bench2Kg,Bench3Kg,Best3BenchKg,Deadlift1Kg,Deadlift2Kg,Deadlift3Kg,Best3DeadliftKg,TotalKg,Place,Event
Aftab Uddin,M,Raw,59,59,M-C-Open,-140,-140,-140,,80,82.5,95,95,170,175,180,180,,DQ,SBD
Roger Hamilton-Smith,M,Raw,66,66,M-C-Open,145,160,165,165,97.5,110,115,115,200,217.5,-225,217.5,497.5,1,SBD
John Bermudez,M,Raw,65.3,66,M-C-Open,145,155,-160,155,85,90,92.5,92.5,-185,185,-200,185,432.5,2,SBD
Yasmina Couty,F,Single-ply,63,63,F-E-Open,137.5,-147.5,-152.5,137.5,65,-70,-70,65,145,-157.5,160,160,362.5,1,SBD
Sofia Rufus,F,Raw,51.6,52,F-C-Open,105,107.5,115,115,50,52.5,55,55,110,120,-130,120,290,1,SBD
Tzvetelina Tzonova,F,Raw,48.5,52,F-C-Open,80,85,90,90,40,42.5,45,45,90,95,100,100,235,2,SBD
Amy Richardson,F,Raw,57,57,F-C-Open,80,-90,,80,62.5,67.5,,67.5,110,125,140,140,287.5,1,SBD
Lydia Forrest,F,Raw,54.7,57,F-C-Open,95,100,102.5,102.5,40,42.5,45,45,95,100,-105,100,247.5,2,SBD
Rosie Maddock,F,Raw,55.4,57,F-C-Open,67.5,72.5,-77.5,72.5,50,52.5,55,55,80,85,-90,85,212.5,3,SBD
Stephanie Duff,F,Raw,62.5,63,F-C-Open,112.5,122.5,127.5,127.5,57.5,62.5,-67.5,62.5,122.5,132.5,142.5,142.5,332.5,1,SBD
Alex May Wren,F,Raw,57.2,63,F-C-Open,80,90,102.5,102.5,45,-50,52.5,52.5,125,135,145,145,300,2,SBD
Janine Kessel,F,Raw,62.2,63,F-C-Open,102.5,110,117.5,117.5,55,60,-62.5,60,110,120,-130,120,297.5,3,SBD
Lucy des Clayes,F,Raw,62.1,63,F-C-Open,97.5,105,112.5,112.5,45,47.5,50,50,102.5,112.5,122.5,122.5,285,4,SBD
Niamh Appleby,F,Raw,59.9,63,F-C-Open,80,85,90,90,42.5,45,47.5,47.5,95,100,105,105,242.5,5,SBD
Amy Jaggers,F,Raw,62.3,63,F-C-Open,-75,75,-77.5,75,50,52.5,-55,52.5,105,107.5,-110,107.5,235,6,SBD
Kai Ma,F,Raw,60.8,63,F-C-Open,65,70,75,75,45,50,55,55,80,90,100,100,230,7,SBD
Tia Ratnavira,F,Raw,59.5,63,F-C-Open,60,65,72.5,72.5,30,35,40,40,70,77.5,87.5,87.5,200,8,SBD
Sushmita Das,F,Raw,62.3,63,F-C-Open,-50,-50,-50,,25,27.5,30,30,70,80,85,85,,DQ,SBD
João Arsénio,M,Single-ply,80.1,83,M-E-Open,240,250,255,255,130,135,-140,135,-235,,,,,DQ,SBD
Iman Salemi,M,Raw,73.4,74,M-C-Open,190,207.5,-223,207.5,130,137.5,142.5,142.5,230,240,242.5,242.5,592.5,1,SBD
Terry Martin,M,Raw,72.8,74,M-C-Open,-195,195,205,205,130,140,-142.5,140,210,222.5,227.5,227.5,572.5,2,SBD
Steven Tyers,M,Raw,73.5,74,M-C-Open,175,190,200,200,120,127.5,135,135,220,-232.5,-232.5,220,555,3,SBD
Tom Goodspeed,M,Raw,74,74,M-C-Open,145,-160,162.5,162.5,100,110,120,120,180,195,205,205,487.5,4,SBD
Ben Johnson,M,Raw,71.2,74,M-C-Open,155,,,155,115,,,115,205,,,205,475,5,SBD
Oliver Holdsworth,M,Raw,71.8,74,M-C-Open,165,172.5,175,175,90,92.5,95,95,162.5,180,195,195,465,6,SBD
Daniel Collins,M,Raw,72.4,74,M-C-Open,140,150,160,160,-82.5,90,-100,90,160,172.5,180,180,430,7,SBD
Ace Bruce Gabunia,M,Raw,73.3,74,M-C-Open,130,137.5,145,145,87.5,95,-100,95,175,187.5,-200,187.5,427.5,8,SBD
Michael MacMillan,M,Raw,70.3,74,M-C-Open,132.5,142.5,-150,142.5,95,102.5,-112.5,102.5,150,162.5,-167.5,162.5,407.5,9,SBD
Brian Montague,M,Raw,71,74,M-C-Open,87.5,97.5,-105,97.5,65,72.5,77.5,77.5,145,155,167.5,167.5,342.5,1,SBD
Rory Edwards,M,Raw,70.4,74,M-C-Open,105,115,125,125,72.5,77.5,80,80,110,120,130,130,335,1,SBD
Theo Yoong Guo-Zheng,M,Raw,71.8,74,M-C-Open,80,95,105,105,60,67.5,72.5,72.5,100,115,125,125,302.5,1,SBD
Jack Suljevic,M,Raw,80,83,M-C-Open,220,230,237.5,237.5,130,135,140,140,250,262.5,275,275,652.5,1,SBD
Adam Manery,M,Raw,82.3,83,M-C-Open,202.5,215,225,225,145,155,-160,155,207.5,225,235,235,615,2,SBD
Jamie Sinclair,M,Raw,82.7,83,M-C-Open,165,175,185,185,135,145,-152.5,145,200,210,-215,210,540,3,SBD
Peter Butler,M,Raw,81.1,83,M-C-Open,-170,-177.5,177.5,177.5,135,-140,-140,135,180,190,205,205,517.5,4,SBD
Tom Murphy,M,Raw,79,83,M-C-Open,155,-165,170,170,105,115,122.5,122.5,190,200,-210,200,492.5,5,SBD
Mike Samuels,M,Raw,78.3,83,M-C-Open,135,145,155,155,105,115,125,125,170,190,200,200,480,6,SBD
Josh Browne,M,Raw,76.9,83,M-C-Open,140,160,-175,160,100,110,120,120,160,180,192.5,192.5,472.5,7,SBD
Robert Hardie,M,Raw,79.5,83,M-C-Open,120,-125,130,130,80,-82.5,82.5,82.5,165,175,-182.5,175,387.5,8,SBD
Hamayun Farooq,M,Raw,78.5,83,M-C-Open,-125,125,-135,125,75,85,-90,85,150,155,-165,155,365,9,SBD
Harvey Robinson,M,Single-ply,116.6,120,M-E-Open,325,350,355,355,250,260,265,265,305,325,335,335,955,1,SBD
George Seeger,M,Single-ply,99.6,105,M-E-Open,210,-265,-285,210,140,-190,190,190,300,315,-325,315,715,2,SBD
Owen Hubbard,M,Raw,86.1,93,M-C-Open,255,267.5,-277.5,267.5,200,210,215,215,260,280,287.5,287.5,770,1,SBD
Dionis Gonzalez,M,Raw,90.7,93,M-C-Open,-225,225,235,235,150,155,-157.5,155,262.5,-277.5,-277.5,262.5,652.5,2,SBD
Joseph Watson,M,Raw,92.7,93,M-C-Open,200,207.5,212.5,212.5,155,160,165,165,235,245,260,260,637.5,3,SBD
Asad Bhatti,M,Raw,92.3,93,M-C-Open,210,-230,-230,210,120,130,135,135,235,-255,262.5,262.5,607.5,4,SBD
Jason Berrington,M,Raw,93,93,M-C-Open,-190,190,-200,190,142.5,150,-155,150,235,260,-272.5,260,600,5,SBD
Mark Cummins,M,Raw,91.2,93,M-C-Open,175,190,-200,190,130,145,-150,145,230,240,255,255,590,6,SBD
James Ranger,M,Raw,89.9,93,M-C-Open,170,180,190,190,-130,135,142.5,142.5,180,200,220,220,552.5,7,SBD
Gareth Ellis,M,Raw,91.3,93,M-C-Open,180,187.5,-197.5,187.5,105,110,-115,110,200,212.5,220,220,517.5,8,SBD
John Mahoney,M,Raw,90.2,93,M-C-Open,157.5,-165,-165,157.5,102.5,107.5,-112.5,107.5,185,195,205,205,470,9,SBD
Phillip Varcas,M,Raw,92.7,93,M-C-Open,140,147.5,152.5,152.5,115,-120,-120,115,170,180,-185,180,447.5,1,SBD
Bartosz Lesniewski,M,Raw,89.2,93,M-C-Open,120,127.5,135,135,90,95,,95,160,170,-180,170,400,1,SBD
Edward Crossley,M,Raw,91.3,93,M-C-Open,-120,130,140,140,95,110,-115,110,-140,140,150,150,400,1,SBD
Edward Crowe,M,Raw,84.3,93,M-C-Open,-160,-160,-160,,115,-122.5,127.5,127.5,170,180,190,190,,DQ,SBD
Will Knowland,M,Raw,104.5,105,M-C-Open,235,-252.5,252.5,252.5,167.5,177.5,-181,177.5,-242.5,242.5,272.5,272.5,702.5,1,SBD
Sam Watkins,M,Raw,97.9,105,M-C-Open,210,225,235,235,142.5,147.5,150,150,210,225,-240,225,610,2,SBD
Gary Allen,M,Raw,93.7,105,M-C-Open,195,-202.5,202.5,202.5,130,-135,-135,130,220,-235,235,235,567.5,3,SBD
Kit Man Li,M,Raw,96.3,105,M-C-Open,190,-205,205,205,100,110,-115,110,190,205,215,215,530,4,SBD
Jack Stephens,M,Raw,110.6,120,M-C-Open,-235,235,-245,235,-145,145,-150,145,245,255,260,260,640,1,SBD
Graham Lay,M,Raw,114.5,120,M-C-Open,190,200,205,205,-130,132.5,-140,132.5,220,-232.5,-232.5,220,557.5,2,SBD
James Howl-Newton,M,Raw,110.5,120,M-C-Open,135,145,155,155,90,100,-107.5,100,180,190,-200,190,445,3,SBD
Martin McConville,M,Raw,106.8,120,M-C-Open,135,145,-152.5,145,95,100,102.5,102.5,160,170,177.5,177.5,425,4,SBD
Tom Kelly,M,Raw,166.6,120+,M-C-Open,230,,,230,-180,180,,180,240,260,,260,670,1,SBD
Franka Ransome,F,Raw,72,72,F-C-Open,95,105,110,110,47.5,50,52.5,52.5,120,125,130,130,292.5,1,SBD
Kelle Hopkins,F,Raw,69.7,72,F-C-Open,95,100,-105,100,52.5,-57.5,57.5,57.5,117.5,125,-132.5,125,282.5,2,SBD
Yvonne McCall,F,Raw,69.9,72,F-C-Open,90,95,-97.5,95,55,-57.5,57.5,57.5,112.5,120,122.5,122.5,275,3,SBD
Lily Erskine,F,Raw,64.9,72,F-C-Open,87.5,95,100,100,42.5,47.5,50,50,100,107.5,,107.5,257.5,4,SBD
Debbie Cornish,F,Raw,71.8,72,F-C-Open,62.5,70,77.5,77.5,40,50,-52.5,50,90,105,120,120,247.5,5,SBD
Megan Batchelor,F,Raw,83.4,84,F-C-Open,122.5,132.5,-137.5,132.5,85,90.5,92.5,92.5,145,155,162.5,162.5,387.5,1,SBD
Lucy Hyde,F,Raw,81.5,84,F-C-Open,87.5,95,102.5,102.5,70,75,77.5,77.5,120,132.5,142.5,142.5,322.5,2,SBD
Josefine Nilsson,F,Raw,77.4,84,F-C-Open,100,110,-117.5,110,57.5,62.5,-67.5,62.5,100,110,115,115,287.5,3,SBD
Louise Webster,F,Raw,80.3,84,F-C-Open,80,-85,-85,80,50,55,-60,55,110,120,130,130,265,4,SBD
Karen Houghton,F,Raw,80.6,84,F-C-Open,105,-112.5,-112.5,105,,,,,,,,,,DQ,SBD
Scarlett Sotiris,F,Raw,90.9,84+,F-C-Open,130,140,150,150,70,75,-80,75,165,180,190,190,415,1,SBD
Lisa Styles,F,Raw,105.1,84+,F-C-Open,-140,-140,140,140,70,77.5,-80,77.5,180,190,-195,190,407.5,2,SBD
Nicola Stimpson,F,Raw,93.9,84+,F-C-Open,160,-172.5,-172.5,160,60,67.5,-70,67.5,155,162.5,-167.5,162.5,390,3,SBD
Sam Foulds,F,Raw,112.5,84+,F-C-Open,130,140,150,150,-80,80,87.5,87.5,130,140,-150,140,377.5,4,SBD
Elizabeth Morrissey,F,Raw,90.4,84+,F-C-Open,127.5,130,132.5,132.5,62.5,65,67.5,67.5,130,135,140,140,340,5,SBD
Kelly-Marie Edwards,F,Raw,124.4,84+,F-C-Open,117.5,-130,-140,117.5,60,-67.5,-67.5,60,142.5,147.5,155,155,332.5,6,SBD
Sophie McConville,F,Raw,100.3,84+,F-C-Open,85,92.5,-100,92.5,52.5,-57.5,57.5,57.5,115,122.5,-130,122.5,272.5,7,SBD
Ogheneyoma Toweh,F,Raw,95,84+,F-C-Open,100,120,135,135,40,47.5,55,55,100,122.5,135,135,325,G,SBD
Peter Schreiber,M,Single-ply,127.2,120+,M-E-Open,,,,,-160,-160,-160,,,,,,,DQ,SBD
