Division,WeightClassKg,Place,Name,Team,BodyweightKg,Best3SquatKg,Best3BenchKg,Best3DeadliftKg,TotalKg,Equipment,Event,Sex
Boys,51.71,1,Reese Turner,Tyler Chapel Hill,51.71,133.81,70.31,147.42,351.53,Single-ply,SBD,M
Boys,51.71,2,Ivan Navarro,Corsicana Mildred,51.71,86.18,52.16,104.33,242.67,Single-ply,SBD,M
Boys,59.87,1,Jalen Williams,Tyler Chapel Hill,58.06,140.61,72.57,154.22,367.41,Single-ply,SBD,M
Boys,67.13,1,Rody Seilheimer,Corsicana Mildred,66.68,163.29,106.59,163.29,433.18,Single-ply,SBD,M
Boys,67.13,2,Jesus Sanchez,Ennis,63.78,154.22,99.79,167.83,421.84,Single-ply,SBD,M
Boys,67.13,3,Josh Turner,Ennis,66.68,142.88,88.45,163.29,394.63,Single-ply,SBD,M
Boys,67.13,4,Jeremy Ballard,Corsicana Mildred,66.45,151.95,77.11,158.76,387.82,Single-ply,SBD,M
Boys,67.13,5,Oscar Bonilla,Corsicana Mildred,65.77,142.88,74.84,163.29,381.02,Single-ply,SBD,M
Boys,67.13,6,Jason Washburn,Ennis,64.23,142.88,81.65,149.69,374.21,Single-ply,SBD,M
Boys,67.13,7,Jacob Shaw,Tyler Chapel Hill,65.32,145.15,77.11,147.42,369.68,Single-ply,SBD,M
Boys,67.13,8,Joseph Clark,Tyler Chapel Hill,67.13,147.42,61.23,158.76,367.41,Single-ply,SBD,M
Boys,67.13,9,Dylan Snyder,Ennis,62.96,142.88,79.38,142.88,365.14,Single-ply,SBD,M
Boys,67.13,10,Dakota Callhan,Corsicana Mildred,66.68,113.4,81.65,156.49,351.53,Single-ply,SBD,M
Boys,74.84,1,Logan Shelton,Corsicana Mildred,70.08,190.51,102.06,185.97,478.54,Single-ply,SBD,M
Boys,74.84,2,Cole Barton #4,Corsicana,69.85,165.56,102.06,158.76,426.38,Single-ply,SBD,M
Boys,74.84,3,Jay Reagan,Tyler Chapel Hill,73.48,154.22,99.79,165.56,419.57,Single-ply,SBD,M
Boys,74.84,4,Alex Mendez,Corsicana,73.94,151.95,111.13,142.88,405.97,Single-ply,SBD,M
Boys,74.84,5,Jason Hill,Tyler Chapel Hill,72.12,149.69,74.84,158.76,383.29,Single-ply,SBD,M
Boys,74.84,6,Enrique Rodriguez #4,Corsicana,70.31,136.08,81.65,158.76,376.48,Single-ply,SBD,M
Boys,74.84,7,Pat Wallace,Corsicana Mildred,70.53,127.01,74.84,165.56,367.41,Single-ply,SBD,M
Boys,82.1,1,Brandon Evans,Corsicana,81.65,235.87,113.4,238.14,587.4,Single-ply,SBD,M
Boys,82.1,2,Rex Rollins,Tyler Chapel Hill,81.65,206.38,95.25,208.65,510.29,Single-ply,SBD,M
Boys,82.1,3,Bryan Kelly,Corsicana,82.1,183.7,102.06,204.12,489.88,Single-ply,SBD,M
Boys,82.1,4,Dequan Raindle,Corsicana,82.1,195.04,106.59,185.97,487.61,Single-ply,SBD,M
Boys,82.1,5,Deaveron Dean,Tyler Chapel Hill,78.47,154.22,90.72,142.88,387.82,Single-ply,SBD,M
Boys,82.1,6,Ardas Walker,Corsicana,82.1,127.01,74.84,154.22,356.07,Single-ply,SBD,M
Boys,89.81,1,Dalton Snyder,Ennis,89.81,210.92,136.08,190.51,537.51,Single-ply,SBD,M
Boys,89.81,2,Brandoyn Bell,Tyler Chapel Hill,84.82,199.58,120.2,213.19,532.97,Single-ply,SBD,M
Boys,89.81,3,Boston Prachyl,Ennis,87.09,201.85,127.01,201.85,530.7,Single-ply,SBD,M
Boys,89.81,4,Nate Allen,Ennis,89.81,156.49,90.72,161.03,408.23,Single-ply,SBD,M
Boys,89.81,5,Quintin Weaver,Corsicana Mildred,87.32,136.08,99.79,170.1,405.97,Single-ply,SBD,M
Boys,89.81,6,Chase Miller,Corsicana Mildred,89.58,138.35,92.99,170.1,401.43,Single-ply,SBD,M
Boys,89.81,7,Bryson Faulk,Corsicana,89.81,90.72,,111.13,201.85,Single-ply,SD,M
Boys,99.79,1,Brandon Polk,Corsicana,98.88,242.67,136.08,240.4,619.15,Single-ply,SBD,M
Boys,99.79,2,Jaren Kennedy,Tyler Chapel Hill,99.34,217.72,154.22,238.14,610.08,Single-ply,SBD,M
Boys,99.79,3,Clay Carroll,Corsicana,98.88,204.12,138.35,226.8,569.26,Single-ply,SBD,M
Boys,99.79,4,Dominic Kelly,Corsicana,99.79,217.72,129.27,215.46,562.45,Single-ply,SBD,M
Boys,99.79,5,Keiundas Wade,Tyler Chapel Hill,95.71,188.24,120.2,199.58,508.02,Single-ply,SBD,M
Boys,99.79,6,Rolando Urbabazo,Ennis,96.07,192.78,127.01,174.63,494.42,Single-ply,SBD,M
Boys,99.79,7,Chris Edling,Corsicana,92.08,156.49,111.13,170.1,437.72,Single-ply,SBD,M
Boys,99.79,8,Nathan Harriss,Corsicana Mildred,99.56,149.69,81.65,174.63,405.97,Single-ply,SBD,M
Boys,99.79,9,Floyd Shrestha,Corsicana,94.35,142.88,92.99,142.88,378.75,Single-ply,SBD,M
Boys,99.79,10,Jd Franklin,Tyler Chapel Hill,95.25,142.88,88.45,142.88,374.21,Single-ply,SBD,M
Boys,99.79,11,Quintin Johnson,Tyler Chapel Hill,95.71,142.88,79.38,142.88,365.14,Single-ply,SBD,M
Boys,99.79,12,Dalton Stutts,Corsicana,91.63,136.08,68.04,142.88,347,Single-ply,SBD,M
Boys,109.77,1,Roclan Drain,Corsicana,108.86,167.83,117.93,190.51,476.27,Single-ply,SBD,M
Boys,109.77,2,Danny Hanna,Corsicana Mildred,101.6,174.63,106.59,174.63,455.86,Single-ply,SBD,M
Boys,109.77,3,Dean Fletes,Corsicana,106.59,136.08,88.45,158.76,383.29,Single-ply,SBD,M
Boys,109.77,4,Brandon Ross,Tyler Chapel Hill,103.42,147.42,83.91,142.88,374.21,Single-ply,SBD,M
Boys,124.74,1,Brandon Upshaw,Tyler Chapel Hill,122.47,215.46,113.4,190.51,519.36,Single-ply,SBD,M
Boys,124.74,2,Thomas Finigmow,Corsicana Mildred,112.04,172.37,104.33,199.58,476.27,Single-ply,SBD,M
Boys,124.74,3,Tanner Reynolds,Corsicana Mildred,111.81,158.76,102.06,183.7,444.52,Single-ply,SBD,M
Boys,124.74,4,Jake Ratliff,Tyler Chapel Hill,121.11,149.69,90.72,170.1,410.5,Single-ply,SBD,M
Boys,124.74,5,Chris Jones,Corsicana,116.12,147.42,97.52,154.22,399.16,Single-ply,SBD,M
Boys,124.74,6,Jordan Artega,Tyler Chapel Hill,123.38,138.35,104.33,142.88,385.55,Single-ply,SBD,M
Boys,124.74,7,Adolfo Monreal,Corsicana,118.39,97.52,77.11,124.74,299.37,Single-ply,SBD,M
Boys,124.74+,1,Daniel Smith,Tyler Chapel Hill,130.63,217.72,142.88,208.65,569.26,Single-ply,SBD,M
Boys,124.74+,2,James Brooks,Tyler Chapel Hill,140.61,226.8,106.59,183.7,517.1,Single-ply,SBD,M
Boys,124.74+,3,Daniel Ruiz,Corsicana,147.42,142.88,113.4,215.46,471.74,Single-ply,SBD,M
Boys,124.74+,4,Joseph Baird,Ennis,136.98,,120.2,199.58,319.78,Single-ply,BD,M
