Division,WeightClassKg,Place,Name,Team,BodyweightKg,Best3SquatKg,Best3BenchKg,Best3DeadliftKg,TotalKg,Equipment,Event,Sex
Boys,51.71,1,Jose Rios,Dripping Springs,51.44,156.49,83.91,170.1,410.5,Single-ply,SBD,M
Boys,51.71,2,Mauricio Rangel Cruz,Buda Hays,50.8,129.27,83.91,151.95,365.14,Single-ply,SBD,M
Boys,51.71,3,Sterling Dukett,Kyle Lehman,51.71,117.93,65.77,133.81,317.51,Single-ply,SBD,M
Boys,51.71,4,Aaron Tobias,Bastrop Cedar Creek,50.8,117.93,58.97,127.01,303.91,Single-ply,SBD,M
Boys,51.71,5,Calel Henry,Pflugerville Weiss,51.71,104.33,52.16,142.88,299.37,Single-ply,SBD,M
Boys,51.71,6,Onesimo Esquivel,San Marcos,47.72,90.72,56.7,113.4,260.82,Single-ply,SBD,M
Boys,51.71,7,David Zamora,Luling,43.54,79.38,38.56,88.45,206.38,Single-ply,SBD,M
Boys,55.79,1,Jeremiah Thompson,Manor,55.52,158.76,108.86,170.1,437.72,Single-ply,SBD,M
Boys,55.79,2,Journey Thompson,Manor,55.07,154.22,108.86,165.56,428.64,Single-ply,SBD,M
Boys,55.79,3,Istvan Castilleja,Buda Hays,52.8,158.76,88.45,172.37,419.57,Single-ply,SBD,M
Boys,55.79,4,Bao Nguyen,Pflugerville,55.34,170.1,97.52,151.95,419.57,Single-ply,SBD,M
Boys,55.79,5,Aidan Cusack,Austin Lake Travis,54.61,142.88,79.38,147.42,369.68,Single-ply,SBD,M
Boys,55.79,6,Eli Edwards,Seguin,55.52,142.88,79.38,147.42,369.68,Single-ply,SBD,M
Boys,55.79,7,Rudy Pina,Del Valle,52.71,131.54,86.18,149.69,367.41,Single-ply,SBD,M
Boys,55.79,8,Cristian Villanueva,Kyle Lehman,55.52,117.93,99.79,145.15,362.87,Single-ply,SBD,M
Boys,55.79,9,Leonardo Costilla,Seguin,55.16,106.59,79.38,142.88,328.85,Single-ply,SBD,M
Boys,55.79,10,Adrian Martinez,Pflugerville Weiss,54.88,106.59,81.65,136.08,324.32,Single-ply,SBD,M
Boys,55.79,11,Canaan Casey,Seguin,55.79,102.06,47.63,120.2,269.89,Single-ply,SBD,M
Boys,55.79,12,Christian Cravens,Bastrop Cedar Creek,53.89,95.25,52.16,120.2,267.62,Single-ply,SBD,M
Boys,55.79,DQ,Devon Harris,Manor,55.52,,,,,Single-ply,SBD,M
Boys,59.87,1,Marc Anthony Govea-Gonzales,Del Valle,57.52,158.76,83.91,179.17,421.84,Single-ply,SBD,M
Boys,59.87,2,Aidan Flores,Seguin,58.97,151.95,79.38,165.56,396.89,Single-ply,SBD,M
Boys,59.87,3,Rolando Valenzuela,Kyle Lehman,59.51,136.08,90.72,167.83,394.63,Single-ply,SBD,M
Boys,59.87,4,Reese Janda,Seguin,57.97,147.42,86.18,142.88,376.48,Single-ply,SBD,M
Boys,59.87,5,Hayden Evans,Pflugerville,59.69,133.81,92.99,142.88,369.68,Single-ply,SBD,M
Boys,59.87,6,Gabe Driscoll,Del Valle,59.87,142.88,70.31,149.69,362.87,Single-ply,SBD,M
Boys,59.87,7,Nathaniel Gonzales,Lockhart,56.7,111.13,90.72,129.27,331.12,Single-ply,SBD,M
Boys,59.87,DQ,Ivan Venegas,Dripping Springs,59.42,,,,,Single-ply,SBD,M
Boys,67.13,1,Therrance Soto,San Marcos,63.14,181.44,106.59,213.19,501.22,Single-ply,SBD,M
Boys,67.13,2,Kiran Payton,Kyle Lehman,66.68,183.7,108.86,172.37,464.93,Single-ply,SBD,M
Boys,67.13,3,Declan Trevethan,Buda Hays,67.13,170.1,90.72,201.85,462.66,Single-ply,SBD,M
Boys,67.13,4,Kaleb Thomas,Buda Hays,66.77,165.56,106.59,181.44,453.59,Single-ply,SBD,M
Boys,67.13,5,Valentino Trevino,Seguin,61.87,158.76,95.25,163.29,417.3,Single-ply,SBD,M
Boys,67.13,6,Logan Pasderetz,Buda Hays,64.86,154.22,102.06,156.49,412.77,Single-ply,SBD,M
Boys,67.13,7,Jacob Rodriguez,Pflugerville Weiss,65.86,163.29,79.38,170.1,412.77,Single-ply,SBD,M
Boys,67.13,8,Alejandro Calderon,San Marcos,62.32,161.03,77.11,165.56,403.7,Single-ply,SBD,M
Boys,67.13,9,Joel Salazar,Seguin,65.77,142.88,81.65,167.83,392.36,Single-ply,SBD,M
Boys,67.13,10,Ben White,Bastrop Cedar Creek,66.77,113.4,77.11,183.7,374.21,Single-ply,SBD,M
Boys,67.13,11,Bryan Castro,Elgin,62.32,117.93,90.72,147.42,356.07,Single-ply,SBD,M
Boys,67.13,12,Jesus Guevara,Seguin,62.78,115.67,70.31,136.08,322.05,Single-ply,SBD,M
Boys,67.13,13,Taylor Stein,Luling,66.13,97.52,83.91,124.74,306.17,Single-ply,SBD,M
Boys,67.13,14,Nathan Brawner,Seguin,64.32,111.13,68.04,120.2,299.37,Single-ply,SBD,M
Boys,74.84,1,Juan Venegas,Dripping Springs,74.21,224.53,124.74,204.12,553.38,Single-ply,SBD,M
Boys,74.84,2,Christan Caballero,San Marcos,70.58,185.97,122.47,240.4,548.85,Single-ply,SBD,M
Boys,74.84,3,Matthew Reiff,Pflugerville,72.67,204.12,122.47,217.72,544.31,Single-ply,SBD,M
Boys,74.84,4,Jason Leal,Buda Hays,73.48,199.58,131.54,208.65,539.77,Single-ply,SBD,M
Boys,74.84,5,Ruben Jarmillio,Manor,74.57,190.51,111.13,204.12,505.76,Single-ply,SBD,M
Boys,74.84,6,Tony Palomino Cruz,Del Valle,71.94,174.63,124.74,176.9,476.27,Single-ply,SBD,M
Boys,74.84,7,Daniel Santana,San Marcos,67.59,188.24,104.33,179.17,471.74,Single-ply,SBD,M
Boys,74.84,8,Dylan Basham,San Marcos,74.21,161.03,111.13,192.78,464.93,Single-ply,SBD,M
Boys,74.84,9,Mekhi Kimble,Hutto,73.48,172.37,92.99,197.31,462.66,Single-ply,SBD,M
Boys,74.84,10,TJ Eldridge,Pflugerville Hendrickson,69.04,161.03,108.86,188.24,458.13,Single-ply,SBD,M
Boys,74.84,11,Vansh Gupta,Pflugerville,74.57,170.1,102.06,183.7,455.86,Single-ply,SBD,M
Boys,74.84,12,Josh Haro,Austin Lake Travis,73.94,161.03,88.45,183.7,433.18,Single-ply,SBD,M
Boys,74.84,13,Kevin Pham,Manor,71.94,154.22,102.06,172.37,428.64,Single-ply,SBD,M
Boys,74.84,14,Zane Bolding,Hutto,73.39,154.22,108.86,158.76,421.84,Single-ply,SBD,M
Boys,74.84,15,Tyler Miller,Austin Lake Travis,68.86,142.88,102.06,167.83,412.77,Single-ply,SBD,M
Boys,74.84,16,Ryan Wall,Georgetown East View,69.22,136.08,95.25,181.44,412.77,Single-ply,SBD,M
Boys,74.84,17,Abdias Castillo,Elgin,74.39,151.95,102.06,156.49,410.5,Single-ply,SBD,M
Boys,74.84,18,Mathew Luna,Seguin,73.66,149.69,90.72,161.03,401.43,Single-ply,SBD,M
Boys,74.84,19,Roberto Luna,Seguin,73.03,151.95,79.38,167.83,399.16,Single-ply,SBD,M
Boys,74.84,20,Angel Hernandez,Del Valle,71.4,142.88,88.45,163.29,394.63,Single-ply,SBD,M
Boys,74.84,21,Mason Ruhl,Seguin,73.57,138.35,90.72,156.49,385.55,Single-ply,SBD,M
Boys,74.84,22,Pedro Aguirre-Vargas,Del Valle,70.4,102.06,83.91,165.56,351.53,Single-ply,SBD,M
Boys,74.84,23,Ceaser Hernandez,Lockhart,74.57,142.88,72.57,131.54,347,Single-ply,SBD,M
Boys,74.84,24,Izaiah Gomez,Del Valle,71.03,120.2,74.84,145.15,340.19,Single-ply,SBD,M
Boys,74.84,25,Chance Hall,Del Valle,68.67,111.13,63.5,136.08,310.71,Single-ply,SBD,M
Boys,74.84,26,Gerome Gil,Seguin,69.49,111.13,72.57,113.4,297.1,Single-ply,SBD,M
Boys,74.84,DQ,Oscar Garza,Elgin,68.76,165.56,65.77,,,Single-ply,SBD,M
Boys,74.84,DQ,Juan Rios,Dripping Springs,72.3,272.16,,,,Single-ply,SBD,M
Boys,82.1,1,Josh Garza,Bastrop Cedar Creek,81.37,217.72,113.4,233.6,564.72,Single-ply,SBD,M
Boys,82.1,2,Isaiah Quinten-Jackson,Georgetown East View,76.93,195.04,127.01,222.26,544.31,Single-ply,SBD,M
Boys,82.1,3,Roman Anderson,Pflugerville Hendrickson,81.19,210.92,133.81,192.78,537.51,Single-ply,SBD,M
Boys,82.1,4,Marcus Oliva,Lockhart,76.57,183.7,142.88,201.85,528.44,Single-ply,SBD,M
Boys,82.1,5,Reggie Smith,Bastrop Cedar Creek,76.38,201.85,115.67,201.85,519.36,Single-ply,SBD,M
Boys,82.1,6,Christian Alvarez,San Marcos,76.11,192.78,117.93,197.31,508.02,Single-ply,SBD,M
Boys,82.1,7,Jason Iwabuchi,Buda Hays,80.56,179.17,113.4,204.12,496.68,Single-ply,SBD,M
Boys,82.1,8,Nicolas Williams,Buda Hays,75.39,199.58,92.99,188.24,480.81,Single-ply,SBD,M
Boys,82.1,9,John-Michael Mata,Seguin,77.56,170.1,97.52,183.7,451.32,Single-ply,SBD,M
Boys,82.1,10,Martin Aguado,Jarrell,80.65,151.95,122.47,170.1,444.52,Single-ply,SBD,M
Boys,82.1,11,Preston Hawthworne,Lockhart,81.28,165.56,102.06,174.63,442.25,Single-ply,SBD,M
Boys,82.1,12,Andrew Vargas,Del Valle,80.56,158.76,108.86,161.03,428.64,Single-ply,SBD,M
Boys,82.1,13,Mason Eeds,Lockhart,80.65,161.03,77.11,188.24,426.38,Single-ply,SBD,M
Boys,82.1,14,Michael Martinez,Seguin,79.74,172.37,88.45,163.29,424.11,Single-ply,SBD,M
Boys,82.1,15,Tony Garcia,Austin Lake Travis,82.1,158.76,88.45,158.76,405.97,Single-ply,SBD,M
Boys,82.1,16,Brock Bolinger,Dripping Springs,77.66,151.95,106.59,136.08,394.63,Single-ply,SBD,M
Boys,82.1,17,Jacob Garcia,Austin Lake Travis,76.66,113.4,97.52,170.1,381.02,Single-ply,SBD,M
Boys,82.1,18,Alan Romero,Del Valle,78.65,136.08,79.38,158.76,374.21,Single-ply,SBD,M
Boys,82.1,19,Josh Allen,Del Valle,75.93,124.74,74.84,154.22,353.8,Single-ply,SBD,M
Boys,82.1,20,Santi Herrera,Seguin,79.74,117.93,88.45,136.08,342.46,Single-ply,SBD,M
Boys,82.1,DQ,Dominik Souvannasy,Elgin,76.93,,,,,Single-ply,SBD,M
Boys,89.81,1,Devon Soto,Seguin,87.82,254.01,183.7,215.46,653.17,Single-ply,SBD,M
Boys,89.81,2,Chris Aguirre,Buda Hays,88.54,256.28,138.35,240.4,635.03,Single-ply,SBD,M
Boys,89.81,3,Courtney Lee,Manor,88.72,219.99,124.74,249.48,594.21,Single-ply,SBD,M
Boys,89.81,4,Chanse Hernandez,Seguin,87.36,229.06,158.76,197.31,585.13,Single-ply,SBD,M
Boys,89.81,5,James McDonald,Manor,84.28,199.58,115.67,226.8,542.04,Single-ply,SBD,M
Boys,89.81,6,Koby West,Dripping Springs,88.09,210.92,127.01,201.85,539.77,Single-ply,SBD,M
Boys,89.81,7,Jonathan Cervantes,Elgin,87.09,183.7,111.13,183.7,478.54,Single-ply,SBD,M
Boys,89.81,8,Avian Veals,Elgin,88.72,183.7,104.33,183.7,471.74,Single-ply,SBD,M
Boys,89.81,9,Camren Willwerth,Del Valle,84.91,172.37,99.79,181.44,453.59,Single-ply,SBD,M
Boys,89.81,10,Braden Bujnoch,Luling,88.27,161.03,106.59,176.9,444.52,Single-ply,SBD,M
Boys,89.81,11,Cj Troutman,Georgetown East View,89.63,156.49,113.4,158.76,428.64,Single-ply,SBD,M
Boys,89.81,12,Carson Moseley,Elgin,82.83,102.06,58.97,127.01,288.03,Single-ply,SBD,M
Boys,99.79,1,Jace Chambers,Pflugerville Hendrickson,98.07,235.87,142.88,265.35,644.1,Single-ply,SBD,M
Boys,99.79,2,Cade Edwards,Bastrop Cedar Creek,94.08,240.4,129.27,226.8,596.47,Single-ply,SBD,M
Boys,99.79,3,Adam Palomares,Buda Hays,99.06,242.67,138.35,215.46,596.47,Single-ply,SBD,M
Boys,99.79,4,Cirlio Gonzalez,Manor,90.81,197.31,131.54,238.14,566.99,Single-ply,SBD,M
Boys,99.79,5,Javier Preciado,Hutto,91.35,195.04,129.27,210.92,535.24,Single-ply,SBD,M
Boys,99.79,6,Belema Dennis,Del Valle,90.17,188.24,122.47,213.19,523.9,Single-ply,SBD,M
Boys,99.79,7,Zachary Perez,San Marcos,98.16,201.85,124.74,183.7,510.29,Single-ply,SBD,M
Boys,99.79,8,Nathan Erickson,Dripping Springs,95.07,183.7,124.74,165.56,474,Single-ply,SBD,M
Boys,99.79,9,Donte Harrison,Pflugerville Weiss,90.54,165.56,102.06,161.03,428.64,Single-ply,SBD,M
Boys,99.79,10,Ricardo Segura,Pflugerville Weiss,95.53,133.81,102.06,149.69,385.55,Single-ply,SBD,M
Boys,99.79,11,Diego Sosa,Lockhart,92.71,124.74,79.38,131.54,335.66,Single-ply,SBD,M
Boys,99.79,12,Juan Garcia,Seguin,94.62,117.93,70.31,145.15,333.39,Single-ply,SBD,M
Boys,99.79,DQ,Michael Friberg,Pflugerville,99.06,,,,,Single-ply,SBD,M
Boys,99.79,DQ,Brian Ortiz,Del Valle,90.26,151.95,113.4,,,Single-ply,SBD,M
Boys,99.79,DQ,Adam Vineyard,Georgetown East View,99.06,,,,,Single-ply,SBD,M
Boys,99.79,DQ,Brandon Rangel,San Marcos,99.79,215.46,129.27,,,Single-ply,SBD,M
Boys,99.79,DQ,Samuel Onyejiaka,Pflugerville,97.89,,,,,Single-ply,SBD,M
Boys,109.77,1,Jordan Hammonds,Kyle Lehman,107.86,272.16,154.22,242.67,669.05,Single-ply,SBD,M
Boys,109.77,2,Harley Franklin,Elgin,103.69,226.8,129.27,267.62,623.69,Single-ply,SBD,M
Boys,109.77,3,David Sillero,Lockhart,107.77,226.8,167.83,210.92,605.55,Single-ply,SBD,M
Boys,109.77,4,John Sanchez,San Marcos,107.41,213.19,138.35,219.99,571.53,Single-ply,SBD,M
Boys,109.77,5,Jaime Guerra,Lockhart,108.59,215.46,142.88,195.04,553.38,Single-ply,SBD,M
Boys,109.77,6,Willy Rangel,Bastrop Cedar Creek,104.87,217.72,129.27,190.51,537.51,Single-ply,SBD,M
Boys,109.77,7,Diego Hipolito,Hutto,108.5,185.97,90.72,206.38,483.08,Single-ply,SBD,M
Boys,109.77,8,Seth Kirklin,Georgetown East View,101.79,185.97,108.86,174.63,469.47,Single-ply,SBD,M
Boys,109.77,9,Michael Tanner,Austin Lake Travis,105.23,167.83,111.13,190.51,469.47,Single-ply,SBD,M
Boys,109.77,10,David Amaro,Luling,100.33,129.27,79.38,149.69,358.34,Single-ply,SBD,M
Boys,109.77,DQ,Ty Thorton,Manor,107.05,183.7,120.2,,,Single-ply,SBD,M
Boys,109.77,DQ,Miguel Vivero,Georgetown East View,105.87,,,,,Single-ply,SBD,M
Boys,109.77,DQ,Vincent Ume-Ezeoke,Pflugerville,104.05,,,,,Single-ply,SBD,M
Boys,124.74,1,Steven Ansumana,Dripping Springs,111.4,224.53,142.88,272.16,639.57,Single-ply,SBD,M
Boys,124.74,2,Azreael Valle,Luling,124.28,251.74,145.15,213.19,610.08,Single-ply,SBD,M
Boys,124.74,3,Thomas Clawson,Jarrell,118.75,210.92,147.42,213.19,571.53,Single-ply,SBD,M
Boys,124.74,4,Cody Beran,Del Valle,114.94,199.58,129.27,192.78,521.63,Single-ply,SBD,M
Boys,124.74,5,Dawson Weiss,Austin Lake Travis,117.03,183.7,136.08,190.51,510.29,Single-ply,SBD,M
Boys,124.74,6,Todd Moon,Austin Lake Travis,114.31,192.78,113.4,195.04,501.22,Single-ply,SBD,M
Boys,124.74,7,Josiah Luna,Seguin,111.22,192.78,115.67,183.7,492.15,Single-ply,SBD,M
Boys,124.74,8,Raul Saucedo,Del Valle,122.2,183.7,113.4,156.49,453.59,Single-ply,SBD,M
Boys,124.74,9,Nic Bidstrup,Austin Lake Travis,115.21,158.76,124.74,156.49,439.98,Single-ply,SBD,M
Boys,124.74,10,Seth Aguirre,Hutto,114.49,163.29,83.91,185.97,433.18,Single-ply,SBD,M
Boys,124.74,11,Jacob Guerrero,Del Valle,115.48,154.22,90.72,163.29,408.23,Single-ply,SBD,M
Boys,124.74,12,Sergio Trinidad,Hutto,114.4,147.42,79.38,156.49,383.29,Single-ply,SBD,M
Boys,124.74,DQ,Cole Smith #2,Georgetown East View,116.21,195.04,,,,Single-ply,SBD,M
Boys,124.74+,1,Jordan Hood,Elgin,141.34,301.64,183.7,272.16,757.5,Single-ply,SBD,M
Boys,124.74+,2,Jonathyn Murry,Luling,150.86,310.71,181.44,254.01,746.16,Single-ply,SBD,M
Boys,124.74+,3,Shaylon Roberts,Pflugerville Hendrickson,178.72,272.16,204.12,226.8,703.07,Single-ply,SBD,M
Boys,124.74+,4,Isaiah Samaripa,Lockhart,159.3,281.23,170.1,244.94,696.26,Single-ply,SBD,M
Boys,124.74+,5,Petr Svoboda,Pflugerville Hendrickson,144.51,238.14,149.69,238.14,625.96,Single-ply,SBD,M
Boys,124.74+,6,Mark Velasquez,San Marcos,152.86,226.8,129.27,224.53,580.6,Single-ply,SBD,M
Boys,124.74+,7,John Rebolloso,Elgin,126.55,231.33,113.4,183.7,528.44,Single-ply,SBD,M
Boys,124.74+,8,Daniel Urquiza,Del Valle,131.54,183.7,113.4,224.53,521.63,Single-ply,SBD,M
Boys,124.74+,9,Justin Pierson,Manor,140.16,172.37,127.01,210.92,510.29,Single-ply,SBD,M
Boys,124.74+,10,Jacob Cano,Del Valle,133.81,167.83,102.06,172.37,442.25,Single-ply,SBD,M
Boys,124.74+,DQ,Michael Rodriguez,Georgetown East View,138.35,,,,,Single-ply,SBD,M
Boys,124.74+,DQ,Chris Julson,Bastrop Cedar Creek,133.9,,,,,Single-ply,SBD,M
Boys,,NS,Brian George,Bastrop Cedar Creek,,,,,,Single-ply,SBD,M
Boys,,NS,Hudson Sarver,Austin Lake Travis,,,,,,Single-ply,SBD,M
Boys,,NS,Britton Carraway,Austin Lake Travis,,,,,,Single-ply,SBD,M
Boys,,NS,Will Solomon,Bastrop Cedar Creek,,,,,,Single-ply,SBD,M
Boys,,NS,Jacob Turner,Bastrop Cedar Creek,,,,,,Single-ply,SBD,M
Boys,,NS,Joey Gonzalez,Georgetown East View,,,,,,Single-ply,SBD,M
Boys,,NS,Gabe Vasquez,Del Valle,,,,,,Single-ply,SBD,M
Boys,,NS,Albert Castrol,Del Valle,,,,,,Single-ply,SBD,M
Boys,,NS,Jorge Mondragon,Del Valle,,,,,,Single-ply,SBD,M
Boys,,NS,Armando Barron,Del Valle,,,,,,Single-ply,SBD,M
Boys,,NS,Tanner Deleon,Elgin,,,,,,Single-ply,SBD,M
Boys,,NS,Travis Taylor,Hutto,,,,,,Single-ply,SBD,M
Boys,,NS,Wyatt Smith,Seguin,,,,,,Single-ply,SBD,M
Boys,,NS,Wiktor Wasiewicz,Seguin,,,,,,Single-ply,SBD,M
Boys,,NS,Caleb Sammons,Georgetown East View,,,,,,Single-ply,SBD,M
Boys,,NS,Grayson Marrs,Pflugerville,,,,,,Single-ply,SBD,M
Boys,,NS,Michael Gonzales,Lockhart,,,,,,Single-ply,SBD,M
Boys,,NS,Jesau Batres,Lockhart,,,,,,Single-ply,SBD,M
Boys,,NS,Tyler Carnes,Hutto,,,,,,Single-ply,SBD,M
Boys,,NS,Brock Bujonch,Hutto,,,,,,Single-ply,SBD,M
Boys,,NS,Carlos Esquivel,Manor,,,,,,Single-ply,SBD,M
Boys,,NS,Cristobal Arredondo,Jarrell,,,,,,Single-ply,SBD,M
Boys,,NS,Brandon Garcia,Buda Hays,,,,,,Single-ply,SBD,M
Boys,,NS,Charles Guerra,Jarrell,,,,,,Single-ply,SBD,M
Boys,,NS,Alex Hernandez,Jarrell,,,,,,Single-ply,SBD,M
