Place,Sex,Name,CyrillicName,BodyweightKg,Squat1Kg,Squat2Kg,Squat3Kg,Best3SquatKg,Squat4Kg,Bench1Kg,Bench2Kg,Bench3Kg,Best3BenchKg,Bench4Kg,Deadlift1Kg,Deadlift2Kg,Deadlift3Kg,Best3DeadliftKg,Deadlift4Kg,TotalKg,WeightClassKg,Event,Equipment,Tested,Division,Age,BirthDate
1,F,Angelina Kratko,Ангелина Кратько,56,30,-35,35,35,,22.5,-27.5,-27.5,22.5,,55,-65,70,70,,127.5,56,SBD,Wraps,Yes,Amateur Girls 14-16,14,2004-07-27
1,F,Natalya Velichko,Наталья Величко,54.4,110,120,125,125,,50,55,57.5,57.5,,130,140,150,150,,332.5,56,SBD,Wraps,Yes,Amateur Open,37,1981-10-19
2,F,Kseniya Oskina,Ксения Оськина,55.7,97.5,-102.5,105,105,,55,60,-62.5,60,,120,130,135,135,,300,56,SBD,Wraps,Yes,Amateur Open,22,1995-12-20
1,F,Laura Totorkulova,Лаура Тоторкулова,58.8,75,80,-85,80,,40,45,47.5,47.5,,80,90,-100,90,,217.5,60,SBD,Wraps,Yes,Amateur Girls 14-16,14,2004-12-05
1,F,Sakhayana Zakharova,Сахаяна Захарова,59.8,100,-110,-110,100,,55,-60,-60,55,,100,-115,-115,100,,255,60,SBD,Wraps,Yes,Amateur Juniors,23,1995-10-29
1,F,Karina Azaryan,Карина Азарян,58,117.5,122.5,-127.5,122.5,,57.5,62.5,-65,62.5,,157.5,170,175,175,,360,60,SBD,Wraps,Yes,Amateur Open,29,1989-10-23
2,F,Valentina Vyaznikova,Валентина Вязникова,59.5,75,85,-95,85,,40,47.5,52.5,52.5,,100,110,122.5,122.5,,260,60,SBD,Wraps,Yes,Amateur Open,30,1988-08-21
3,F,Sakhayana Zakharova,Сахаяна Захарова,59.8,100,-110,-110,100,,55,-60,-60,55,,100,-115,-115,100,,255,60,SBD,Wraps,Yes,Amateur Open,23,1995-10-29
1,F,Elena Belousova,Елена Белоусова,67.5,-95,95,-110,95,,45,50,55,55,,110,120,130,130,,280,67.5,SBD,Wraps,Yes,Amateur Open,42,1976-08-01
DQ,F,Irina Turchenko,Ирина Турченко,75,97.5,102.5,105,105,,55,57.5,60,60,,-115,-115,-115,,,,75,SBD,Wraps,Yes,Amateur Open,28,1990-08-12
1,M,Artur Abdullaev,Артур Абдуллаев,55.6,95,105,112.5,112.5,,67.5,75,-82.5,75,,-120,120,-130,120,,307.5,56,SBD,Wraps,Yes,Amateur Teen 17-19,17,2001-06-09
1,M,Sergey Anokhin,Сергей Анохин,64.3,115,-125,-125,115,,80,-85,85,85,,147.5,157.5,-160,157.5,,357.5,67.5,SBD,Wraps,Yes,Amateur Teen 17-19,18,2000-01-01
1,M,Daniil Sheverdin,Даниил Шевердин,75,72.5,80,92.5,92.5,,50,55,57.5,57.5,,102.5,110,117.5,117.5,,267.5,75,SBD,Wraps,Yes,Amateur Teen 14-16,14,2004-05-05
1,M,Vladimir Serga,Владимир Серга,74.5,150,162.5,,162.5,,-100,105,-112.5,105,,192.5,207.5,-212.5,207.5,,475,75,SBD,Wraps,Yes,Amateur Teen 17-19,17,2001-01-01
2,M,Vyacheslav Kumanin,Вячеслав Куманин,70,140,150,160,160,,90,100,-110,100,,170,185,-210,185,,445,75,SBD,Wraps,Yes,Amateur Teen 17-19,17,2001-07-05
1,M,Andrey Pichugin,Андрей Пичугин,75,100,-110,110,110,,85,90,95,95,,-130,130,145,145,,350,75,SBD,Wraps,Yes,Amateur Juniors,23,1995-06-14
1,M,Ernest Solomka,Эрнест Соломка,81.7,130,-137.5,-137.5,130,,77.5,82.5,-85,82.5,,-150,150,160,160,,372.5,82.5,SBD,Wraps,Yes,Amateur Teen 14-16,15,2003-07-30
1,M,Arseniy Kechkin,Арсений Кечкин,82.5,170,185,190,190,,152.5,160,167.5,167.5,,210,220,225,225,,582.5,82.5,SBD,Wraps,Yes,Amateur Open,29,1989-02-28
2,M,Arsen Shikhshabekov,Арсен Шихшабеков,82.5,-160,-170,170,170,,125,130,140,140,,-180,-190,190,190,,500,82.5,SBD,Wraps,Yes,Amateur Open,30,1988-11-30
3,M,Magomed Kurbanov,Магомед Курбанов,80.1,150,-160,-160,150,,100,105,-107.5,105,,220,-225,-225,220,,475,82.5,SBD,Wraps,Yes,Amateur Open,24,1994-06-03
1,M,Nikolay Novikov,Николай Новиков,82.5,140,-150,150,150,,65,70,-72.5,70,,170,180,185,185,,405,82.5,SBD,Wraps,Yes,Amateur Masters 70-79,71,1947-05-21
1,M,Vladislav Fam,Владислав Фам,90,195,205,-220,205,,120,125,-130,125,,247.5,-262.5,-262.5,247.5,,577.5,90,SBD,Wraps,Yes,Amateur Teen 17-19,19,1999-01-01
2,M,Vladislav Tuaev,Владислав Туаев,88.4,162.5,170,180,180,,100,105,-107.5,105,,200,207.5,212.5,212.5,,497.5,90,SBD,Wraps,Yes,Amateur Teen 17-19,18,2000-02-06
1,M,Maksim Arestov,Максим Арестов,86.3,215,227.5,235,235,,137.5,145,-150,145,,240,260,-270,260,,640,90,SBD,Wraps,Yes,Amateur Open,27,1991-04-02
2,M,Imamutdin Ataev,Имамутдин Атаев,89.8,150,160,-165,160,,-110,110,122.5,122.5,,160,180,200,200,,482.5,90,SBD,Wraps,Yes,Amateur Open,30,1988-10-12
1,M,Egor Shatov,Егор Шатов,96.8,130,-137.5,-140,130,,87.5,95,100,100,,155,-170,-175,155,,385,100,SBD,Wraps,Yes,Amateur Teen 14-16,16,2002-04-03
1,M,Stanislav Bushman,Станислав Бушман,97,215,225,235,235,,150,160,165,165,,235,247.5,-252.5,247.5,,647.5,100,SBD,Wraps,Yes,Amateur Open,37,1981-10-31
2,M,Arsen Mirzoev,Арсен Мирзоев,99.3,200,210,-215,210,,157.5,-162.5,162.5,162.5,,210,220,-230,220,,592.5,100,SBD,Wraps,Yes,Amateur Open,39,1979-08-31
3,M,Kerim Mazanaev,Керим Мазанаев,100,190,200,-210,200,,-140,150,-152.5,150,,230,-240,-240,230,,580,100,SBD,Wraps,Yes,Amateur Open,36,1982-02-28
4,M,Evgeniy Semisalov,Евгений Семисалов,96.1,190,-210,-210,190,,145,152.5,157.5,157.5,,205,215,220,220,,567.5,100,SBD,Wraps,Yes,Amateur Open,28,1990-10-12
5,M,Sergey Nikolaychuk,Сергей Николайчук,99.3,185,-192.5,-195,185,,135,142.5,-145,142.5,,200,210,220,220,,547.5,100,SBD,Wraps,Yes,Amateur Open,33,1985-05-26
1,M,Rustam Tumgoev,Рустам Тумгоев,101.9,-205,-215,220,220,,155,165,-172.5,165,,220,240,250,250,,635,110,SBD,Wraps,Yes,Amateur Open,28,1989-12-13
2,M,Magomedamin Israpilov,Магомедамин Исрапилов,109.6,240,,,240,,170,,,170,,200,-210,,200,,610,110,SBD,Wraps,Yes,Amateur Open,43,1975-05-03
3,M,Taulan Totorkulov,Таулан Тоторкулов,105.3,145,150,-155,150,,110,115,120,120,,180,190,200,200,,470,110,SBD,Wraps,Yes,Amateur Open,33,1985-10-18
1,M,Magomedamin Israpilov,Магомедамин Исрапилов,109.6,240,,,240,,160,170,-175,170,,200,-210,,200,,610,110,SBD,Wraps,Yes,Amateur Masters 40-49,43,1975-05-03
1,M,Aleksandr Ponomarenko,Александр Пономаренко,124,260,280,290,290,,140,150,-155,150,,247.5,260,-270,260,,700,125,SBD,Wraps,Yes,Amateur Open,35,1983-11-05
2,M,Magomed Khurshilov,Магомед Хуршилов,113.7,180,200,-210,200,,130,-140,,130,,240,250,-260,250,,580,125,SBD,Wraps,Yes,Amateur Open,38,1980-02-14
1,M,Zaur Totorkulov,Заур Тоторкулов,139.2,245,255,260,260,,160,165,,165,,265,282.5,,282.5,,707.5,140,SBD,Wraps,Yes,Amateur Open,39,1979-08-03
1,F,Dzhenet Bammatkhanova,Дженет Бамматханова,65,110,120,130,130,,55,60,65,65,,110,125,140,140,,335,67.5,SBD,Wraps,No,Pro Open,30,1988-02-19
1,F,Anna Rodnina,Анна Роднина,79,120,130,-142.5,130,,95,-100,-100,95,,170,-175,,170,,395,82.5,SBD,Wraps,No,Pro Open,34,1984-04-28
1,M,Islam Ramazanov,Ислам Рамазанов,82.5,240,255,265,265,,185,192.5,197.5,197.5,,270,285,295,295,,757.5,82.5,SBD,Wraps,No,Pro Open,27,1991-05-01
DQ,M,Magomed Matsuev,Магомед Мацуев,88.9,260,270,-280,270,,-190,-190,-190,,,,,,,,,90,SBD,Wraps,No,Pro Open,30,1988-01-27
1,M,Ali Isakov,Али Исаков,98.7,265,-272.5,-272.5,265,,180,187.5,-192.5,187.5,,275,-290,-290,275,,727.5,100,SBD,Wraps,No,Pro Open,29,1989-07-28
2,M,Teymuraz Chikovani,Теймураз Чиковани,98.1,205,220,-230,220,,180,190,-195,190,,240,-272.5,,240,,650,100,SBD,Wraps,No,Pro Open,27,1991-10-15
3,M,Albert Pidanov,Альберт Пиданов,98.8,215,230,235,235,,152.5,160,,160,,225,240,250,250,,645,100,SBD,Wraps,No,Pro Open,25,1993-03-15
DQ,M,Gadzhi Ragimov,Гаджи Рагимов,99.7,270,-285,-285,270,,190,-200,-202.5,190,,-280,,,,,,100,SBD,Wraps,No,Pro Open,28,1989-12-13
1,M,Sergey Zhokhov,Сергей Жохов,102.6,295,310,-315,310,,212.5,217.5,-220,217.5,,315,330,335,335,,862.5,110,SBD,Wraps,No,Pro Open,31,1987-03-04
2,M,Dmitriy Kuchur,Дмитрий Кучур,109,240,250,260,260,,170,180,187.5,187.5,,260,275,-280,275,,722.5,110,SBD,Wraps,No,Pro Open,32,1986-01-20
3,M,Viktor Zhurin,Виктор Журин,109,-270,270,-280,270,,-165,165,175,175,,-255,-260,270,270,,715,110,SBD,Wraps,No,Pro Open,24,1994-03-08
4,M,Magomedamin Israpilov,Магомедамин Исрапилов,109.6,240,,,240,,160,170,-175,170,,200,-210,,200,,610,110,SBD,Wraps,No,Pro Open,43,1975-05-03
1,M,Magomedamin Israpilov,Магомедамин Исрапилов,109.6,240,,,240,,160,170,-175,170,,200,-210,,200,,610,110,SBD,Wraps,No,Pro Masters 40-49,43,1975-05-03
1,M,Kirill Gulevskiy,Кирилл Гулевский,139.7,310,325,330,330,,185,192.5,195,195,,325,340,-350,340,,865,140,SBD,Wraps,No,Pro Open,31,1987-10-07
1,M,Vladimir Bobryashov,Владимир Бобряшов,145.9,-230,230,-250,230,,200,210,217.5,217.5,,230,257.5,265,265,,712.5,140+,SBD,Wraps,No,Pro Open,29,1988-12-22
1,F,Laura Totorkulova,Лаура Тоторкулова,58.8,75,80,-85,80,,40,45,47.5,47.5,,80,90,-100,90,,217.5,60,SBD,Wraps,Yes,Amateur Girls 14-16,14,2004-12-05
1,F,Marina Chersheeva,Марина Чершеева,67,130,140,,140,,62.5,65,-67.5,65,,147.5,160,-165,160,,365,67.5,SBD,Wraps,Yes,Amateur Open,28,1990-03-02
2,F,Karina Bilimikhova,Карина Билимихова,66.5,125,135,-140,135,,67.5,72.5,-77.5,72.5,,132.5,142.5,155,155,,362.5,67.5,SBD,Wraps,Yes,Amateur Open,30,1988-06-14
1,M,Sergey Semyonov,Сергей Семёнов,81.9,-200,-210,210,210,,110,115,,115,,210,217.5,225,225,,550,82.5,SBD,Wraps,Yes,Amateur Open,26,1992-06-22
1,M,Evgeniy Penkin,Евгений Пенкин,89.8,180,-190,-200,180,,100,107.5,-112.5,107.5,,180,-190,195,195,,482.5,90,SBD,Wraps,Yes,Amateur Open,33,1985-05-26
1,M,Roman Tertyshnyy,Роман Тертышный,98.9,-290,290,-305,290,,162.5,167.5,-172.5,167.5,,247.5,275,-282.5,275,,732.5,100,SBD,Wraps,Yes,Amateur Open,31,1987-09-09
2,M,Feliks Kasimov,Феликс Касимов,100,-260,-260,260,260,,170,180,182.5,182.5,,270,290,-300,290,,732.5,100,SBD,Wraps,Yes,Amateur Open,25,1993-03-29
3,M,Sergey Eremenko,Сергей Еременко,97,185,200,-205,200,,120,130,140,140,,195,205,-210,205,,545,100,SBD,Wraps,Yes,Amateur Open,34,1984-05-22
1,M,Aleksandr Pakhuchiy,Александр Пахучий,108.5,280,-310,-310,280,,190,205,-215,205,,280,300,315,315,,800,110,SBD,Wraps,Yes,Amateur Open,40,1978-04-24
2,M,Magomedamin Israpilov,Магомедамин Исрапилов,109.6,240,250,260,260,,160,170,-175,170,,200,-210,,200,,630,110,SBD,Wraps,Yes,Amateur Open,43,1975-05-03
3,M,Taulan Totorkulov,Таулан Тоторкулов,105.3,145,150,-155,150,,110,115,120,120,,180,190,200,200,,470,110,SBD,Wraps,Yes,Amateur Open,33,1985-10-18
1,M,Magomedamin Israpilov,Магомедамин Исрапилов,109.6,240,250,260,260,,160,170,-175,170,,200,-210,,200,,630,110,SBD,Wraps,Yes,Amateur Masters 40-49,43,1975-05-03
1,M,Zaur Totorkulov,Заур Тоторкулов,139.2,245,255,260,260,,160,165,,165,,265,282.5,,282.5,,707.5,140,SBD,Wraps,Yes,Amateur Open,39,1979-08-03
1,M,Andrey Ilchenko,Андрей Ильченко,81.3,260,267.5,275,275,,160,170,-175.5,170,,-277.5,277.5,280,280,,725,82.5,SBD,Wraps,No,Pro Juniors,20,1998-01-06
1,M,Andrey Ilchenko,Андрей Ильченко,81.3,260,267.5,275,275,,160,170,-175.5,170,,-277.5,277.5,280,280,,725,82.5,SBD,Wraps,No,Pro Open,20,1998-01-06
DQ,M,Yuriy Goncharov,Юрий Гончаров,81.9,-200,-220,-220,,,,,,,,,,,,,,82.5,SBD,Wraps,No,Pro Open,34,1984-10-14
DQ,M,Maksim Gusakov,Максим Гусаков,82.1,-225,-225,-235,,,,,,,,,,,,,,82.5,SBD,Wraps,No,Pro Open,28,1990-03-17
1,M,Artyom Krylov,Артём Крылов,89.7,-300,-310,310,310,,170,182.5,-187.5,182.5,,290,305,-322.5,305,,797.5,90,SBD,Wraps,No,Pro Open,28,1990-09-03
2,M,Dmitriy Sukhinin,Дмитрий Сухинин,85.8,-275,275,-285,275,,177.5,185,190,190,,280,290,-300,290,,755,90,SBD,Wraps,No,Pro Open,27,1991-07-06
3,M,Aleksey Anosenko,Алексей Аносенко,87,180,-190,190,190,,-130,130,140,140,,220,232.5,-240,232.5,,562.5,90,SBD,Wraps,No,Pro Open,27,1991-03-19
1,M,Artur Arzumanyan,Артур Арзуманян,95,250,-260,-260,250,,-140,140,-145,140,,290,300,-312.5,300,,690,100,SBD,Wraps,No,Pro Open,18,1999-12-28
2,M,Vasiliy Smolich,Василий Смолич,96.8,-240,250,-257.5,250,,175,-180,-180,175,,255,-262.5,-262.5,255,,680,100,SBD,Wraps,No,Pro Open,35,1983-11-02
1,M,Rustam Akhmatov,Рустам Ахматов,108,215,225,235,235,,167.5,175,-180,175,,230,245,255,255,,665,110,SBD,Wraps,No,Pro Teen 17-19,19,1999-07-02
1,M,Sergey Zhokhov,Сергей Жохов,102.6,310,,,310,,212.5,217.5,-220,217.5,,315,330,335,335,,862.5,110,SBD,Wraps,No,Pro Open,31,1987-03-04
2,M,Andrey Kamardin,Андрей Камардин,107.8,290,310,-320,310,,190,210,220,220,,280,300,-310,300,,830,110,SBD,Wraps,No,Pro Open,25,1993-09-09
3,M,Roman Rodnin,Роман Роднин,102.6,-260,270,280,280,,150,155,-160,155,,275,282.5,,282.5,,717.5,110,SBD,Wraps,No,Pro Open,43,1975-10-07
4,M,Magomedamin Israpilov,Магомедамин Исрапилов,109.6,240,250,260,260,,160,170,-175,170,,200,-210,,200,,630,110,SBD,Wraps,No,Pro Open,43,1975-05-03
1,M,Roman Rodnin,Роман Роднин,102.6,-260,270,280,280,,150,155,-160,155,,275,282.5,,282.5,,717.5,110,SBD,Wraps,No,Pro Masters 40-49,43,1975-10-07
2,M,Magomedamin Israpilov,Магомедамин Исрапилов,109.6,240,250,260,260,,160,170,-175,170,,200,-210,,200,,630,110,SBD,Wraps,No,Pro Masters 40-49,43,1975-05-03
1,F,Natalya Bogdanova,Наталья Богданова,53.9,,,,,,57.5,-62.5,-62.5,57.5,,,,,,,57.5,56,B,Raw,Yes,Amateur Open,29,1989-05-12
1,F,Laura Totorkulova,Лаура Тоторкулова,58.8,,,,,,40,45,47.5,47.5,,,,,,,47.5,60,B,Raw,Yes,Amateur Girls 14-16,14,2004-12-05
1,F,Irina Nastusenko,Ирина Настусенко,59.7,,,,,,30,35,40,40,,,,,,,40,60,B,Raw,Yes,Amateur Open,29,1989-06-15
1,F,Anna Chervyakova,Анна Червякова,66.2,,,,,,45,-47.5,-47.5,45,,,,,,,45,67.5,B,Raw,Yes,Amateur Open,35,1983-08-26
1,F,Irina Turchenko,Ирина Турченко,75,,,,,,55,57.5,60,60,,,,,,,60,75,B,Raw,Yes,Amateur Open,28,1990-08-12
1,M,Artur Abdullaev,Артур Абдуллаев,55.6,,,,,,67.5,75,-82.5,75,,,,,,,75,56,B,Raw,Yes,Amateur Teen 17-19,17,2001-06-09
1,M,Yosif Mamedov,Ёсиф Мамедов,60,,,,,,95,105,,105,,,,,,,105,60,B,Raw,Yes,Amateur Open,25,1992-12-27
1,M,Stelyan Malta,Стельян Малта,66.8,,,,,,-107.5,-107.5,107.5,107.5,,,,,,,107.5,67.5,B,Raw,Yes,Amateur Juniors,23,1995-04-28
1,M,Valeriy Churilov,Валерий Чурилов,72.1,,,,,,120,-135,-135,120,,,,,,,120,75,B,Raw,Yes,Amateur Teen 17-19,18,2000-03-09
1,M,Andrey Pichugin,Андрей Пичугин,75,,,,,,85,90,95,95,,,,,,,95,75,B,Raw,Yes,Amateur Juniors,23,1995-06-14
1,M,Magomed Ireziev,Магомед Ирезиев,73,,,,,,150,-155,160,160,,,,,,,160,75,B,Raw,Yes,Amateur Open,31,1987-04-25
2,M,Goshgar Valiev,Гошгар Валиев,71,,,,,,130,-135,-135,130,,,,,,,130,75,B,Raw,Yes,Amateur Open,29,1989-05-21
3,M,Vladimir Mironov,Владимир Миронов,74,,,,,,107.5,112.5,117.5,117.5,,,,,,,117.5,75,B,Raw,Yes,Amateur Open,25,1993-09-30
1,M,Vladislav Obryvko,Владислав Обрывко,80.7,,,,,,115,122.5,127.5,127.5,,,,,,,127.5,82.5,B,Raw,Yes,Amateur Juniors,20,1998-06-09
1,M,Arseniy Kechkin,Арсений Кечкин,82.5,,,,,,152.5,160,167.5,167.5,,,,,,,167.5,82.5,B,Raw,Yes,Amateur Open,29,1989-02-28
2,M,Vrezh Melkumyan,Вреж Мелкумян,80.1,,,,,,145,-147.5,147.5,147.5,,,,,,,147.5,82.5,B,Raw,Yes,Amateur Open,29,1989-01-09
3,M,Denis Lazarev,Денис Лазарев,82.5,,,,,,140,145,-150,145,,,,,,,145,82.5,B,Raw,Yes,Amateur Open,30,1988-08-01
4,M,Arsen Shikhshabekov,Арсен Шихшабеков,82.5,,,,,,125,130,140,140,,,,,,,140,82.5,B,Raw,Yes,Amateur Open,30,1988-11-30
5,M,Kantemir Mussaev,Кантемир Муссаев,79.4,,,,,,130,-140,-140,130,,,,,,,130,82.5,B,Raw,Yes,Amateur Open,37,1981-05-21
6,M,Yakov Khiteev,Яков Хитеев,80.7,,,,,,95,102.5,105,105,,,,,,,105,82.5,B,Raw,Yes,Amateur Open,24,1994-05-09
1,M,Gleb Sorokin,Глеб Сорокин,87.2,,,,,,67.5,72.5,-75,72.5,,,,,,,72.5,90,B,Raw,Yes,Amateur Teen 14-16,13,2005-05-23
1,M,Kirill Filipenko,Кирилл Филипенко,98.7,,,,,,162.5,170,-185,170,,,,,,,170,100,B,Raw,Yes,Amateur Juniors,21,1997-10-03
1,M,Beglar Gadzhikurbanov,Беглар Гаджикурбанов,99,,,,,,190,-200,-200,190,,,,,,,190,100,B,Raw,Yes,Amateur Open,37,1981-01-30
2,M,Valeriy Shibzukhov,Валерий Шибзухов,97,,,,,,162.5,170,175,175,,,,,,,175,100,B,Raw,Yes,Amateur Open,23,1994-12-18
3,M,Arsen Mirzoev,Арсен Мирзоев,99.3,,,,,,157.5,-162.5,162.5,162.5,,,,,,,162.5,100,B,Raw,Yes,Amateur Open,39,1979-08-31
4,M,Evgeniy Gelunov,Евгений Гелунов,98.3,,,,,,152.5,-162.5,-162.5,152.5,,,,,,,152.5,100,B,Raw,Yes,Amateur Open,36,1982-03-12
5,M,Shamil Gadzhiev,Шамиль Гаджиев,99.8,,,,,,140,145,-150,145,,,,,,,145,100,B,Raw,Yes,Amateur Open,24,1994-02-19
1,M,Vyacheslav Kalmykov,Вячеслав Калмыков,99,,,,,,150,162.5,-170,162.5,,,,,,,162.5,100,B,Raw,Yes,Amateur Masters 40-49,46,1972-08-15
1,M,Magomedemin Bakhmudov,Магомедэмин Бахмудов,103.7,,,,,,-205,205,207.5,207.5,,,,,,,207.5,110,B,Raw,Yes,Amateur Open,29,1989-02-17
2,M,Aleksandr Pakhuchiy,Александр Пахучий,108.5,,,,,,190,205,-215,205,,,,,,,205,110,B,Raw,Yes,Amateur Open,40,1978-04-24
3,M,Umar Bugov,Умар Бугов,104.3,,,,,,200,-205,-205,200,,,,,,,200,110,B,Raw,Yes,Amateur Open,29,1989-03-02
4,M,Vladimir Petrykin,Владимир Петрыкин,104.9,,,,,,190,195,-200,195,,,,,,,195,110,B,Raw,Yes,Amateur Open,37,1981-09-25
5,M,Azamat Kuralov,Азамат Куралов,106.9,,,,,,180,-190,-195,180,,,,,,,180,110,B,Raw,Yes,Amateur Open,38,1980-04-16
6,M,Ilya Vasilev,Илья Васильев,109.9,,,,,,167.5,172.5,-180,172.5,,,,,,,172.5,110,B,Raw,Yes,Amateur Open,36,1982-05-16
7,M,Magomedamin Israpilov,Магомедамин Исрапилов,109.6,,,,,,160,170,-175,170,,,,,,,170,110,B,Raw,Yes,Amateur Open,43,1975-05-03
8,M,Rustam Tumgoev,Рустам Тумгоев,101.9,,,,,,155,165,-172.5,165,,,,,,,165,110,B,Raw,Yes,Amateur Open,28,1989-12-13
1,M,Magomedamin Israpilov,Магомедамин Исрапилов,109.6,,,,,,160,170,-175,170,,,,,,,170,110,B,Raw,Yes,Amateur Masters 40-49,43,1975-05-03
1,M,Evgeniy Kuchur,Евгений Кучур,124.9,,,,,,190,-202.5,-202.5,190,,,,,,,190,125,B,Raw,Yes,Amateur Open,36,1982-01-22
2,M,Asker Nachoev,Аскер Начоев,113.5,,,,,,175,180,185,185,,,,,,,185,125,B,Raw,Yes,Amateur Open,36,1982-11-11
3,M,Eduard Shovletov,Эдуард Шовлетов,123.5,,,,,,165,177.5,185,185,,,,,,,185,125,B,Raw,Yes,Amateur Open,31,1987-07-20
4,M,Aleksandr Belmas,Александр Бельмас,111.1,,,,,,165,172.5,177.5,177.5,,,,,,,177.5,125,B,Raw,Yes,Amateur Open,26,1992-07-20
5,M,Asker Guchapshev,Аскер Гучапшев,110.2,,,,,,160,-170,-170,160,,,,,,,160,125,B,Raw,Yes,Amateur Open,32,1986-11-12
6,M,Aleksey Shvachkin,Алексей Швачкин,123.3,,,,,,155,-162.5,-162.5,155,,,,,,,155,125,B,Raw,Yes,Amateur Open,25,1993-01-27
7,M,Magomed Khurshilov,Магомед Хуршилов,113.7,,,,,,130,-140,,130,,,,,,,130,125,B,Raw,Yes,Amateur Open,38,1980-02-14
1,M,Aleksandr Tsybulskiy,Александр Цыбульский,135.7,,,,,,165,172.5,-182.5,172.5,,,,,,,172.5,140,B,Raw,Yes,Amateur Open,29,1989-06-28
2,M,Zaur Totorkulov,Заур Тоторкулов,139.2,,,,,,160,165,,165,,,,,,,165,140,B,Raw,Yes,Amateur Open,39,1979-08-03
1,F,Anna Rodnina,Анна Роднина,79,,,,,,95,-100,-100,95,,,,,,,95,82.5,B,Raw,No,Pro Open,34,1984-04-28
1,M,Aram Markosyan,Арам Маркосян,75,,,,,,170,177.5,-180,177.5,,,,,,,177.5,75,B,Raw,No,Pro Open,30,1988-09-23
2,M,Dmitriy Tkachev,Дмитрий Ткачев,72,,,,,,160,165,-170,165,,,,,,,165,75,B,Raw,No,Pro Open,21,1997-05-20
1,M,Sergey Zubko,Сергей Зубко,80.3,,,,,,150,160,165,165,,,,,,,165,82.5,B,Raw,No,Pro Juniors,23,1994-12-10
1,M,Islam Ramazanov,Ислам Рамазанов,82.5,,,,,,185,192.5,197.5,197.5,,,,,,,197.5,82.5,B,Raw,No,Pro Open,27,1991-05-01
2,M,Eduard Petryuk,Эдуард Петрюк,79.2,,,,,,175,180,-185,180,,,,,,,180,82.5,B,Raw,No,Pro Open,42,1976-04-11
3,M,Aleksey Goncharenko,Алексей Гончаренко,80.9,,,,,,170,175,-182.5,175,,,,,,,175,82.5,B,Raw,No,Pro Open,37,1981-03-24
4,M,Maksim Gusakov,Максим Гусаков,82.1,,,,,,145,155,-165,155,,,,,,,155,82.5,B,Raw,No,Pro Open,28,1990-03-17
1,M,Eduard Petryuk,Эдуард Петрюк,79.2,,,,,,175,180,-185,180,,,,,,,180,82.5,B,Raw,No,Pro Masters 40-49,42,1976-04-11
2,M,Mikhail Goncharenko,Михаил Гончаренко,80.5,,,,,,175,,,175,,,,,,,175,82.5,B,Raw,No,Pro Masters 40-49,41,1977-08-11
1,M,Daniil Sharov,Даниил Шаров,86.4,,,,,,120,-135,-135,120,,,,,,,120,90,B,Raw,No,Pro Teen 17-19,18,2000-05-27
1,M,Tigran Arutyunov,Тигран Арутюнов,89,,,,,,215,220,-225,220,,,,,,,220,90,B,Raw,No,Pro Open,25,1993-07-02
2,M,Murad Magomedov,Мурад Магомедов,89.5,,,,,,192.5,200,202.5,202.5,,,,,,,202.5,90,B,Raw,No,Pro Open,29,1989-09-17
DQ,M,Kirill Anisimov,Кирилл Анисимов,90,,,,,,-185,-190,-190,,,,,,,,,90,B,Raw,No,Pro Open,29,1989-06-17
1,M,Roman Sharipov,Роман Шарипов,88.6,,,,,,-170,170,180,180,,,,,,,180,90,B,Raw,No,Pro Masters 40-49,48,1970-05-23
1,M,Sergey Lunyov,Сергей Лунёв,99.9,,,,,,240,247.5,250,250,,,,,,,250,100,B,Raw,No,Pro Open,31,1987-08-03
2,M,Evgeniy Tkachuk,Евгений Ткачук,100,,,,,,180,185,192.5,192.5,,,,,,,192.5,100,B,Raw,No,Pro Open,30,1988-04-05
3,M,Myatgasym Kasimov,Мятгасым Касимов,97.3,,,,,,190,-200,-200,190,,,,,,,190,100,B,Raw,No,Pro Open,25,1993-11-27
4,M,Konstantin Smychenko,Константин Смыченко,94.2,,,,,,-175,175,-185,175,,,,,,,175,100,B,Raw,No,Pro Open,35,1983-09-07
5,M,Vasiliy Smolich,Василий Смолич,96.8,,,,,,175,-180,-180,175,,,,,,,175,100,B,Raw,No,Pro Open,35,1983-11-02
1,M,Dmitriy Zhulay,Дмитрий Жулай,99.2,,,,,,175,-185,-185,175,,,,,,,175,100,B,Raw,No,Pro Masters 40-49,41,1977-11-28
1,M,Gor Darbinyan,Гор Дарбинян,108.7,,,,,,205,222.5,-232.5,222.5,,,,,,,222.5,110,B,Raw,No,Pro Juniors,22,1996-10-13
1,M,Gor Darbinyan,Гор Дарбинян,108.7,,,,,,205,222.5,-232.5,222.5,,,,,,,222.5,110,B,Raw,No,Pro Open,22,1996-10-13
2,M,Viktor Zhurin,Виктор Журин,109,,,,,,-165,165,175,175,,,,,,,175,110,B,Raw,No,Pro Open,24,1994-03-08
3,M,Magomedamin Israpilov,Магомедамин Исрапилов,109.6,,,,,,160,170,-175,170,,,,,,,170,110,B,Raw,No,Pro Open,43,1975-05-03
1,M,Magomedamin Israpilov,Магомедамин Исрапилов,109.6,,,,,,160,170,-175,170,,,,,,,170,110,B,Raw,No,Pro Masters 40-49,43,1975-05-03
1,M,Vladimir Bobryashov,Владимир Бобряшов,145.9,,,,,,200,210,217.5,217.5,,,,,,,217.5,140+,B,Raw,No,Pro Open,29,1988-12-22
1,M,Baysangur Uspanov,Байсангур Успанов,79,,,,,,225,-232.5,-232.5,225,,,,,,,225,82.5,B,Multi-ply,Yes,Amateur Open,28,1990-03-20
1,M,Sergey Biryukov #1,Сергей Бирюков,88.5,,,,,,205,215,-220,215,,,,,,,215,90,B,Multi-ply,Yes,Amateur Open,33,1985-07-17
1,M,Aleksey Polyashov,Алексей Поляшов,100,,,,,,230,-237.5,237.5,237.5,,,,,,,237.5,100,B,Multi-ply,Yes,Amateur Open,33,1985-05-27
2,M,Amirbek Shogenov,Амирбек Шогенов,97.9,,,,,,210,-230,230,230,,,,,,,230,100,B,Multi-ply,Yes,Amateur Open,35,1983-08-29
1,M,Vladimir Petrykin,Владимир Петрыкин,104.9,,,,,,282.5,-292.5,-292.5,282.5,,,,,,,282.5,110,B,Multi-ply,Yes,Amateur Open,37,1981-09-25
2,M,Magomedamin Israpilov,Магомедамин Исрапилов,109.6,,,,,,-250,-260,260,260,,,,,,,260,110,B,Multi-ply,Yes,Amateur Open,43,1975-05-03
3,M,Semen Vetryakov,Семен Ветряков,106.8,,,,,,230,-242.5,242.5,242.5,,,,,,,242.5,110,B,Multi-ply,Yes,Amateur Open,33,1984-12-10
1,M,Magomedamin Israpilov,Магомедамин Исрапилов,109.6,,,,,,-250,-260,260,260,,,,,,,260,110,B,Multi-ply,Yes,Amateur Masters 40-49,43,1975-05-03
1,M,Sergey Mezhitov,Сергей Межитов,152,,,,,,280,-292.5,-292.5,280,,,,,,,280,140+,B,Multi-ply,Yes,Amateur Open,39,1979-09-25
1,M,Georgiy Elkanishvili,Георгий Элканишвили,92.7,,,,,,265,-275,285,285,,,,,,,285,100,B,Multi-ply,No,Pro Open,30,1988-11-01
2,M,Dmitriy Belyanskiy,Дмитрий Белянский,97.5,,,,,,-230,235,,235,,,,,,,235,100,B,Multi-ply,No,Pro Open,19,1999-03-25
1,M,Magomedamin Israpilov,Магомедамин Исрапилов,109.6,,,,,,-250,-260,260,260,,,,,,,260,110,B,Multi-ply,No,Pro Open,43,1975-05-03
1,M,Magomedamin Israpilov,Магомедамин Исрапилов,109.6,,,,,,-250,-260,260,260,,,,,,,260,110,B,Multi-ply,No,Pro Masters 40-49,43,1975-05-03
1,M,Magomedamin Israpilov,Магомедамин Исрапилов,109.6,,,,,,-250,-260,260,260,,,,,,,260,110,B,Multi-ply,Yes,Amateur Open,43,1975-05-03
1,M,Magomedamin Israpilov,Магомедамин Исрапилов,109.6,,,,,,-250,-260,260,260,,,,,,,260,110,B,Multi-ply,Yes,Amateur Masters 40-49,43,1975-05-03
1,M,Magomedamin Israpilov,Магомедамин Исрапилов,109.6,,,,,,-250,-260,260,260,,,,,,,260,110,B,Multi-ply,No,Pro Open,43,1975-05-03
1,M,Magomedamin Israpilov,Магомедамин Исрапилов,109.6,,,,,,-250,-260,260,260,,,,,,,260,110,B,Multi-ply,No,Pro Masters 40-49,43,1975-05-03
1,F,Laura Totorkulova,Лаура Тоторкулова,58.8,,,,,,,,,,,80,90,-100,90,,90,60,D,Raw,Yes,Amateur Girls 14-16,14,2004-12-05
1,F,Sakhayana Zakharova,Сахаяна Захарова,59.8,,,,,,,,,,,100,-115,-115,100,,100,60,D,Raw,Yes,Amateur Juniors,23,1995-10-29
1,F,Karina Azaryan,Карина Азарян,58,,,,,,,,,,,157.5,170,175,175,,175,60,D,Raw,Yes,Amateur Open,29,1989-10-23
2,F,Oksana Soloveva,Оксана Соловьева,59.5,,,,,,,,,,,110,115,120,120,,120,60,D,Raw,Yes,Amateur Open,32,1986-03-07
3,F,Ekaterina Sokolova,Екатерина Соколова,60,,,,,,,,,,,-85,90,-100,90,,90,60,D,Raw,Yes,Amateur Open,27,1991-08-30
1,F,Alina Kochesokova,Алина Кочесокова,66.3,,,,,,,,,,,117.5,125,-130,125,,125,67.5,D,Raw,Yes,Amateur Open,31,1987-09-22
1,M,Arkhip Titkov,Архип Титков,43.1,,,,,,,,,,,80,-90,-90,80,,80,52,D,Raw,Yes,Amateur Teen 14-16,12,2006-07-28
1,M,Eduard Khomutov,Эдуард Хомутов,59.6,,,,,,,,,,,55,-70,80,80,,80,60,D,Raw,Yes,Amateur Teen 14-16,13,2005-04-04
1,M,Vladimir Serga,Владимир Серга,74.5,,,,,,,,,,,192.5,207.5,-212.5,207.5,,207.5,75,D,Raw,Yes,Amateur Teen 17-19,17,2001-01-01
2,M,Vyacheslav Kumanin,Вячеслав Куманин,70,,,,,,,,,,,170,185,-210,185,,185,75,D,Raw,Yes,Amateur Teen 17-19,17,2001-07-05
3,M,Daniil Pakhuchiy,Даниил Пахучий,71.3,,,,,,,,,,,170,-190,-190,170,,170,75,D,Raw,Yes,Amateur Teen 17-19,17,2001-09-12
1,M,Andrey Pichugin,Андрей Пичугин,75,,,,,,,,,,,-130,130,145,145,,145,75,D,Raw,Yes,Amateur Juniors,23,1995-06-14
1,M,Ernest Solomka,Эрнест Соломка,81.7,,,,,,,,,,,-150,150,160,160,,160,82.5,D,Raw,Yes,Amateur Teen 14-16,15,2003-07-30
2,M,Aleksandr Davydov,Александр Давыдов,81.2,,,,,,,,,,,100,112.5,125,125,,125,82.5,D,Raw,Yes,Amateur Teen 14-16,16,2002-07-14
1,M,Nariman Nakhaev,Нариман Нахаев,82.4,,,,,,,,,,,270,290,-302.5,290,,290,82.5,D,Raw,Yes,Amateur Open,24,1994-08-20
2,M,Dakhir Semenov,Дахир Семенов,78.3,,,,,,,,,,,220,-240,-240,220,,220,82.5,D,Raw,Yes,Amateur Open,24,1994-05-02
3,M,Arsen Shikhshabekov,Арсен Шихшабеков,82.5,,,,,,,,,,,-180,-190,190,190,,190,82.5,D,Raw,Yes,Amateur Open,30,1988-11-30
1,M,Vladislav Fam,Владислав Фам,90,,,,,,,,,,,247.5,-262.5,-262.5,247.5,,247.5,90,D,Raw,Yes,Amateur Teen 17-19,19,1999-01-01
1,M,Takhir Kuliev,Тахир Кулиев,87.9,,,,,,,,,,,-250,-250,250,250,,250,90,D,Raw,Yes,Amateur Open,38,1980-08-08
2,M,Imamutdin Ataev,Имамутдин Атаев,89.8,,,,,,,,,,,160,180,200,200,,200,90,D,Raw,Yes,Amateur Open,30,1988-10-12
1,M,Kirill Filipenko,Кирилл Филипенко,98.7,,,,,,,,,,,220,240,-250,240,,240,100,D,Raw,Yes,Amateur Juniors,21,1997-10-03
1,M,Pavel Protsenko,Павел Проценко,93.9,,,,,,,,,,,275,-290,290,290,,290,100,D,Raw,Yes,Amateur Open,24,1994-05-11
2,M,Feliks Kasimov,Феликс Касимов,100,,,,,,,,,,,270,290,-300,290,,290,100,D,Raw,Yes,Amateur Open,25,1993-03-29
1,M,Aleksandr Pakhuchiy,Александр Пахучий,108.5,,,,,,,,,,,280,300,315,315,,315,110,D,Raw,Yes,Amateur Open,40,1978-04-24
2,M,Rustam Tumgoev,Рустам Тумгоев,101.9,,,,,,,,,,,220,240,250,250,,250,110,D,Raw,Yes,Amateur Open,28,1989-12-13
3,M,Ilya Vasilev,Илья Васильев,109.9,,,,,,,,,,,225,235,247.5,247.5,,247.5,110,D,Raw,Yes,Amateur Open,36,1982-05-16
4,M,Taulan Totorkulov,Таулан Тоторкулов,105.3,,,,,,,,,,,180,190,200,200,,200,110,D,Raw,Yes,Amateur Open,33,1985-10-18
5,M,Magomedamin Israpilov,Магомедамин Исрапилов,109.6,,,,,,,,,,,200,-210,,200,,200,110,D,Raw,Yes,Amateur Open,43,1975-05-03
1,M,Magomedamin Israpilov,Магомедамин Исрапилов,109.6,,,,,,,,,,,200,-210,,200,,200,110,D,Raw,Yes,Amateur Masters 40-49,43,1975-05-03
1,M,Magomed Khurshilov,Магомед Хуршилов,113.7,,,,,,,,,,,240,250,-260,250,,250,125,D,Raw,Yes,Amateur Open,38,1980-02-14
1,M,Zaur Totorkulov,Заур Тоторкулов,139.2,,,,,,,,,,,265,282.5,,282.5,,282.5,140,D,Raw,Yes,Amateur Open,39,1979-08-03
1,F,Anna Rodnina,Анна Роднина,79,,,,,,,,,,,170,-175,,170,,170,82.5,D,Raw,No,Pro Open,34,1984-04-28
1,M,Andrey Ilchenko,Андрей Ильченко,81.3,,,,,,,,,,,-277.5,277.5,280,280,,280,82.5,D,Raw,No,Pro Juniors,20,1998-01-06
1,M,Islam Ramazanov,Ислам Рамазанов,82.5,,,,,,,,,,,270,285,295,295,,295,82.5,D,Raw,No,Pro Open,27,1991-05-01
2,M,Yuriy Goncharov,Юрий Гончаров,81.9,,,,,,,,,,,240,250,-252.5,250,,250,82.5,D,Raw,No,Pro Open,34,1984-10-14
3,M,Maksim Gusakov,Максим Гусаков,82.1,,,,,,,,,,,230,240,250,250,,250,82.5,D,Raw,No,Pro Open,28,1990-03-17
4,M,Yuriy Goncharov,Юрий Гончаров,81.9,,,,,,,,,,,240,250,-252.5,250,,250,82.5,D,Raw,No,Pro Open,34,1984-10-14
1,M,Roman Stupnikov,Роман Ступников,85.2,,,,,,,,,,,-305,320,-325,320,,320,90,D,Raw,No,Pro Open,30,1988-01-21
2,M,Magomed Matsuev,Магомед Мацуев,88.9,,,,,,,,,,,300,-310,-322.5,300,,300,90,D,Raw,No,Pro Open,30,1988-01-27
3,M,Aleksey Anosenko,Алексей Аносенко,87,,,,,,,,,,,220,232.5,-240,232.5,,232.5,90,D,Raw,No,Pro Open,27,1991-03-19
1,M,Gadzhi Ragimov,Гаджи Рагимов,99.7,,,,,,,,,,,277.5,292.5,-300,292.5,,292.5,100,D,Raw,No,Pro Open,28,1989-12-13
2,M,Suren Avanesyan,Сурен Аванесян,98.7,,,,,,,,,,,275,280,-285,280,,280,100,D,Raw,No,Pro Open,39,1979-07-26
3,M,Vasiliy Smolich,Василий Смолич,96.8,,,,,,,,,,,255,-262.5,-262.5,255,,255,100,D,Raw,No,Pro Open,35,1983-11-02
1,M,Sergey Zhokhov,Сергей Жохов,102.6,,,,,,,,,,,315,330,335,335,,335,110,D,Raw,No,Pro Open,31,1987-03-04
2,M,Viktor Zhurin,Виктор Журин,109,,,,,,,,,,,-255,-260,270,270,,270,110,D,Raw,No,Pro Open,24,1994-03-08
3,M,Magomedamin Israpilov,Магомедамин Исрапилов,109.6,,,,,,,,,,,200,-210,,200,,200,110,D,Raw,No,Pro Open,43,1975-05-03
1,M,Magomedamin Israpilov,Магомедамин Исрапилов,109.6,,,,,,,,,,,200,-210,,200,,200,110,D,Raw,No,Pro Masters 40-49,43,1975-05-03
1,M,Kirill Gulevskiy,Кирилл Гулевский,139.7,,,,,,,,,,,325,340,-350,340,,340,140,D,Raw,No,Pro Open,31,1987-10-07
